,Phase,diffMag
0,0.0,0.25110802833595475
1,0.03225806451612903,0.24915635900600705
2,0.06451612903225806,0.24365066625294732
3,0.0967741935483871,0.23563420899550375
4,0.12903225806451613,0.226960873778215
5,0.16129032258064518,0.22020266276699968
6,0.1935483870967742,0.21760163424724452
7,0.22580645161290322,0.22080597659245005
8,0.25806451612903225,0.23027650792854065
9,0.2903225806451613,0.24480719273488316
10,0.32258064516129037,0.26244266741351
11,0.3548387096774194,0.28107067960923265
12,0.3870967741935484,0.29869951749778734
13,0.41935483870967744,0.3136315724237038
14,0.45161290322580644,0.324424907703283
15,0.4838709677419355,0.33007253350237165
16,0.5161290322580645,0.33007253350237176
17,0.5483870967741935,0.3244249077032831
18,0.5806451612903226,0.313631572423704
19,0.6129032258064516,0.29869951749778734
20,0.6451612903225807,0.2810706796092329
21,0.6774193548387097,0.26244266741350997
22,0.7096774193548387,0.24480719273488316
23,0.7419354838709677,0.2302765079285406
24,0.7741935483870968,0.22080597659244985
25,0.8064516129032259,0.21760163424724457
26,0.8387096774193549,0.2202026627669998
27,0.8709677419354839,0.2269608737782148
28,0.9032258064516129,0.23563420899550344
29,0.935483870967742,0.24365066625294732
30,0.967741935483871,0.24915635900600702
31,1.0,0.25110802833595475
