,Phase,diffMag
0,0.0,0.12837347693398882
1,0.03225806451612903,0.1270282179308639
2,0.06451612903225806,0.12328690521961735
3,0.0967741935483871,0.11803248534120578
4,0.12903225806451613,0.11277626399349341
5,0.16129032258064518,0.10950525431753863
6,0.1935483870967742,0.11014627863512803
7,0.22580645161290322,0.1158684116484674
8,0.25806451612903225,0.12679510843003106
9,0.2903225806451613,0.1416823031186241
10,0.32258064516129037,0.15873212469284714
11,0.3548387096774194,0.17613146886713715
12,0.3870967741935484,0.1921848561469984
13,0.41935483870967744,0.2055209326937806
14,0.45161290322580644,0.21504430008479158
15,0.4838709677419355,0.21999621816481219
16,0.5161290322580645,0.2199962181648121
17,0.5483870967741935,0.21504430008479164
18,0.5806451612903226,0.2055209326937806
19,0.6129032258064516,0.19218485614699832
20,0.6451612903225807,0.1761314688671372
21,0.6774193548387097,0.15873212469284703
22,0.7096774193548387,0.14168230311862406
23,0.7419354838709677,0.126795108430031
24,0.7741935483870968,0.1158684116484674
25,0.8064516129032259,0.11014627863512799
26,0.8387096774193549,0.1095052543175386
27,0.8709677419354839,0.1127762639934934
28,0.9032258064516129,0.11803248534120571
29,0.935483870967742,0.12328690521961734
30,0.967741935483871,0.1270282179308639
31,1.0,0.1283734769339888
