,Phase,diffMag
0,0.0,0.2265934081262042
1,0.03225806451612903,0.2264708102232693
2,0.06451612903225806,0.22617179336489
3,0.0967741935483871,0.22586192440282482
4,0.12903225806451613,0.2257512730057839
5,0.16129032258064518,0.22592865741694393
6,0.1935483870967742,0.22625530593383905
7,0.22580645161290322,0.22652280386838616
8,0.25806451612903225,0.22658534384979592
9,0.2903225806451613,0.22640739617023267
10,0.32258064516129037,0.22608723398786806
11,0.3548387096774194,0.2258082652681032
12,0.3870967741935484,0.22577065517393358
13,0.41935483870967744,0.22600498561815288
14,0.45161290322580644,0.22633474560674083
15,0.4838709677419355,0.22656148449631014
16,0.5161290322580645,0.22656148449631003
17,0.5483870967741935,0.22633474560674083
18,0.5806451612903226,0.22600498561815277
19,0.6129032258064516,0.22577065517393372
20,0.6451612903225807,0.2258082652681034
21,0.6774193548387097,0.226087233987868
22,0.7096774193548387,0.22640739617023253
23,0.7419354838709677,0.2265853438497958
24,0.7741935483870968,0.2265228038683861
25,0.8064516129032259,0.22625530593383905
26,0.8387096774193549,0.22592865741694385
27,0.8709677419354839,0.22575127300578374
28,0.9032258064516129,0.22586192440282485
29,0.935483870967742,0.22617179336489004
30,0.967741935483871,0.22647081022326931
31,1.0,0.2265934081262042
