,Phase,diffMag
0,0.0,0.2188866766290906
1,0.03225806451612903,0.21487576798275115
2,0.06451612903225806,0.20324028135158492
3,0.0967741935483871,0.18524918519281455
4,0.12903225806451613,0.16313582727520293
5,0.16129032258064518,0.1401459137628711
6,0.1935483870967742,0.12086282987108833
7,0.22580645161290322,0.11124975650967443
8,0.25806451612903225,0.11552612524548025
9,0.2903225806451613,0.13302722767668573
10,0.32258064516129037,0.15865842391932092
11,0.3548387096774194,0.18712296929002378
12,0.3870967741935484,0.21443185362887962
13,0.41935483870967744,0.23744259224123165
14,0.45161290322580644,0.2539034081010452
15,0.4838709677419355,0.26244774628692036
16,0.5161290322580645,0.2624477462869205
17,0.5483870967741935,0.25390340810104534
18,0.5806451612903226,0.23744259224123185
19,0.6129032258064516,0.21443185362887962
20,0.6451612903225807,0.1871229692900238
21,0.6774193548387097,0.15865842391932083
22,0.7096774193548387,0.13302722767668573
23,0.7419354838709677,0.11552612524548021
24,0.7741935483870968,0.11124975650967434
25,0.8064516129032259,0.12086282987108832
26,0.8387096774193549,0.14014591376287103
27,0.8709677419354839,0.16313582727520293
28,0.9032258064516129,0.18524918519281433
29,0.935483870967742,0.20324028135158484
30,0.967741935483871,0.21487576798275096
31,1.0,0.2188866766290906
