,Phase,diffMag
0,0.0,0.2802498015633604
1,0.03225806451612903,0.28012280598465733
2,0.06451612903225806,0.2798145507889991
3,0.0967741935483871,0.2794978975139946
4,0.12903225806451613,0.2793855204636748
5,0.16129032258064518,0.27956584572969534
6,0.1935483870967742,0.27990040203356864
7,0.22580645161290322,0.2801766307784399
8,0.25806451612903225,0.2802414367850936
9,0.2903225806451613,0.28005723931090953
10,0.32258064516129037,0.2797278459076946
11,0.3548387096774194,0.27944335606830173
12,0.3870967741935484,0.2794051781901609
13,0.41935483870967744,0.27964372656009095
14,0.45161290322580644,0.2799822478147751
15,0.4838709677419355,0.280216702942904
16,0.5161290322580645,0.2802167029429041
17,0.5483870967741935,0.27998224781477515
18,0.5806451612903226,0.2796437265600912
19,0.6129032258064516,0.2794051781901608
20,0.6451612903225807,0.27944335606830184
21,0.6774193548387097,0.2797278459076944
22,0.7096774193548387,0.28005723931090964
23,0.7419354838709677,0.2802414367850936
24,0.7741935483870968,0.28017663077843996
25,0.8064516129032259,0.27990040203356875
26,0.8387096774193549,0.2795658457296954
27,0.8709677419354839,0.2793855204636747
28,0.9032258064516129,0.27949789751399434
29,0.935483870967742,0.2798145507889991
30,0.967741935483871,0.28012280598465733
31,1.0,0.2802498015633604
