,Phase,diffMag
0,0.0,0.22062408366578654
1,0.03225806451612903,0.2181244387733969
2,0.06451612903225806,0.21081530683567154
3,0.0967741935483871,0.19926798184603653
4,0.12903225806451613,0.1844185298658166
5,0.16129032258064518,0.1675025119247919
6,0.1935483870967742,0.1500461609735204
7,0.22580645161290322,0.13385447019751073
8,0.25806451612903225,0.12073582365704431
9,0.2903225806451613,0.11233500749727379
10,0.32258064516129037,0.10923515348034897
11,0.3548387096774194,0.11076480312235394
12,0.3870967741935484,0.11528603301700216
13,0.41935483870967744,0.12076897774953305
14,0.45161290322580644,0.12541601262056523
15,0.4838709677419355,0.12803252720811806
16,0.5161290322580645,0.12803252720811803
17,0.5483870967741935,0.12541601262056526
18,0.5806451612903226,0.12076897774953303
19,0.6129032258064516,0.11528603301700215
20,0.6451612903225807,0.11076480312235401
21,0.6774193548387097,0.1092351534803489
22,0.7096774193548387,0.11233500749727378
23,0.7419354838709677,0.1207358236570442
24,0.7741935483870968,0.1338544701975107
25,0.8064516129032259,0.1500461609735204
26,0.8387096774193549,0.16750251192479187
27,0.8709677419354839,0.1844185298658167
28,0.9032258064516129,0.19926798184603656
29,0.935483870967742,0.21081530683567154
30,0.967741935483871,0.21812443877339677
31,1.0,0.22062408366578654
