,Phase,diffMag
0,0.0,0.22481765994527447
1,0.03225806451612903,0.22344378639622078
2,0.06451612903225806,0.21939375828778984
3,0.0967741935483871,0.2128825608957923
4,0.12903225806451613,0.204265575889268
5,0.16129032258064518,0.19402006000629057
6,0.1935483870967742,0.18270421525775352
7,0.22580645161290322,0.17091149231406358
8,0.25806451612903225,0.15922257751884594
9,0.2903225806451613,0.1481841782741776
10,0.32258064516129037,0.13830170317687646
11,0.3548387096774194,0.1299760197198066
12,0.3870967741935484,0.12340066611699178
13,0.41935483870967744,0.11857451951447279
14,0.45161290322580644,0.11543274294083439
15,0.4838709677419355,0.11389272276610984
16,0.5161290322580645,0.11389272276610984
17,0.5483870967741935,0.11543274294083442
18,0.5806451612903226,0.1185745195144728
19,0.6129032258064516,0.12340066611699176
20,0.6451612903225807,0.12997601971980668
21,0.6774193548387097,0.13830170317687643
22,0.7096774193548387,0.14818417827417754
23,0.7419354838709677,0.15922257751884597
24,0.7741935483870968,0.17091149231406336
25,0.8064516129032259,0.18270421525775354
26,0.8387096774193549,0.19402006000629057
27,0.8709677419354839,0.20426557588926786
28,0.9032258064516129,0.21288256089579227
29,0.935483870967742,0.21939375828778981
30,0.967741935483871,0.22344378639622076
31,1.0,0.22481765994527447
