,Phase,diffMag
0,0.0,0.4764948716911642
1,0.03225806451612903,0.47649487169116433
2,0.06451612903225806,0.4764948716911643
3,0.0967741935483871,0.4764948716911644
4,0.12903225806451613,0.4764948716911645
5,0.16129032258064518,0.4764948716911644
6,0.1935483870967742,0.47649487169116433
7,0.22580645161290322,0.4764948716911645
8,0.25806451612903225,0.4764948716911644
9,0.2903225806451613,0.4764948716911642
10,0.32258064516129037,0.4764948716911645
11,0.3548387096774194,0.47649487169116433
12,0.3870967741935484,0.47649487169116445
13,0.41935483870967744,0.47649487169116433
14,0.45161290322580644,0.4764948716911642
15,0.4838709677419355,0.47649487169116445
16,0.5161290322580645,0.4764948716911645
17,0.5483870967741935,0.4764948716911643
18,0.5806451612903226,0.4764948716911644
19,0.6129032258064516,0.4764948716911643
20,0.6451612903225807,0.4764948716911645
21,0.6774193548387097,0.4764948716911643
22,0.7096774193548387,0.4764948716911642
23,0.7419354838709677,0.4764948716911642
24,0.7741935483870968,0.4764948716911644
25,0.8064516129032259,0.4764948716911643
26,0.8387096774193549,0.4764948716911644
27,0.8709677419354839,0.4764948716911644
28,0.9032258064516129,0.47649487169116445
29,0.935483870967742,0.4764948716911642
30,0.967741935483871,0.4764948716911642
31,1.0,0.4764948716911642
