,Phase,diffMag
0,0.0,0.13622960217556504
1,0.03225806451612903,0.13488318754874426
2,0.06451612903225806,0.1311120586739653
3,0.0967741935483871,0.1257504198502068
4,0.12903225806451613,0.12030453966843846
5,0.16129032258064518,0.11669121689361805
6,0.1935483870967742,0.11652772649173039
7,0.22580645161290322,0.12103843619574649
8,0.25806451612903225,0.13032326097483612
9,0.2903225806451613,0.14319823205968427
10,0.32258064516129037,0.15808101197574548
11,0.3548387096774194,0.17339769726617593
12,0.3870967741935484,0.18772312955499368
13,0.41935483870967744,0.19979040954472593
14,0.45161290322580644,0.20849489196857773
15,0.4838709677419355,0.21304992040753745
16,0.5161290322580645,0.21304992040753745
17,0.5483870967741935,0.20849489196857768
18,0.5806451612903226,0.19979040954472596
19,0.6129032258064516,0.1877231295549937
20,0.6451612903225807,0.1733976972661759
21,0.6774193548387097,0.15808101197574534
22,0.7096774193548387,0.14319823205968424
23,0.7419354838709677,0.13032326097483596
24,0.7741935483870968,0.12103843619574646
25,0.8064516129032259,0.1165277264917304
26,0.8387096774193549,0.11669121689361801
27,0.8709677419354839,0.12030453966843839
28,0.9032258064516129,0.12575041985020674
29,0.935483870967742,0.13111205867396533
30,0.967741935483871,0.13488318754874423
31,1.0,0.13622960217556504
