,Phase,diffMag
0,0.0,0.2820876481583878
1,0.03225806451612903,0.2794241611073384
2,0.06451612903225806,0.27166433139850893
3,0.0967741935483871,0.25949677449156006
4,0.12903225806451613,0.244053855832419
5,0.16129032258064518,0.22678056936065114
6,0.1935483870967742,0.2093439845423176
7,0.22580645161290322,0.19364246489623968
8,0.25806451612903225,0.18160651100497693
9,0.2903225806451613,0.17485889057205267
10,0.32258064516129037,0.17390600018941627
11,0.3548387096774194,0.1777010574705617
12,0.3870967741935484,0.1844779087615727
13,0.41935483870967744,0.19194881245619566
14,0.45161290322580644,0.19801907743516756
15,0.4838709677419355,0.2013673158209217
16,0.5161290322580645,0.20136731582092174
17,0.5483870967741935,0.19801907743516753
18,0.5806451612903226,0.19194881245619574
19,0.6129032258064516,0.18447790876157275
20,0.6451612903225807,0.1777010574705618
21,0.6774193548387097,0.1739060001894161
22,0.7096774193548387,0.17485889057205267
23,0.7419354838709677,0.1816065110049768
24,0.7741935483870968,0.19364246489623954
25,0.8064516129032259,0.20934398454231745
26,0.8387096774193549,0.22678056936065108
27,0.8709677419354839,0.24405385583241887
28,0.9032258064516129,0.2594967744915598
29,0.935483870967742,0.2716643313985088
30,0.967741935483871,0.2794241611073384
31,1.0,0.2820876481583878
