,Phase,diffMag
0,0.0,0.14341100226298067
1,0.03225806451612903,0.14341100226298067
2,0.06451612903225806,0.14341100226298067
3,0.0967741935483871,0.14341100226298067
4,0.12903225806451613,0.14341100226298067
5,0.16129032258064518,0.14341100226298067
6,0.1935483870967742,0.14341100226298067
7,0.22580645161290322,0.14341100226298067
8,0.25806451612903225,0.14341100226298067
9,0.2903225806451613,0.14341100226298067
10,0.32258064516129037,0.14341100226298067
11,0.3548387096774194,0.14341100226298067
12,0.3870967741935484,0.14341100226298067
13,0.41935483870967744,0.14341100226298067
14,0.45161290322580644,0.14341100226298065
15,0.4838709677419355,0.14341100226298067
16,0.5161290322580645,0.14341100226298067
17,0.5483870967741935,0.14341100226298067
18,0.5806451612903226,0.14341100226298067
19,0.6129032258064516,0.14341100226298067
20,0.6451612903225807,0.14341100226298067
21,0.6774193548387097,0.14341100226298067
22,0.7096774193548387,0.14341100226298067
23,0.7419354838709677,0.1434110022629806
24,0.7741935483870968,0.14341100226298067
25,0.8064516129032259,0.14341100226298067
26,0.8387096774193549,0.14341100226298067
27,0.8709677419354839,0.14341100226298067
28,0.9032258064516129,0.14341100226298067
29,0.935483870967742,0.14341100226298067
30,0.967741935483871,0.14341100226298065
31,1.0,0.14341100226298067
