,Phase,diffMag
0,0.0,0.20260482419096792
1,0.03225806451612903,0.20617712685343872
2,0.06451612903225806,0.2064632231586348
3,0.0967741935483871,0.2039372967890461
4,0.12903225806451613,0.20001479478748818
5,0.16129032258064518,0.1970218951517654
6,0.1935483870967742,0.1971811663876073
7,0.22580645161290322,0.2022635716259566
8,0.25806451612903225,0.21275020030060748
9,0.2903225806451613,0.22728486190677408
10,0.32258064516129037,0.24364546522648933
11,0.3548387096774194,0.25948996064575086
12,0.3870967741935484,0.27275487593642456
13,0.41935483870967744,0.2819293663995127
14,0.45161290322580644,0.2860983650656199
15,0.4838709677419355,0.28494611999708824
16,0.5161290322580645,0.2786384009098872
17,0.5483870967741935,0.2676692579477918
18,0.5806451612903226,0.2527977102006964
19,0.6129032258064516,0.23507553569785652
20,0.6451612903225807,0.21586079752427365
21,0.6774193548387097,0.19667127834464207
22,0.7096774193548387,0.17925271953427352
23,0.7419354838709677,0.16543449170242178
24,0.7741935483870968,0.1568735110528571
25,0.8064516129032259,0.15458509969897857
26,0.8387096774193549,0.15812390091061998
27,0.8709677419354839,0.1659790924338648
28,0.9032258064516129,0.17625960400335744
29,0.935483870967742,0.1867879675668205
30,0.967741935483871,0.1959240663219754
31,1.0,0.20260482419096792
