,Phase,diffMag
0,0.0,0.18913533751150968
1,0.03225806451612903,0.1929121078726276
2,0.06451612903225806,0.19662187643259713
3,0.0967741935483871,0.20009532877497463
4,0.12903225806451613,0.20316548908922233
5,0.16129032258064518,0.20567906540631095
6,0.1935483870967742,0.2075073092404872
7,0.22580645161290322,0.20855509700900843
8,0.25806451612903225,0.20876745134953423
9,0.2903225806451613,0.20813319423075752
10,0.32258064516129037,0.2066856772720647
11,0.3548387096774194,0.2045005898754279
12,0.3870967741935484,0.2016908551634043
13,0.41935483870967744,0.19839876453535488
14,0.45161290322580644,0.1947858748533481
15,0.4838709677419355,0.19102171962142925
16,0.5161290322580645,0.18727279801570434
17,0.5483870967741935,0.18369331412770612
18,0.5806451612903226,0.18041867057157582
19,0.6129032258064516,0.17756198548257263
20,0.6451612903225807,0.17521322529068256
21,0.6774193548387097,0.1734401464585069
22,0.7096774193548387,0.17229014526143405
23,0.7419354838709677,0.17179222955440723
24,0.7741935483870968,0.17195853559991492
25,0.8064516129032259,0.17278503827563643
26,0.8387096774193549,0.17425131041019665
27,0.8709677419354839,0.17631937880929663
28,0.9032258064516129,0.17893192214270004
29,0.935483870967742,0.18201027391809785
30,0.967741935483871,0.18545291784651058
31,1.0,0.18913533751150968
