,Phase,diffMag
0,0.0,0.11567222256783204
1,0.03225806451612903,0.11936562574973189
2,0.06451612903225806,0.12094511990381264
3,0.0967741935483871,0.12099203364170719
4,0.12903225806451613,0.12081005111900255
5,0.16129032258064518,0.12225633414176595
6,0.1935483870967742,0.12715075210926152
7,0.22580645161290322,0.13652731245407437
8,0.25806451612903225,0.15024235752483406
9,0.2903225806451613,0.16663261453469042
10,0.32258064516129037,0.1835657151339238
11,0.3548387096774194,0.19895097355802022
12,0.3870967741935484,0.2111055471903015
13,0.41935483870967744,0.21888416303954433
14,0.45161290322580644,0.2216604231397725
15,0.4838709677419355,0.2193181750524395
16,0.5161290322580645,0.21216349397296289
17,0.5483870967741935,0.20081363847153133
18,0.5806451612903226,0.18610776430593648
19,0.6129032258064516,0.16905021200345136
20,0.6451612903225807,0.15076112050393234
21,0.6774193548387097,0.13240944780598596
22,0.7096774193548387,0.11526259758837126
23,0.7419354838709677,0.10070680553817431
24,0.7741935483870968,0.09012121572401564
25,0.8064516129032259,0.08463499320571641
26,0.8387096774193549,0.08429025126451473
27,0.8709677419354839,0.0882385627448154
28,0.9032258064516129,0.09493663981516019
29,0.935483870967742,0.10265303152104291
30,0.967741935483871,0.10991113454253607
31,1.0,0.115672222567832
