,Phase,diffMag
0,0.0,0.2865484408692215
1,0.03225806451612903,0.2934067655826074
2,0.06451612903225806,0.3001238356821638
3,0.0967741935483871,0.3063730861700408
4,0.12903225806451613,0.3118445376648159
5,0.16129032258064518,0.31627373523563296
6,0.1935483870967742,0.3194599112874056
7,0.22580645161290322,0.321270505583652
8,0.25806451612903225,0.32163598126264586
9,0.2903225806451613,0.32054288577810114
10,0.32258064516129037,0.31803205356569353
11,0.3548387096774194,0.314203575472945
12,0.3870967741935484,0.3092239122902985
13,0.41935483870967744,0.30332707604687187
14,0.45161290322580644,0.29680337631075804
15,0.4838709677419355,0.2899750862665223
16,0.5161290322580645,0.28316508163143733
17,0.5483870967741935,0.2766681129509404
18,0.5806451612903226,0.2707329736732267
19,0.6129032258064516,0.26555841919388345
20,0.6451612903225807,0.261299330662911
21,0.6774193548387097,0.25807579413574805
22,0.7096774193548387,0.25597850915965376
23,0.7419354838709677,0.25506833570819026
24,0.7741935483870968,0.2553724963406568
25,0.8064516129032259,0.2568818281156902
26,0.8387096774193549,0.2595517821454713
27,0.8709677419354839,0.2633062132653094
28,0.9032258064516129,0.2680400265610691
29,0.935483870967742,0.2736167579342621
30,0.967741935483871,0.2798607284667739
31,1.0,0.2865484408692215
