,Phase,diffMag
0,0.0,0.09934911899901808
1,0.03225806451612903,0.10233961099198009
2,0.06451612903225806,0.10691645010274506
3,0.0967741935483871,0.11308132696155579
4,0.12903225806451613,0.1208249295713619
5,0.16129032258064518,0.13008437352738175
6,0.1935483870967742,0.1406115773442935
7,0.22580645161290322,0.15194260848374516
8,0.25806451612903225,0.16349734060808552
9,0.2903225806451613,0.1746632949957487
10,0.32258064516129037,0.1848251542278289
11,0.3548387096774194,0.193400206234051
12,0.3870967741935484,0.19989698877564044
13,0.41935483870967744,0.20396355875842737
14,0.45161290322580644,0.2054147640248538
15,0.4838709677419355,0.204233879041691
16,0.5161290322580645,0.20055353268288834
17,0.5483870967741935,0.19462683563366073
18,0.5806451612903226,0.1867975798450371
19,0.6129032258064516,0.17747567887167703
20,0.6451612903225807,0.16712016610903074
21,0.6774193548387097,0.15622059880645855
22,0.7096774193548387,0.14526319524829806
23,0.7419354838709677,0.13470420060373503
24,0.7741935483870968,0.12494819101809125
25,0.8064516129032259,0.11634520409384033
26,0.8387096774193549,0.1092050850377039
27,0.8709677419354839,0.10376090751786954
28,0.9032258064516129,0.10009873561145148
29,0.935483870967742,0.09818223954627579
30,0.967741935483871,0.09795160072859072
31,1.0,0.09934911899901808
