,Phase,diffMag
0,0.0,0.2281794193550634
1,0.03225806451612903,0.2468967701389268
2,0.06451612903225806,0.2625564719225127
3,0.0967741935483871,0.2732119448714318
4,0.12903225806451613,0.27724753138665315
5,0.16129032258064518,0.2744514860309317
6,0.1935483870967742,0.2664990842546607
7,0.22580645161290322,0.2566372515976395
8,0.25806451612903225,0.2486704065291663
9,0.2903225806451613,0.24514444819315637
10,0.32258064516129037,0.245736799840465
11,0.3548387096774194,0.24751354615040905
12,0.3870967741935484,0.24659949615787508
13,0.41935483870967744,0.2401251678290435
14,0.45161290322580644,0.2275277825700114
15,0.4838709677419355,0.2100763552748248
16,0.5161290322580645,0.18969231865961197
17,0.5483870967741935,0.1681494326800607
18,0.5806451612903226,0.14686644760798173
19,0.6129032258064516,0.1270805273508162
20,0.6451612903225807,0.11016105392309536
21,0.6774193548387097,0.09771180455549076
22,0.7096774193548387,0.09108038566948226
23,0.7419354838709677,0.09098835346983447
24,0.7741935483870968,0.09728950312484118
25,0.8064516129032259,0.10906259792710994
26,0.8387096774193549,0.12508142201591227
27,0.8709677419354839,0.14411775867427806
28,0.9032258064516129,0.16496525689782202
29,0.935483870967742,0.18649619362548348
30,0.967741935483871,0.2077959548020065
31,1.0,0.2281794193550634
