,Phase,diffMag
0,0.0,0.3230295093451198
1,0.03225806451612903,0.32284466230818537
2,0.06451612903225806,0.32321526272067036
3,0.0967741935483871,0.3239096195150725
4,0.12903225806451613,0.32449634851482356
5,0.16129032258064518,0.3246116773713348
6,0.1935483870967742,0.3241832238638908
7,0.22580645161290322,0.323476201444696
8,0.25806451612903225,0.3229314158695251
9,0.2903225806451613,0.3228888052354228
10,0.32258064516129037,0.32337381874673665
11,0.3548387096774194,0.32408390946719395
12,0.3870967741935484,0.32457830888603706
13,0.41935483870967744,0.32455038163460137
14,0.45161290322580644,0.3240163855503558
15,0.4838709677419355,0.32330761785981416
16,0.5161290322580645,0.3228663882156085
17,0.5483870967741935,0.3229676703201754
18,0.5806451612903226,0.3235471750700047
19,0.6129032258064516,0.32424400387772107
20,0.6451612903225807,0.3246259084593923
21,0.6774193548387097,0.3244557794804569
22,0.7096774193548387,0.32383802553558905
23,0.7419354838709677,0.32315665057994936
24,0.7741935483870968,0.3228370774398284
25,0.8064516129032259,0.3230780022508516
26,0.8387096774193549,0.32372824086243424
27,0.8709677419354839,0.3243833773286647
28,0.9032258064516129,0.3246371915854619
29,0.935483870967742,0.32433170967304237
30,0.967741935483871,0.3236554627459642
31,1.0,0.3230295093451198
