,Phase,diffMag
0,0.0,0.29775788201257947
1,0.03225806451612903,0.3191071503936115
2,0.06451612903225806,0.33260580959832425
3,0.0967741935483871,0.3355012391656047
4,0.12903225806451613,0.32629326770927725
5,0.16129032258064518,0.3063376607444299
6,0.1935483870967742,0.2808465891078799
7,0.22580645161290322,0.2587665929725774
8,0.25806451612903225,0.2500646207970201
9,0.2903225806451613,0.2589368918655539
10,0.32258064516129037,0.2806174633359943
11,0.3548387096774194,0.3040192577668575
12,0.3870967741935484,0.319856289275087
13,0.41935483870967744,0.32377842765158005
14,0.45161290322580644,0.31574294604399367
15,0.4838709677419355,0.29797564676985216
16,0.5161290322580645,0.27326751001224203
17,0.5483870967741935,0.24406561668284343
18,0.5806451612903226,0.21221393270393946
19,0.6129032258064516,0.17938266778606862
20,0.6451612903225807,0.14763071261228042
21,0.6774193548387097,0.11967161551143511
22,0.7096774193548387,0.09935895676211866
23,0.7419354838709677,0.09158050702159379
24,0.7741935483870968,0.09826140752603747
25,0.8064516129032259,0.117248294391615
26,0.8387096774193549,0.14422541519513868
27,0.8709677419354839,0.17559807630984947
28,0.9032258064516129,0.20867454755425988
29,0.935483870967742,0.24113042734655465
30,0.967741935483871,0.2712137420237655
31,1.0,0.29775788201257947
