,Phase,diffMag
0,0.0,0.1447000829010287
1,0.03225806451612903,0.14828409201206955
2,0.06451612903225806,0.14836684793157778
3,0.0967741935483871,0.14489337951202258
4,0.12903225806451613,0.1381410215831582
5,0.16129032258064518,0.12874655170815294
6,0.1935483870967742,0.11767292418499994
7,0.22580645161290322,0.10614736188619316
8,0.25806451612903225,0.09558450710835997
9,0.2903225806451613,0.08747277548124763
10,0.32258064516129037,0.08273308700380944
11,0.3548387096774194,0.08094549754922008
12,0.3870967741935484,0.08095390578319357
13,0.41935483870967744,0.08143847761482341
14,0.45161290322580644,0.08118299945350338
15,0.4838709677419355,0.07946705219112435
16,0.5161290322580645,0.07609665201267443
17,0.5483870967741935,0.07130588243678354
18,0.5806451612903226,0.06567636698128136
19,0.6129032258064516,0.06015056070476113
20,0.6451612903225807,0.05594392285017695
21,0.6774193548387097,0.05417598957773477
22,0.7096774193548387,0.05579592938028196
23,0.7419354838709677,0.06116410594104925
24,0.7741935483870968,0.06967126348679994
25,0.8064516129032259,0.08039115825151624
26,0.8387096774193549,0.09244314151852326
27,0.8709677419354839,0.10502113476520766
28,0.9032258064516129,0.11736083926154157
29,0.935483870967742,0.12860683229616152
30,0.967741935483871,0.13795479876022151
31,1.0,0.14470008290102873
