,Phase,diffMag
0,0.0,0.2130385074383374
1,0.03225806451612903,0.22003079519703445
2,0.06451612903225806,0.22263035966412464
3,0.0967741935483871,0.22048202022549568
4,0.12903225806451613,0.21362712182695467
5,0.16129032258064518,0.20272685108979702
6,0.1935483870967742,0.1892100487247374
7,0.22580645161290322,0.1750507323798312
8,0.25806451612903225,0.16245618530422914
9,0.2903225806451613,0.15341232453342654
10,0.32258064516129037,0.1487060466299398
11,0.3548387096774194,0.14736009735525438
12,0.3870967741935484,0.14756822847333798
13,0.41935483870967744,0.14730166122510097
14,0.45161290322580644,0.14507142779591412
15,0.4838709677419355,0.1403465107433802
16,0.5161290322580645,0.13328413617774656
17,0.5483870967741935,0.12445503414388681
18,0.5806451612903226,0.11470594398826792
19,0.6129032258064516,0.10518406609847379
20,0.6451612903225807,0.09742804910643776
21,0.6774193548387097,0.09293118692785599
22,0.7096774193548387,0.0929412073464885
23,0.7419354838709677,0.09814283261756732
24,0.7741935483870968,0.10808533631799036
25,0.8064516129032259,0.12168228373937644
26,0.8387096774193549,0.1377225917005952
27,0.8709677419354839,0.15495697361563618
28,0.9032258064516129,0.17222597182012764
29,0.935483870967742,0.18834177094039675
30,0.967741935483871,0.20223696629055557
31,1.0,0.21303850743833744
