,Phase,diffMag
0,0.0,0.32302950934511976
1,0.03225806451612903,0.32365546274596424
2,0.06451612903225806,0.3243317096730428
3,0.0967741935483871,0.3246371915854623
4,0.12903225806451613,0.3243833773286645
5,0.16129032258064518,0.32372824086243446
6,0.1935483870967742,0.3230780022508516
7,0.22580645161290322,0.32283707743982804
8,0.25806451612903225,0.3231566505799492
9,0.2903225806451613,0.3238380255355889
10,0.32258064516129037,0.324455779480457
11,0.3548387096774194,0.32462590845939193
12,0.3870967741935484,0.3242440038777207
13,0.41935483870967744,0.3235471750700044
14,0.45161290322580644,0.3229676703201756
15,0.4838709677419355,0.322866388215608
16,0.5161290322580645,0.3233076178598143
17,0.5483870967741935,0.32401638555035606
18,0.5806451612903226,0.3245503816346012
19,0.6129032258064516,0.3245783088860371
20,0.6451612903225807,0.3240839094671939
21,0.6774193548387097,0.32337381874673643
22,0.7096774193548387,0.32288880523542307
23,0.7419354838709677,0.3229314158695255
24,0.7741935483870968,0.3234762014446959
25,0.8064516129032259,0.3241832238638908
26,0.8387096774193549,0.3246116773713339
27,0.8709677419354839,0.3244963485148237
28,0.9032258064516129,0.3239096195150726
29,0.935483870967742,0.3232152627206706
30,0.967741935483871,0.3228446623081854
31,1.0,0.32302950934511976
