,Phase,diffMag
0,0.0,0.25095009809832686
1,0.03225806451612903,0.2660743419754908
2,0.06451612903225806,0.2726226375047011
3,0.0967741935483871,0.2693602261464168
4,0.12903225806451613,0.2565296634670819
5,0.16129032258064518,0.23696867722277692
6,0.1935483870967742,0.21700486250835002
7,0.22580645161290322,0.205588192943787
8,0.25806451612903225,0.20927924247184648
9,0.2903225806451613,0.2275558136694738
10,0.32258064516129037,0.25331469878101087
11,0.3548387096774194,0.27832843195489415
12,0.3870967741935484,0.29659281341896543
13,0.41935483870967744,0.3048799562878678
14,0.45161290322580644,0.3025473228921615
15,0.4838709677419355,0.2906422736863601
16,0.5161290322580645,0.2709305653484876
17,0.5483870967741935,0.245292884914644
18,0.5806451612903226,0.21555999311739507
19,0.6129032258064516,0.183712386178141
20,0.6451612903225807,0.15202043839116086
21,0.6774193548387097,0.12290779789056777
22,0.7096774193548387,0.0991816341060522
23,0.7419354838709677,0.08470188388423744
24,0.7741935483870968,0.08322301298661616
25,0.8064516129032259,0.09513620296848563
26,0.8387096774193549,0.1169584954321123
27,0.8709677419354839,0.14421635060792912
28,0.9032258064516129,0.17365293149680508
29,0.935483870967742,0.20270610613758974
30,0.967741935483871,0.22915034721756702
31,1.0,0.2509500980983269
