,Phase,diffMag
0,0.0,0.11967179903538787
1,0.03225806451612903,0.12924319635090678
2,0.06451612903225806,0.13949567344829628
3,0.0967741935483871,0.14986836013560378
4,0.12903225806451613,0.15960975046121065
5,0.16129032258064518,0.1679006427841773
6,0.1935483870967742,0.17403858156499527
7,0.22580645161290322,0.17756889923349545
8,0.25806451612903225,0.17828373477657627
9,0.2903225806451613,0.17614763278681161
10,0.32258064516129037,0.17127360011271203
11,0.3548387096774194,0.16398526218492743
12,0.3870967741935484,0.15486967491318177
13,0.41935483870967744,0.1447104322161912
14,0.45161290322580644,0.13431416360396733
15,0.4838709677419355,0.12434597934789068
16,0.5161290322580645,0.11525719259223625
17,0.5483870967741935,0.10729969675791412
18,0.5806451612903226,0.10057986365494262
19,0.6129032258064516,0.09511477817626407
20,0.6451612903225807,0.09087568597376569
21,0.6774193548387097,0.08781715444981178
22,0.7096774193548387,0.08589514384857302
23,0.7419354838709677,0.08507752772151013
24,0.7741935483870968,0.08534965115979143
25,0.8064516129032259,0.0867164557309777
26,0.8387096774193549,0.08920178789319853
27,0.8709677419354839,0.09284468805540573
28,0.9032258064516129,0.09769160560627692
29,0.935483870967742,0.10378249580551306
30,0.967741935483871,0.1111276795272145
31,1.0,0.11967179903538785
