,Phase,diffMag
0,0.0,0.27201828071271167
1,0.03225806451612903,0.28648401165168585
2,0.06451612903225806,0.2922167033074812
3,0.0967741935483871,0.28799306869377306
4,0.12903225806451613,0.2736964806233445
5,0.16129032258064518,0.2512200896372106
6,0.1935483870967742,0.224907833742028
7,0.22580645161290322,0.2015403764132127
8,0.25806451612903225,0.18909992470505493
9,0.2903225806451613,0.1917023686925949
10,0.32258064516129037,0.20662617351818158
11,0.3548387096774194,0.22586760893940147
12,0.3870967741935484,0.24211346449749277
13,0.41935483870967744,0.25094659292258853
14,0.45161290322580644,0.25072942470475934
15,0.4838709677419355,0.24165324873235705
16,0.5161290322580645,0.22500376242355924
17,0.5483870967741935,0.20258241608589178
18,0.5806451612903226,0.17637520492072092
19,0.6129032258064516,0.1485364968068391
20,0.6451612903225807,0.12146848940092556
21,0.6774193548387097,0.0980037691844882
22,0.7096774193548387,0.08191152395910613
23,0.7419354838709677,0.07761075710485693
24,0.7741935483870968,0.08651402975033305
25,0.8064516129032259,0.1062383306836377
26,0.8387096774193549,0.1326749685124838
27,0.8709677419354839,0.16268457945608186
28,0.9032258064516129,0.1938366341381484
29,0.935483870967742,0.2238181361975322
30,0.967741935483871,0.2505177292060044
31,1.0,0.2720182807127116
