,Phase,diffMag
0,0.0,0.1297570836952232
1,0.03225806451612903,0.1340149382568561
2,0.06451612903225806,0.13827895818143923
3,0.0967741935483871,0.14234399087559355
4,0.12903225806451613,0.14599472588500667
5,0.16129032258064518,0.14902335266431868
6,0.1935483870967742,0.15124842249530818
7,0.22580645161290322,0.15253199995710454
8,0.25806451612903225,0.1527928814506631
9,0.2903225806451613,0.15201442337388937
10,0.32258064516129037,0.15024615138703654
11,0.3548387096774194,0.14759897688551962
12,0.3870967741935484,0.14423453232422942
13,0.41935483870967744,0.14034976016122608
14,0.45161290322580644,0.13615857643792742
15,0.4838709677419355,0.1318732243666601
16,0.5161290322580645,0.12768834038173477
17,0.5483870967741935,0.12377015299751166
18,0.5806451612903226,0.12025171022924688
19,0.6129032258064516,0.11723338176702612
20,0.6451612903225807,0.11478685654817562
21,0.6774193548387097,0.1129606572341879
22,0.7096774193548387,0.11178557976264984
23,0.7419354838709677,0.11127907122312301
24,0.7741935483870968,0.11144809587799956
25,0.8064516129032259,0.11229036645211037
26,0.8387096774193549,0.11379393400017518
27,0.8709677419354839,0.11593513530775333
28,0.9032258064516129,0.11867494066340765
29,0.935483870967742,0.12195395933142202
30,0.967741935483871,0.12568680028747417
31,1.0,0.1297570836952232
