,Phase,diffMag
0,0.0,0.1245825383227782
1,0.03225806451612903,0.1349549463781227
2,0.06451612903225806,0.14596582381494735
3,0.0967741935483871,0.1570193282921382
4,0.12903225806451613,0.16736421840761925
5,0.16129032258064518,0.17619705826182583
6,0.1935483870967742,0.18279741059454618
7,0.22580645161290322,0.1866356441130417
8,0.25806451612903225,0.18741778057555156
9,0.2903225806451613,0.18508580183934523
10,0.32258064516129037,0.17981471235872865
11,0.3548387096774194,0.17201815695695322
12,0.3870967741935484,0.16233090840660885
13,0.41935483870967744,0.15153148379866344
14,0.45161290322580644,0.14041338892290742
15,0.4838709677419355,0.1296592719630992
16,0.5161290322580645,0.11976862786341536
17,0.5483870967741935,0.11104969083179278
18,0.5806451612903226,0.10365388486529135
19,0.6129032258064516,0.09762501998901661
20,0.6451612903225807,0.0929449768395318
21,0.6774193548387097,0.08956869262924659
22,0.7096774193548387,0.0874479614420667
23,0.7419354838709677,0.08654615528925887
24,0.7741935483870968,0.08684627297552976
25,0.8064516129032259,0.08835406518804616
26,0.8387096774193549,0.09109701462161854
27,0.8709677419354839,0.09511891014941568
28,0.9032258064516129,0.10046873372615409
29,0.935483870967742,0.1071817160503941
30,0.967741935483871,0.1152501193497269
31,1.0,0.1245825383227782
