,Phase,diffMag
0,0.0,0.11324916872024574
1,0.03225806451612903,0.11775837395637545
2,0.06451612903225806,0.12010320533389547
3,0.0967741935483871,0.12059018162148859
4,0.12903225806451613,0.12025719258886036
5,0.16129032258064518,0.12081169516047893
6,0.1935483870967742,0.12389333483276274
7,0.22580645161290322,0.13074729372466298
8,0.25806451612903225,0.14132968611384975
9,0.2903225806451613,0.15415120309095978
10,0.32258064516129037,0.16731226966639626
11,0.3548387096774194,0.1790406819943273
12,0.3870967741935484,0.18786768310429183
13,0.41935483870967744,0.19284051680343328
14,0.45161290322580644,0.19354670717343414
15,0.4838709677419355,0.1899957254739983
16,0.5161290322580645,0.1825155348345981
17,0.5483870967741935,0.17167541059281918
18,0.5806451612903226,0.1582456786586361
19,0.6129032258064516,0.14317237983614078
20,0.6451612903225807,0.127525390188777
21,0.6774193548387097,0.11233970117721542
22,0.7096774193548387,0.09861760485714144
23,0.7419354838709677,0.08743187561079038
24,0.7741935483870968,0.07985860810666862
25,0.8064516129032259,0.0768005892684949
26,0.8387096774193549,0.07824858893489003
27,0.8709677419354839,0.08328638825463716
28,0.9032258064516129,0.09068674003194593
29,0.935483870967742,0.09895968468266308
30,0.967741935483871,0.10678716610538463
31,1.0,0.11324916872024574
