,Phase,diffMag
0,0.0,0.11399204909408336
1,0.03225806451612903,0.12044422286130971
2,0.06451612903225806,0.12860482516703312
3,0.0967741935483871,0.13834625341513757
4,0.12903225806451613,0.149542563594777
5,0.16129032258064518,0.1620644977388546
6,0.1935483870967742,0.17562378547057977
7,0.22580645161290322,0.18961179091465197
8,0.25806451612903225,0.2031748783000792
9,0.2903225806451613,0.2153865722024581
10,0.32258064516129037,0.22538591942599595
11,0.3548387096774194,0.23247365062409284
12,0.3870967741935484,0.23620398917943689
13,0.41935483870967744,0.23644345456297397
14,0.45161290322580644,0.23335010540437626
15,0.4838709677419355,0.22728794115895898
16,0.5161290322580645,0.21873345502816888
17,0.5483870967741935,0.20821614400665303
18,0.5806451612903226,0.1962921877762465
19,0.6129032258064516,0.18352935179070165
20,0.6451612903225807,0.17049167450501182
21,0.6774193548387097,0.15771082000307138
22,0.7096774193548387,0.1456502336160048
23,0.7419354838709677,0.13469876336007452
24,0.7741935483870968,0.1251702804324578
25,0.8064516129032259,0.11734165958351751
26,0.8387096774193549,0.11146579046511194
27,0.8709677419354839,0.10772165227948434
28,0.9032258064516129,0.10615259459376913
29,0.935483870967742,0.10672814340461767
30,0.967741935483871,0.10937799965817464
31,1.0,0.11399204909408336
