,Phase,diffMag
0,0.0,0.17866048582049038
1,0.03225806451612903,0.19424209178405125
2,0.06451612903225806,0.20616766472609824
3,0.0967741935483871,0.2134649201323788
4,0.12903225806451613,0.21636146980486373
5,0.16129032258064518,0.21683894325998768
6,0.1935483870967742,0.21799618171220225
7,0.22580645161290322,0.22258051286288197
8,0.25806451612903225,0.23145078076591155
9,0.2903225806451613,0.24312108868555216
10,0.32258064516129037,0.25449471586472244
11,0.3548387096774194,0.2623949767171892
12,0.3870967741935484,0.2646120040892057
13,0.41935483870967744,0.2603513592243695
14,0.45161290322580644,0.2502286932867626
15,0.4838709677419355,0.23556032677815522
16,0.5161290322580645,0.21766903597214368
17,0.5483870967741935,0.19763459921734827
18,0.5806451612903226,0.17643855501738467
19,0.6129032258064516,0.15511122073525113
20,0.6451612903225807,0.13474407750534725
21,0.6774193548387097,0.1165124439868886
22,0.7096774193548387,0.10158415159689482
23,0.7419354838709677,0.0911688247857776
24,0.7741935483870968,0.08641484847656927
25,0.8064516129032259,0.08793269547882089
26,0.8387096774193549,0.09550662459469969
27,0.8709677419354839,0.10810214751547406
28,0.9032258064516129,0.12421428002492228
29,0.935483870967742,0.14225814887746221
30,0.967741935483871,0.16085402795090126
31,1.0,0.17866048582049032
