,Phase,diffMag
0,0.0,0.1481097738528051
1,0.03225806451612903,0.1519953158797514
2,0.06451612903225806,0.15403639496941024
3,0.0967741935483871,0.15400272036472942
4,0.12903225806451613,0.15178254078139083
5,0.16129032258064518,0.14741408358530353
6,0.1935483870967742,0.14109979221311883
7,0.22580645161290322,0.13319538785269694
8,0.25806451612903225,0.12417322713152178
9,0.2903225806451613,0.11457038000023025
10,0.32258064516129037,0.10493474895686862
11,0.3548387096774194,0.09578311071379864
12,0.3870967741935484,0.08756433961709675
13,0.41935483870967744,0.08060811249572325
14,0.45161290322580644,0.07509132542223368
15,0.4838709677419355,0.07107272975662174
16,0.5161290322580645,0.06856017088839732
17,0.5483870967741935,0.06753757301712973
18,0.5806451612903226,0.06797468670448664
19,0.6129032258064516,0.06983634944438899
20,0.6451612903225807,0.07304951921360424
21,0.6774193548387097,0.07749136000200217
22,0.7096774193548387,0.08301723047967771
23,0.7419354838709677,0.08947298167414
24,0.7741935483870968,0.09668228184388417
25,0.8064516129032259,0.10444317879054743
26,0.8387096774193549,0.11252705104322469
27,0.8709677419354839,0.12068173643684818
28,0.9032258064516129,0.12863327278272055
29,0.935483870967742,0.13607954431475125
30,0.967741935483871,0.14268876752001947
31,1.0,0.1481097738528051
