,Phase,diffMag
0,0.0,0.2616687435294547
1,0.03225806451612903,0.27495113168137836
2,0.06451612903225806,0.27970004519891395
3,0.0967741935483871,0.274848825341431
4,0.12903225806451613,0.2603495661552798
5,0.16129032258064518,0.2379983540940561
6,0.1935483870967742,0.21187338852632243
7,0.22580645161290322,0.18836309215586228
8,0.25806451612903225,0.17516778659034168
9,0.2903225806451613,0.1764060599674515
10,0.32258064516129037,0.18962112854175897
11,0.3548387096774194,0.20733444241777538
12,0.3870967741935484,0.22272343799429575
13,0.41935483870967744,0.23159853185923535
14,0.45161290322580644,0.2322520695018172
15,0.4838709677419355,0.22460007615794597
16,0.5161290322580645,0.20963522020074235
17,0.5483870967741935,0.18896351623315413
18,0.5806451612903226,0.1644942277307243
19,0.6129032258064516,0.13836576825967462
20,0.6451612903225807,0.11295335498566579
21,0.6774193548387097,0.09104777014386481
22,0.7096774193548387,0.07634257223591188
23,0.7419354838709677,0.0730738701130726
24,0.7741935483870968,0.08249315459577787
25,0.8064516129032259,0.10214650083050113
26,0.8387096774193549,0.1280235016471475
27,0.8709677419354839,0.15715359716871596
28,0.9032258064516129,0.18720841200167815
29,0.935483870967742,0.21597158208805048
30,0.967741935483871,0.2414164553331434
31,1.0,0.26166874352945463
