,Phase,diffMag
0,0.0,0.1847654667884607
1,0.03225806451612903,0.19652403327390836
2,0.06451612903225806,0.20962733489386112
3,0.0967741935483871,0.2234142543429385
4,0.12903225806451613,0.2375516031314499
5,0.16129032258064518,0.25204531700212296
6,0.1935483870967742,0.2671870440178542
7,0.22580645161290322,0.2831110540531453
8,0.25806451612903225,0.2992105905005106
9,0.2903225806451613,0.3141013369742941
10,0.32258064516129037,0.32608155072079964
11,0.3548387096774194,0.3336578661947324
12,0.3870967741935484,0.3359577333306186
13,0.41935483870967744,0.33295846473436164
14,0.45161290322580644,0.32541565550779605
15,0.4838709677419355,0.3144518343166463
16,0.5161290322580645,0.3010446473791884
17,0.5483870967741935,0.2858042591855728
18,0.5806451612903226,0.2691182995994089
19,0.6129032258064516,0.2514273596333157
20,0.6451612903225807,0.2334316703546197
21,0.6774193548387097,0.21612311509355175
22,0.7096774193548387,0.200573549984418
23,0.7419354838709677,0.1875973669300181
24,0.7741935483870968,0.1775361352802575
25,0.8064516129032259,0.17036569127662485
26,0.8387096774193549,0.16591115826911546
27,0.8709677419354839,0.164025051909055
28,0.9032258064516129,0.16477724636783925
29,0.935483870967742,0.16843947485730476
30,0.967741935483871,0.1751782356823829
31,1.0,0.1847654667884607
