,Phase,diffMag
0,0.0,0.21042531707574177
1,0.03225806451612903,0.22248240730016217
2,0.06451612903225806,0.23014862134010947
3,0.0967741935483871,0.23248276944003968
4,0.12903225806451613,0.22889482846107143
5,0.16129032258064518,0.2194674678036263
6,0.1935483870967742,0.20519967859322602
7,0.22580645161290322,0.18806900157804468
8,0.25806451612903225,0.1706009996779075
9,0.2903225806451613,0.15523210313593033
10,0.32258064516129037,0.14334438735739663
11,0.3548387096774194,0.13463641659115314
12,0.3870967741935484,0.12801166394119082
13,0.41935483870967744,0.12203823681909494
14,0.45161290322580644,0.11555476561301689
15,0.4838709677419355,0.10797801280854662
16,0.5161290322580645,0.09927498100252334
17,0.5483870967741935,0.0898715213027496
18,0.5806451612903226,0.08056736293886176
19,0.6129032258064516,0.07247655140382629
20,0.6451612903225807,0.06694450969982771
21,0.6774193548387097,0.06524654596532771
22,0.7096774193548387,0.06820335879994134
23,0.7419354838709677,0.07604786541746182
24,0.7741935483870968,0.0880678402390973
25,0.8064516129032259,0.10322001939672962
26,0.8387096774193549,0.12055485264585449
27,0.8709677419354839,0.13923113813670734
28,0.9032258064516129,0.15846253375553193
29,0.935483870967742,0.177378695285519
30,0.967741935483871,0.19503673281673686
31,1.0,0.21042531707574177
