,Phase,diffMag
0,0.0,0.13707975609364634
1,0.03225806451612903,0.14302299640341168
2,0.06451612903225806,0.14648509444600483
3,0.0967741935483871,0.14761154172980298
4,0.12903225806451613,0.147393139256383
5,0.16129032258064518,0.1477290064374226
6,0.1935483870967742,0.15055113483647778
7,0.22580645161290322,0.15739348497175112
8,0.25806451612903225,0.1684169316223548
9,0.2903225806451613,0.18207471730268243
10,0.32258064516129037,0.1961803533318219
11,0.3548387096774194,0.2086108587150026
12,0.3870967741935484,0.21761909784378614
13,0.41935483870967744,0.2221586050863205
14,0.45161290322580644,0.22190907213914876
15,0.4838709677419355,0.21705085829320334
16,0.5161290322580645,0.2080721281560877
17,0.5483870967741935,0.19562589342373818
18,0.5806451612903226,0.18049935691283645
19,0.6129032258064516,0.16366158449148466
20,0.6451612903225807,0.14626364192905272
21,0.6774193548387097,0.1294759348953484
22,0.7096774193548387,0.11450123964179833
23,0.7419354838709677,0.10258125177065178
24,0.7741935483870968,0.09489174694377175
25,0.8064516129032259,0.09231407886238359
26,0.8387096774193549,0.09469776108438613
27,0.8709677419354839,0.10098153206789179
28,0.9032258064516129,0.10982813769209888
29,0.935483870967742,0.11963286715762883
30,0.967741935483871,0.12904280602270066
31,1.0,0.13707975609364634
