,Phase,diffMag
0,0.0,0.1538284905946038
1,0.03225806451612903,0.17148554903945407
2,0.06451612903225806,0.18994081766709833
3,0.0967741935483871,0.20782180223995966
4,0.12903225806451613,0.22369811845855042
5,0.16129032258064518,0.23643350650293768
6,0.1935483870967742,0.2453851980062643
7,0.22580645161290322,0.25034991746394075
8,0.25806451612903225,0.25133896453674287
9,0.2903225806451613,0.24836724860051024
10,0.32258064516129037,0.24140309609596625
11,0.3548387096774194,0.23051075692509043
12,0.3870967741935484,0.21609197592052426
13,0.41935483870967744,0.19904552891670138
14,0.45161290322580644,0.18069356980193532
15,0.4838709677419355,0.1624830898318237
16,0.5161290322580645,0.14563497929044916
17,0.5483870967741935,0.13093353700559385
18,0.5806451612903226,0.1187194751866768
19,0.6129032258064516,0.10901402058634022
20,0.6451612903225807,0.10166957548084374
21,0.6774193548387097,0.09648640116146041
22,0.7096774193548387,0.09328340194761277
23,0.7419354838709677,0.09193412373183567
24,0.7741935483870968,0.09238230301474083
25,0.8064516129032259,0.09464681549512606
26,0.8387096774193549,0.09882013857447038
27,0.8709677419354839,0.1050589705973356
28,0.9032258064516129,0.11356004164647346
29,0.935483870967742,0.12450861589238456
30,0.967741935483871,0.13798532885666778
31,1.0,0.1538284905946038
