,Phase,diffMag
0,0.0,0.09925022121382139
1,0.03225806451612903,0.1046311199252883
2,0.06451612903225806,0.1117326255334857
3,0.0967741935483871,0.12046816032903944
4,0.12903225806451613,0.13073037698772624
5,0.16129032258064518,0.14235397339739955
6,0.1935483870967742,0.15496186909960857
7,0.22580645161290322,0.16791679034732573
8,0.25806451612903225,0.18043712355756145
9,0.2903225806451613,0.19172837873996007
10,0.32258064516129037,0.20106021441430813
11,0.3548387096774194,0.20782876687377064
12,0.3870967741935484,0.2116321784350043
13,0.41935483870967744,0.21232197435698677
14,0.45161290322580644,0.20999490341322422
15,0.4838709677419355,0.20493770472841125
16,0.5161290322580645,0.19756242395631324
17,0.5483870967741935,0.18835329184712063
18,0.5806451612903226,0.17782446460506995
19,0.6129032258064516,0.16648677279025592
20,0.6451612903225807,0.15482825561804156
21,0.6774193548387097,0.14330482545381146
22,0.7096774193548387,0.13232182786738333
23,0.7419354838709677,0.1222276550115436
24,0.7741935483870968,0.1133151436591067
25,0.8064516129032259,0.10583327739830616
26,0.8387096774193549,0.10001384619273822
27,0.8709677419354839,0.09604581562723617
28,0.9032258064516129,0.09400936431890392
29,0.935483870967742,0.0938895545411885
30,0.967741935483871,0.09565229055863644
31,1.0,0.0992502212138214
