,Phase,diffMag
0,0.0,0.1848741728428493
1,0.03225806451612903,0.20090413215868289
2,0.06451612903225806,0.211546205802403
3,0.0967741935483871,0.2161608657519063
4,0.12903225806451613,0.21395831732958343
5,0.16129032258064518,0.20554921422482103
6,0.1935483870967742,0.1952391158768868
7,0.22580645161290322,0.19113872310317373
8,0.25806451612903225,0.19985900641968757
9,0.2903225806451613,0.22081746605225083
10,0.32258064516129037,0.24566398506735576
11,0.3548387096774194,0.2655086385886866
12,0.3870967741935484,0.2752990506024839
13,0.41935483870967744,0.27421255212896495
14,0.45161290322580644,0.26406725533674225
15,0.4838709677419355,0.24700984514614113
16,0.5161290322580645,0.224674220043216
17,0.5483870967741935,0.19868617553907345
18,0.5806451612903226,0.1707469041012065
19,0.6129032258064516,0.14242167567621314
20,0.6451612903225807,0.11519671920937413
21,0.6774193548387097,0.09055247945410352
22,0.7096774193548387,0.07007562157226355
23,0.7419354838709677,0.05628202338281842
24,0.7741935483870968,0.05234519554702887
25,0.8064516129032259,0.059032921985083545
26,0.8387096774193549,0.0741586324394527
27,0.8709677419354839,0.09441297440625701
28,0.9032258064516129,0.11746466218450093
29,0.935483870967742,0.14143617557988017
30,0.967741935483871,0.16450885713211988
31,1.0,0.18487417284284932
