,Phase,diffMag
0,0.0,0.20048547680661494
1,0.03225806451612903,0.21845523911119277
2,0.06451612903225806,0.23036953664117876
3,0.0967741935483871,0.23502612329798553
4,0.12903225806451613,0.23169413703513872
5,0.16129032258064518,0.22168597213934305
6,0.1935483870967742,0.21010514776169453
7,0.22580645161290322,0.20524769965430797
8,0.25806451612903225,0.2133154377995343
9,0.2903225806451613,0.23359292307870083
10,0.32258064516129037,0.2582382756375083
11,0.3548387096774194,0.2785992045007397
12,0.3870967741935484,0.2891834632812902
13,0.41935483870967744,0.2884267297180719
14,0.45161290322580644,0.27773845323158725
15,0.4838709677419355,0.25942600838456303
16,0.5161290322580645,0.2355125880217798
17,0.5483870967741935,0.20786265196286655
18,0.5806451612903226,0.17827999896017158
19,0.6129032258064516,0.1484264400718777
20,0.6451612903225807,0.11990146440710531
21,0.6774193548387097,0.09426987338270623
22,0.7096774193548387,0.0732233660004784
23,0.7419354838709677,0.059424821584713114
24,0.7741935483870968,0.0560620129192031
25,0.8064516129032259,0.06381110930780225
26,0.8387096774193549,0.08031067923973195
27,0.8709677419354839,0.10216365413519052
28,0.9032258064516129,0.12699672101408993
29,0.935483870967742,0.15289851411761607
30,0.967741935483871,0.17801929950000242
31,1.0,0.20048547680661494
