,Phase,diffMag
0,0.0,0.24570673494673428
1,0.03225806451612903,0.26019524374816116
2,0.06451612903225806,0.2726213391112694
3,0.0967741935483871,0.28167883875205074
4,0.12903225806451613,0.2860077220013686
5,0.16129032258064518,0.28471775035009256
6,0.1935483870967742,0.2777892017869517
7,0.22580645161290322,0.2660901784004628
8,0.25806451612903225,0.2510768821020765
9,0.2903225806451613,0.23436301045745
10,0.32258064516129037,0.2172539109030758
11,0.3548387096774194,0.20046108587851716
12,0.3870967741935484,0.18410480203903226
13,0.41935483870967744,0.16817301144371713
14,0.45161290322580644,0.15304591437192472
15,0.4838709677419355,0.1394684516885277
16,0.5161290322580645,0.12820446482437667
17,0.5483870967741935,0.11978467466495174
18,0.5806451612903226,0.11446128867933912
19,0.6129032258064516,0.11220896799836241
20,0.6451612903225807,0.11279227336824008
21,0.6774193548387097,0.11595326750689826
22,0.7096774193548387,0.12151640148817806
23,0.7419354838709677,0.12934175655632135
24,0.7741935483870968,0.13932691548402362
25,0.8064516129032259,0.15137713455415222
26,0.8387096774193549,0.16531024267190347
27,0.8709677419354839,0.1807339124715738
28,0.9032258064516129,0.19706754285287603
29,0.935483870967742,0.21368032405893728
30,0.967741935483871,0.2300358823602913
31,1.0,0.24570673494673423
