,Phase,diffMag
0,0.0,0.5085527192671002
1,0.03225806451612903,0.5103373699535941
2,0.06451612903225806,0.5145899633288544
3,0.0967741935483871,0.5186615003120154
4,0.12903225806451613,0.5200166074813963
5,0.16129032258064518,0.517818974764259
6,0.1935483870967742,0.5134274182339648
7,0.22580645161290322,0.5095807519277942
8,0.25806451612903225,0.5086700679537025
9,0.2903225806451613,0.5112565613933467
10,0.32258064516129037,0.5157405779968498
11,0.3548387096774194,0.5193251308679154
12,0.3870967741935484,0.5197829859563533
13,0.41935483870967744,0.5168318653272554
14,0.45161290322580644,0.5123008409760788
15,0.4838709677419355,0.5090174028725177
16,0.5161290322580645,0.5090174028725178
17,0.5483870967741935,0.5123008409760795
18,0.5806451612903226,0.516831865327256
19,0.6129032258064516,0.5197829859563527
20,0.6451612903225807,0.5193251308679155
21,0.6774193548387097,0.5157405779968492
22,0.7096774193548387,0.5112565613933471
23,0.7419354838709677,0.5086700679537025
24,0.7741935483870968,0.5095807519277936
25,0.8064516129032259,0.5134274182339643
26,0.8387096774193549,0.5178189747642591
27,0.8709677419354839,0.5200166074813959
28,0.9032258064516129,0.5186615003120154
29,0.935483870967742,0.514589963328854
30,0.967741935483871,0.5103373699535942
31,1.0,0.5085527192671002
