,Phase,diffMag
0,0.0,0.27953148723432425
1,0.03225806451612903,0.28075430925936
2,0.06451612903225806,0.282056863728467
3,0.0967741935483871,0.28260275586737493
4,0.12903225806451613,0.2820964779829252
5,0.16129032258064518,0.2808827445859598
6,0.1935483870967742,0.2796672563354802
7,0.22580645161290322,0.2791763340258566
8,0.25806451612903225,0.27977785176394754
9,0.2903225806451613,0.28111036947284357
10,0.32258064516129037,0.2822876672487402
11,0.3548387096774194,0.2825709747248591
12,0.3870967741935484,0.28183512405158506
13,0.41935483870967744,0.2805486381152517
14,0.45161290322580644,0.2794524500814826
15,0.4838709677419355,0.27922467079212254
16,0.5161290322580645,0.28007283091226104
17,0.5483870967741935,0.28145581090484756
18,0.5806451612903226,0.2824592388260882
19,0.6129032258064516,0.28247238282946646
20,0.6451612903225807,0.28153808389122664
21,0.6774193548387097,0.2802266586764736
22,0.7096774193548387,0.2792941967940612
23,0.7419354838709677,0.27934450770726754
24,0.7741935483870968,0.28040325389983517
25,0.8064516129032259,0.28177577877282106
26,0.8387096774193549,0.2825653724421387
27,0.8709677419354839,0.282311859110306
28,0.9032258064516129,0.2812166471683856
29,0.935483870967742,0.27992896215301794
30,0.967741935483871,0.2792003427089097
31,1.0,0.27953148723432436
