,Phase,diffMag
0,0.0,0.24418623911641002
1,0.03225806451612903,0.26025802069173265
2,0.06451612903225806,0.2730124513299655
3,0.0967741935483871,0.28021968865869173
4,0.12903225806451613,0.2798800998528179
5,0.16129032258064518,0.2716987607545901
6,0.1935483870967742,0.2577511186676511
7,0.22580645161290322,0.2416069571988113
8,0.25806451612903225,0.22716034042639144
9,0.2903225806451613,0.2172967062208376
10,0.32258064516129037,0.2123901951297854
11,0.3548387096774194,0.21012258669729636
12,0.3870967741935484,0.20716783066823286
13,0.41935483870967744,0.20072128359553884
14,0.45161290322580644,0.19010080176249983
15,0.4838709677419355,0.17647919419800143
16,0.5161290322580645,0.1615720233659965
17,0.5483870967741935,0.1468611501515998
18,0.5806451612903226,0.13310106990236373
19,0.6129032258064516,0.1206268982060195
20,0.6451612903225807,0.11017863290972753
21,0.6774193548387097,0.10298250315303387
22,0.7096774193548387,0.10050157260071138
23,0.7419354838709677,0.10394188131955
24,0.7741935483870968,0.11339617631957565
25,0.8064516129032259,0.12803624000420388
26,0.8387096774193549,0.14641721780945638
27,0.8709677419354839,0.16672502921991147
28,0.9032258064516129,0.18741314770920423
29,0.935483870967742,0.20744611404762076
30,0.967741935483871,0.22639891068796292
31,1.0,0.24418623911641
