,Phase,diffMag
0,0.0,0.202655039635006
1,0.03225806451612903,0.2219295270222448
2,0.06451612903225806,0.23880599536632935
3,0.0967741935483871,0.25159416234086246
4,0.12903225806451613,0.25795026794636927
5,0.16129032258064518,0.2557425959576066
6,0.1935483870967742,0.24477408687182658
7,0.22580645161290322,0.22759484269560448
8,0.25806451612903225,0.20809801598280267
9,0.2903225806451613,0.1892537553974179
10,0.32258064516129037,0.1720045508924545
11,0.3548387096774194,0.15560312869987453
12,0.3870967741935484,0.13975781499655635
13,0.41935483870967744,0.12485004029345718
14,0.45161290322580644,0.11113853359895505
15,0.4838709677419355,0.09842785104237242
16,0.5161290322580645,0.08644456652096695
17,0.5483870967741935,0.07526572196701938
18,0.5806451612903226,0.06536261111828454
19,0.6129032258064516,0.05750285284941538
20,0.6451612903225807,0.05261807763322871
21,0.6774193548387097,0.05153447306317469
22,0.7096774193548387,0.054746442749159234
23,0.7419354838709677,0.062254965950007665
24,0.7741935483870968,0.07332542531800369
25,0.8064516129032259,0.08720624982467834
26,0.8387096774193549,0.1033242285918762
27,0.8709677419354839,0.12130593581327351
28,0.9032258064516129,0.14077184878401858
29,0.935483870967742,0.1612464688863631
30,0.967741935483871,0.182126508200947
31,1.0,0.20265503963500603
