,Phase,diffMag
0,0.0,0.2591019452083529
1,0.03225806451612903,0.2821697864957531
2,0.06451612903225806,0.298378347531378
3,0.0967741935483871,0.305150458747901
4,0.12903225806451613,0.3003045983299551
5,0.16129032258064518,0.2840441655452038
6,0.1935483870967742,0.26038737863364264
7,0.22580645161290322,0.2369701375226445
8,0.25806451612903225,0.2228294076307027
9,0.2903225806451613,0.22261487702425212
10,0.32258064516129037,0.23348156528109856
11,0.3548387096774194,0.24689339936059165
12,0.3870967741935484,0.2551679837176613
13,0.41935483870967744,0.25449892763587856
14,0.45161290322580644,0.24474130630713883
15,0.4838709677419355,0.22745672201694983
16,0.5161290322580645,0.20463528830356237
17,0.5483870967741935,0.1783465409570157
18,0.5806451612903226,0.1505431806448961
19,0.6129032258064516,0.12306662351595955
20,0.6451612903225807,0.09776906563425565
21,0.6774193548387097,0.07674132570994904
22,0.7096774193548387,0.0628759535903846
23,0.7419354838709677,0.05969908726533834
24,0.7741935483870968,0.06820289217511805
25,0.8064516129032259,0.08624472033554956
26,0.8387096774193549,0.11052769046490238
27,0.8709677419354839,0.1388385647027141
28,0.9032258064516129,0.169540360490082
29,0.935483870967742,0.20095657534123226
30,0.967741935483871,0.23139348110633112
31,1.0,0.25910194520835284
