,Phase,diffMag
0,0.0,0.13045291100937506
1,0.03225806451612903,0.14860718946340024
2,0.06451612903225806,0.16873861790987463
3,0.0967741935483871,0.18959959879526384
4,0.12903225806451613,0.20950637113372422
5,0.16129032258064518,0.22669097086260848
6,0.1935483870967742,0.2396327418789531
7,0.22580645161290322,0.24720988477398112
8,0.25806451612903225,0.24875984523381303
9,0.2903225806451613,0.24414482494060988
10,0.32258064516129037,0.23377240803644744
11,0.3548387096774194,0.21854242580940633
12,0.3870967741935484,0.19978544238962243
13,0.41935483870967744,0.17917645400949572
14,0.45161290322580644,0.15849047955817314
15,0.4838709677419355,0.13922776851289087
16,0.5161290322580645,0.12234686689332357
17,0.5483870967741935,0.10824568900026836
18,0.5806451612903226,0.09691587300837558
19,0.6129032258064516,0.08813316490833305
20,0.6451612903225807,0.08160394764337921
21,0.6774193548387097,0.07705218108120519
22,0.7096774193548387,0.07426132627481018
23,0.7419354838709677,0.07309052213176616
24,0.7741935483870968,0.0734791041681785
25,0.8064516129032259,0.07544730195393293
26,0.8387096774193549,0.07909608491116916
27,0.8709677419354839,0.08460519507611605
28,0.9032258064516129,0.09222414440199166
29,0.935483870967742,0.10224533763053222
30,0.967741935483871,0.11494214739193313
31,1.0,0.13045291100937506
