,Phase,diffMag
0,0.0,0.43165569844534246
1,0.03225806451612903,0.43260487749561555
2,0.06451612903225806,0.4348018884411984
3,0.0967741935483871,0.43681434170693123
4,0.12903225806451613,0.4374630505335165
5,0.16129032258064518,0.4364055801491801
6,0.1935483870967742,0.43421060924654986
7,0.22580645161290322,0.4322043710632761
8,0.25806451612903225,0.43171858828931176
9,0.2903225806451613,0.4330876080009195
10,0.32258064516129037,0.43537995394635504
11,0.3548387096774194,0.4371333926808582
12,0.3870967741935484,0.43735199283136084
13,0.41935483870967744,0.4359214955377225
14,0.45161290322580644,0.4336308496844822
15,0.4838709677419355,0.4319043422420386
16,0.5161290322580645,0.4319043422420386
17,0.5483870967741935,0.4336308496844816
18,0.5806451612903226,0.43592149553772297
19,0.6129032258064516,0.4373519928313613
20,0.6451612903225807,0.43713339268085816
21,0.6774193548387097,0.4353799539463547
22,0.7096774193548387,0.43308760800092017
23,0.7419354838709677,0.43171858828931153
24,0.7741935483870968,0.43220437106327636
25,0.8064516129032259,0.43421060924654975
26,0.8387096774193549,0.43640558014917963
27,0.8709677419354839,0.4374630505335168
28,0.9032258064516129,0.43681434170693073
29,0.935483870967742,0.4348018884411983
30,0.967741935483871,0.4326048774956156
31,1.0,0.4316556984453425
