,Phase,diffMag
0,0.0,0.29927972325376984
1,0.03225806451612903,0.32540829767820106
2,0.06451612903225806,0.3530029178692161
3,0.0967741935483871,0.37873139384562543
4,0.12903225806451613,0.39951203012590514
5,0.16129032258064518,0.413787036180831
6,0.1935483870967742,0.42192847145422463
7,0.22580645161290322,0.4255554606259308
8,0.25806451612903225,0.4261900464702229
9,0.2903225806451613,0.42419274773404086
10,0.32258064516129037,0.418537867605726
11,0.3548387096774194,0.4074817465650985
12,0.3870967741935484,0.38988350218556345
13,0.41935483870967744,0.3663165107692753
14,0.45161290322580644,0.3392189687071619
15,0.4838709677419355,0.31198171135706665
16,0.5161290322580645,0.28754943489814955
17,0.5483870967741935,0.26747071783034315
18,0.5806451612903226,0.2516821149556905
19,0.6129032258064516,0.23896066931220306
20,0.6451612903225807,0.22805384790172586
21,0.6774193548387097,0.2187852817623511
22,0.7096774193548387,0.212053918209383
23,0.7419354838709677,0.20893941826874995
24,0.7741935483870968,0.20999343898816097
25,0.8064516129032259,0.2150280211464989
26,0.8387096774193549,0.2231748050500049
27,0.8709677419354839,0.2333235431033291
28,0.9032258064516129,0.2450318763538479
29,0.935483870967742,0.259099831070029
30,0.967741935483871,0.27693387676088393
31,1.0,0.2992797232537698
