,Phase,diffMag
0,0.0,0.2976160920696427
1,0.03225806451612903,0.30112655711208997
2,0.06451612903225806,0.3072098865954092
3,0.0967741935483871,0.3119858002904295
4,0.12903225806451613,0.3127417820560335
5,0.16129032258064518,0.3090577388410208
6,0.1935483870967742,0.3029980113543763
7,0.22580645161290322,0.298278584607252
8,0.25806451612903225,0.29806374541695985
9,0.2903225806451613,0.3025583385702742
10,0.32258064516129037,0.30866593830430344
11,0.3548387096774194,0.3126105578629688
12,0.3870967741935484,0.3121981560929017
13,0.41935483870967744,0.30763472155612204
14,0.45161290322580644,0.3015400250682102
15,0.4838709677419355,0.2977280230642158
16,0.5161290322580645,0.2988247685124391
17,0.5483870967741935,0.3040932726830736
18,0.5806451612903226,0.3099780828376339
19,0.6129032258064516,0.31295096524321575
20,0.6451612903225807,0.3113824476977516
21,0.6774193548387097,0.30610929029601985
22,0.7096774193548387,0.30023031791197546
23,0.7419354838709677,0.29750287029931133
24,0.7741935483870968,0.2998623238645847
25,0.8064516129032259,0.3056653412534479
26,0.8387096774193549,0.31109802536630143
27,0.8709677419354839,0.3129953538718147
28,0.9032258064516129,0.3103228702045935
29,0.935483870967742,0.304542440680415
30,0.967741935483871,0.29912631468424716
31,1.0,0.29761609206964273
