,Phase,diffMag
0,0.0,0.38145743005982646
1,0.03225806451612903,0.38717207919942087
2,0.06451612903225806,0.39790788849222497
3,0.0967741935483871,0.4070001789742152
4,0.12903225806451613,0.4089582274650328
5,0.16129032258064518,0.40255668705796116
6,0.1935483870967742,0.39171533636774636
7,0.22580645161290322,0.3830467801318859
8,0.25806451612903225,0.38210294256890887
9,0.2903225806451613,0.3896381603370048
10,0.32258064516129037,0.40059269201972314
11,0.3548387096774194,0.40830055802936255
12,0.3870967741935484,0.4080662657934094
13,0.41935483870967744,0.4000221211410909
14,0.45161290322580644,0.3890811547566956
15,0.4838709677419355,0.38194592304865493
16,0.5161290322580645,0.3833136784813477
17,0.5483870967741935,0.39232242106170984
18,0.5806451612903226,0.40306620541417193
19,0.6129032258064516,0.4090780687625732
20,0.6451612903225807,0.4066610768451466
21,0.6774193548387097,0.39729727475157856
22,0.7096774193548387,0.3866946274552507
23,0.7419354838709677,0.3814058822547878
24,0.7741935483870968,0.38503100237679044
25,0.8064516129032259,0.3951153877079677
26,0.8387096774193549,0.4052311214548049
27,0.8709677419354839,0.40930029945244156
28,0.9032258064516129,0.4047996111895926
29,0.935483870967742,0.3944910136293317
30,0.967741935483871,0.38465403543765897
31,1.0,0.3814574300598264
