,Phase,diffMag
0,0.0,0.2795314872343241
1,0.03225806451612903,0.27920034270890953
2,0.06451612903225806,0.27992896215301816
3,0.0967741935483871,0.28121664716838574
4,0.12903225806451613,0.2823118591103062
5,0.16129032258064518,0.28256537244213864
6,0.1935483870967742,0.2817757787728208
7,0.22580645161290322,0.2804032538998358
8,0.25806451612903225,0.2793445077072677
9,0.2903225806451613,0.27929419679406126
10,0.32258064516129037,0.28022665867647384
11,0.3548387096774194,0.2815380838912265
12,0.3870967741935484,0.28247238282946613
13,0.41935483870967744,0.2824592388260879
14,0.45161290322580644,0.28145581090484784
15,0.4838709677419355,0.28007283091226143
16,0.5161290322580645,0.2792246707921228
17,0.5483870967741935,0.2794524500814828
18,0.5806451612903226,0.28054863811525166
19,0.6129032258064516,0.2818351240515848
20,0.6451612903225807,0.2825709747248594
21,0.6774193548387097,0.2822876672487399
22,0.7096774193548387,0.2811103694728438
23,0.7419354838709677,0.2797778517639475
24,0.7741935483870968,0.2791763340258566
25,0.8064516129032259,0.27966725633548006
26,0.8387096774193549,0.28088274458595985
27,0.8709677419354839,0.2820964779829252
28,0.9032258064516129,0.28260275586737493
29,0.935483870967742,0.28205686372846733
30,0.967741935483871,0.28075430925936024
31,1.0,0.279531487234324
