,Phase,diffMag
0,0.0,0.12066137073275056
1,0.03225806451612903,0.14325560856037195
2,0.06451612903225806,0.17176494089829558
3,0.0967741935483871,0.20561261278909382
4,0.12903225806451613,0.24109617676876974
5,0.16129032258064518,0.2710559659927933
6,0.1935483870967742,0.2897816779382716
7,0.22580645161290322,0.2980435855642445
8,0.25806451612903225,0.29944922126883206
9,0.2903225806451613,0.2949762760535211
10,0.32258064516129037,0.28192602642630205
11,0.3548387096774194,0.2572492005395977
12,0.3870967741935484,0.2235439160973801
13,0.41935483870967744,0.18815780278954594
14,0.45161290322580644,0.15675692670389443
15,0.4838709677419355,0.13125160370644315
16,0.5161290322580645,0.11136675944817029
17,0.5483870967741935,0.09615413807173
18,0.5806451612903226,0.08466097594131583
19,0.6129032258064516,0.0761141347568619
20,0.6451612903225807,0.069932378243158
21,0.6774193548387097,0.0656985659061219
22,0.7096774193548387,0.06313055448984226
23,0.7419354838709677,0.06205917703654661
24,0.7741935483870968,0.0624143805942838
25,0.8064516129032259,0.06421935379058334
26,0.8387096774193549,0.0675924791379505
27,0.8709677419354839,0.07275716936061342
28,0.9032258064516129,0.08005981189301808
29,0.935483870967742,0.08999566873220201
30,0.967741935483871,0.10323939060638283
31,1.0,0.12066137073275054
