,Phase,diffMag
0,0.0,0.1930008034269765
1,0.03225806451612903,0.19632873698027276
2,0.06451612903225806,0.2013461126760748
3,0.0967741935483871,0.20460687073936593
4,0.12903225806451613,0.2046316527184431
5,0.16129032258064518,0.2016954027478155
6,0.1935483870967742,0.19709429396993358
7,0.22580645161290322,0.19337028319116129
8,0.25806451612903225,0.19347277733175655
9,0.2903225806451613,0.19757820678956386
10,0.32258064516129037,0.20242515992512844
11,0.3548387096774194,0.20492490090112608
12,0.3870967741935484,0.20414355204248694
13,0.41935483870967744,0.20062354155855175
14,0.45161290322580644,0.19595601204175433
15,0.4838709677419355,0.19295457141997469
16,0.5161290322580645,0.19421615809921386
17,0.5483870967741935,0.19887098771429623
18,0.5806451612903226,0.2033447719545615
19,0.6129032258064516,0.20503139141623677
20,0.6451612903225807,0.20347961569259018
21,0.6774193548387097,0.19947338069699486
22,0.7096774193548387,0.1949200068283182
23,0.7419354838709677,0.19282630851328408
24,0.7741935483870968,0.19518699869445139
25,0.8064516129032259,0.2001455215073363
26,0.8387096774193549,0.20407763026440245
27,0.8709677419354839,0.20493101698245203
28,0.9032258064516129,0.20265642191387148
29,0.935483870967742,0.1982826916030446
30,0.967741935483871,0.19404059147635017
31,1.0,0.19300080342697645
