,Phase,diffMag
0,0.0,0.185168653281079
1,0.03225806451612903,0.20221254623230148
2,0.06451612903225806,0.22063648520135468
3,0.0967741935483871,0.23906874374344989
4,0.12903225806451613,0.25582982348354616
5,0.16129032258064518,0.26957325818292494
6,0.1935483870967742,0.27956658298896386
7,0.22580645161290322,0.28534770562299
8,0.25806451612903225,0.2865293861667921
9,0.2903225806451613,0.28301124949701034
10,0.32258064516129037,0.2750688278574197
11,0.3548387096774194,0.2631365496778081
12,0.3870967741935484,0.24775730434741072
13,0.41935483870967744,0.2299563586698175
14,0.45161290322580644,0.21132447053530715
15,0.4838709677419355,0.19345606316233546
16,0.5161290322580645,0.17742435221565298
17,0.5483870967741935,0.16370395213549666
18,0.5806451612903226,0.1523730470001926
19,0.6129032258064516,0.14333810717205495
20,0.6451612903225807,0.13645378634077943
21,0.6774193548387097,0.1315596282389583
22,0.7096774193548387,0.12851210261104246
23,0.7419354838709677,0.1272202732289558
24,0.7741935483870968,0.12765001795042102
25,0.8064516129032259,0.12981218626577692
26,0.8387096774193549,0.13376781707168986
27,0.8709677419354839,0.13963705761613426
28,0.9032258064516129,0.14757707361013164
29,0.935483870967742,0.15774363547236384
30,0.967741935483871,0.17026407013992734
31,1.0,0.185168653281079
