,Phase,diffMag
0,0.0,0.12632112141633275
1,0.03225806451612903,0.1506396048475994
2,0.06451612903225806,0.17987356576749966
3,0.0967741935483871,0.21235838043304625
4,0.12903225806451613,0.24466844092855788
5,0.16129032258064518,0.27278656533752715
6,0.1935483870967742,0.2937321324317152
7,0.22580645161290322,0.3058656624885148
8,0.25806451612903225,0.30833850004374513
9,0.2903225806451613,0.30096749675922785
10,0.32258064516129037,0.2842830911200198
11,0.3548387096774194,0.25947397182767806
12,0.3870967741935484,0.22879499431600175
13,0.41935483870967744,0.1958887276850015
14,0.45161290322580644,0.16470220048492473
15,0.4838709677419355,0.13783031563256629
16,0.5161290322580645,0.11608957640191393
17,0.5483870967741935,0.09917263695380904
18,0.5806451612903226,0.08634952063866812
19,0.6129032258064516,0.07685300429741981
20,0.6451612903225807,0.07003236287431287
21,0.6774193548387097,0.06539383163530132
22,0.7096774193548387,0.06259589660889284
23,0.7419354838709677,0.06143240264690124
24,0.7741935483870968,0.0618178890712942
25,0.8064516129032259,0.06378064467253314
26,0.8387096774193549,0.06746505950257353
27,0.8709677419354839,0.07314279638077739
28,0.9032258064516129,0.0812296504533667
29,0.935483870967742,0.0922990170958443
30,0.967741935483871,0.10706985220861262
31,1.0,0.12632112141633275
