,Phase,diffMag
0,0.0,0.1350394646618601
1,0.03225806451612903,0.1538968382149256
2,0.06451612903225806,0.17565115067182993
3,0.0967741935483871,0.19801449126826484
4,0.12903225806451613,0.219241889883032
5,0.16129032258064518,0.2391959663867923
6,0.1935483870967742,0.258632729979953
7,0.22580645161290322,0.277819241490073
8,0.25806451612903225,0.29579305775039155
9,0.2903225806451613,0.31028491183817725
10,0.32258064516129037,0.31866891143059084
11,0.3548387096774194,0.31892465625762006
12,0.3870967741935484,0.3104416041230803
13,0.41935483870967744,0.29457201263596466
14,0.45161290322580644,0.2742619628856166
15,0.4838709677419355,0.252786782023255
16,0.5161290322580645,0.23211176888940876
17,0.5483870967741935,0.2124069386543642
18,0.5806451612903226,0.19338470164430507
19,0.6129032258064516,0.1751221909691419
20,0.6451612903225807,0.15809934832769698
21,0.6774193548387097,0.14301272845616828
22,0.7096774193548387,0.13035116700683996
23,0.7419354838709677,0.12017853866063369
24,0.7741935483870968,0.11237839244248336
25,0.8064516129032259,0.10686209187025353
26,0.8387096774193549,0.10359823465351935
27,0.8709677419354839,0.10271717599021173
28,0.9032258064516129,0.10471675047930279
29,0.935483870967742,0.11040600291935977
30,0.967741935483871,0.12043670411730834
31,1.0,0.1350394646618601
