,Phase,diffMag
0,0.0,0.14397317188110229
1,0.03225806451612903,0.1526353585454268
2,0.06451612903225806,0.15978448506425855
3,0.0967741935483871,0.16478061975217467
4,0.12903225806451613,0.16702815300147467
5,0.16129032258064518,0.16610784490579245
6,0.1935483870967742,0.16194139322046744
7,0.22580645161290322,0.15479523705632184
8,0.25806451612903225,0.1451688775597066
9,0.2903225806451613,0.13373739480410293
10,0.32258064516129037,0.1213330488589763
11,0.3548387096774194,0.10885024694650172
12,0.3870967741935484,0.09706948608584258
13,0.41935483870967744,0.08656026440868839
14,0.45161290322580644,0.07770486016950942
15,0.4838709677419355,0.07072405249707359
16,0.5161290322580645,0.065686618847272
17,0.5483870967741935,0.06253087133607083
18,0.5806451612903226,0.061120871569667334
19,0.6129032258064516,0.06131391894488707
20,0.6451612903225807,0.06296181893063425
21,0.6774193548387097,0.0659154256841674
22,0.7096774193548387,0.07005133643813187
23,0.7419354838709677,0.07527583388964001
24,0.7741935483870968,0.08150644900697687
25,0.8064516129032259,0.08866443777807308
26,0.8387096774193549,0.09666523933943105
27,0.8709677419354839,0.10541120524788278
28,0.9032258064516129,0.11477143373238281
29,0.935483870967742,0.12454510734123043
30,0.967741935483871,0.13442457435363783
31,1.0,0.1439731718811023
