,Phase,diffMag
0,0.0,0.06351819681360427
1,0.03225806451612903,0.06848421479378708
2,0.06451612903225806,0.0725387518493561
3,0.0967741935483871,0.07577240052277177
4,0.12903225806451613,0.07864553723311123
5,0.16129032258064518,0.08222636569892929
6,0.1935483870967742,0.08773023599910408
7,0.22580645161290322,0.09587134036991009
8,0.25806451612903225,0.10601912459588965
9,0.2903225806451613,0.11660851799212052
10,0.32258064516129037,0.12620738220385855
11,0.3548387096774194,0.1335756753943369
12,0.3870967741935484,0.13761934664806072
13,0.41935483870967744,0.13788127079163637
14,0.45161290322580644,0.13463635190311896
15,0.4838709677419355,0.12840233022296108
16,0.5161290322580645,0.1197441495555922
17,0.5483870967741935,0.10934170814441167
18,0.5806451612903226,0.0979183681149639
19,0.6129032258064516,0.08614016423508564
20,0.6451612903225807,0.07460331269360065
21,0.6774193548387097,0.06381885362863109
22,0.7096774193548387,0.05417262108277743
23,0.7419354838709677,0.04617405080215494
24,0.7741935483870968,0.040416709194789534
25,0.8064516129032259,0.03758480486768756
26,0.8387096774193549,0.03789405768322174
27,0.8709677419354839,0.04086418168610005
28,0.9032258064516129,0.04573371446678429
29,0.935483870967742,0.05165403635938538
30,0.967741935483871,0.05778210192797453
31,1.0,0.06351819681360425
