,Phase,diffMag
0,0.0,0.21556403012082673
1,0.03225806451612903,0.2496771355275099
2,0.06451612903225806,0.28456070283241874
3,0.0967741935483871,0.31162493875736536
4,0.12903225806451613,0.3250528207368877
5,0.16129032258064518,0.3267202481764951
6,0.1935483870967742,0.3235406139199308
7,0.22580645161290322,0.3254214445608216
8,0.25806451612903225,0.338598914294627
9,0.2903225806451613,0.36154034124848744
10,0.32258064516129037,0.38558025754711506
11,0.3548387096774194,0.39949561450900284
12,0.3870967741935484,0.39587909228117574
13,0.41935483870967744,0.3737422685256483
14,0.45161290322580644,0.33911350767374776
15,0.4838709677419355,0.30234108180011665
16,0.5161290322580645,0.27077471183910506
17,0.5483870967741935,0.24609490420695104
18,0.5806451612903226,0.2249724779831919
19,0.6129032258064516,0.20289019402304828
20,0.6451612903225807,0.177241853566697
21,0.6774193548387097,0.15038818388176894
22,0.7096774193548387,0.12796435958475277
23,0.7419354838709677,0.11441495990944672
24,0.7741935483870968,0.11110052237362002
25,0.8064516129032259,0.11699670231802273
26,0.8387096774193549,0.1290881281990494
27,0.8709677419354839,0.14277685000762771
28,0.9032258064516129,0.15543130237201522
29,0.935483870967742,0.1690412737105805
30,0.967741935483871,0.1881268126265592
31,1.0,0.21556403012082667
