,Phase,diffMag
0,0.0,0.11448909005165799
1,0.03225806451612903,0.12888630632714096
2,0.06451612903225806,0.14606717885598317
3,0.0967741935483871,0.16472527612718496
4,0.12903225806451613,0.18370913062925937
5,0.16129032258064518,0.20268672990861292
6,0.1935483870967742,0.22164831746016694
7,0.22580645161290322,0.24001889500779414
8,0.25806451612903225,0.2563488670001369
9,0.2903225806451613,0.26878374745193845
10,0.32258064516129037,0.27583891902328306
11,0.3548387096774194,0.27651620290294626
12,0.3870967741935484,0.27052621157544005
13,0.41935483870967744,0.25879819796134396
14,0.45161290322580644,0.2433486438830688
15,0.4838709677419355,0.22634867916624563
16,0.5161290322580645,0.20903992762947377
17,0.5483870967741935,0.19180505199066838
18,0.5806451612903226,0.17494546015547527
19,0.6129032258064516,0.1588652267613922
20,0.6451612903225807,0.14398200245667578
21,0.6774193548387097,0.13065723160586123
22,0.7096774193548387,0.11911531133557157
23,0.7419354838709677,0.10945646512358596
24,0.7741935483870968,0.10172031967302589
25,0.8064516129032259,0.09596232646288033
26,0.8387096774193549,0.09229463412441001
27,0.8709677419354839,0.09091166190249939
28,0.9032258064516129,0.09208838653765322
29,0.935483870967742,0.09618874118075176
30,0.967741935483871,0.10357204617537634
31,1.0,0.11448909005165799
