,Phase,diffMag
0,0.0,0.172122508829394
1,0.03225806451612903,0.19633811928480782
2,0.06451612903225806,0.22047827774832204
3,0.0967741935483871,0.23954199329308618
4,0.12903225806451613,0.2501601813890889
5,0.16129032258064518,0.2540938941757735
6,0.1935483870967742,0.25639621872796453
7,0.22580645161290322,0.2628360585926072
8,0.25806451612903225,0.27625450668773993
9,0.2903225806451613,0.29478032699348844
10,0.32258064516129037,0.3125655069698691
11,0.3548387096774194,0.32280961562247923
12,0.3870967741935484,0.32080972722932133
13,0.41935483870967744,0.30588131466944
14,0.45161290322580644,0.28213802430336216
15,0.4838709677419355,0.2557665518122714
16,0.5161290322580645,0.23108570221156247
17,0.5483870967741935,0.2090007538678682
18,0.5806451612903226,0.18793039018121033
19,0.6129032258064516,0.1666139642060902
20,0.6451612903225807,0.14494016876748106
21,0.6774193548387097,0.12430675806194011
22,0.7096774193548387,0.10713237403149534
23,0.7419354838709677,0.09544600414224756
24,0.7741935483870968,0.09017021843663277
25,0.8064516129032259,0.0913685507758851
26,0.8387096774193549,0.09789460929790988
27,0.8709677419354839,0.10778260508072023
28,0.9032258064516129,0.11973266535442179
29,0.935483870967742,0.13375493522087942
30,0.967741935483871,0.1509505038585926
31,1.0,0.17212250882939395
