,Phase,diffMag
0,0.0,0.2714920610285029
1,0.03225806451612903,0.2980168553912491
2,0.06451612903225806,0.32600197908131073
3,0.0967741935483871,0.3510734931988015
4,0.12903225806451613,0.3679011900591981
5,0.16129032258064518,0.37329075826301505
6,0.1935483870967742,0.36707190477307994
7,0.22580645161290322,0.3522253630276846
8,0.25806451612903225,0.33331422827115303
9,0.2903225806451613,0.31395327026766584
10,0.32258064516129037,0.29549872908810404
11,0.3548387096774194,0.2766749452430093
12,0.3870967741935484,0.25503417213152296
13,0.41935483870967744,0.2294217925368717
14,0.45161290322580644,0.20115889513041535
15,0.4838709677419355,0.1739159513507896
16,0.5161290322580645,0.15107806166860221
17,0.5483870967741935,0.13430704898604715
18,0.5806451612903226,0.12418442279696676
19,0.6129032258064516,0.11976879586800515
20,0.6451612903225807,0.11893557443560612
21,0.6774193548387097,0.12019423272875301
22,0.7096774193548387,0.12339357191755097
23,0.7419354838709677,0.12901762205910977
24,0.7741935483870968,0.13755753245740243
25,0.8064516129032259,0.1496590600628701
26,0.8387096774193549,0.16580170186526166
27,0.8709677419354839,0.18502615979042927
28,0.9032258064516129,0.2055291322870715
29,0.935483870967742,0.22634002847446516
30,0.967741935483871,0.24788604592602137
31,1.0,0.27149206102850293
