,Phase,diffMag
0,0.0,0.260068756348719
1,0.03225806451612903,0.2568705105689639
2,0.06451612903225806,0.2476337557952721
3,0.0967741935483871,0.23337306784277476
4,0.12903225806451613,0.21560337582984157
5,0.16129032258064518,0.19605494751602331
6,0.1935483870967742,0.17656268909664338
7,0.22580645161290322,0.15902837213720594
8,0.25806451612903225,0.145250043977227
9,0.2903225806451613,0.13663604921630992
10,0.32258064516129037,0.1335072135904707
11,0.3548387096774194,0.1348829997143488
12,0.3870967741935484,0.13922527177153424
13,0.41935483870967744,0.1444459845802957
14,0.45161290322580644,0.1487907511877178
15,0.4838709677419355,0.15121408428002386
16,0.5161290322580645,0.15121408428002395
17,0.5483870967741935,0.1487907511877179
18,0.5806451612903226,0.1444459845802957
19,0.6129032258064516,0.13922527177153418
20,0.6451612903225807,0.13488299971434892
21,0.6774193548387097,0.13350721359047052
22,0.7096774193548387,0.13663604921630979
23,0.7419354838709677,0.14525004397722696
24,0.7741935483870968,0.15902837213720591
25,0.8064516129032259,0.17656268909664338
26,0.8387096774193549,0.19605494751602326
27,0.8709677419354839,0.21560337582984138
28,0.9032258064516129,0.23337306784277467
29,0.935483870967742,0.24763375579527203
30,0.967741935483871,0.2568705105689639
31,1.0,0.26006875634871884
