,Phase,diffMag
0,0.0,0.13105899447676814
1,0.03225806451612903,0.13163231265437222
2,0.06451612903225806,0.13337756162205894
3,0.0967741935483871,0.1363527948171155
4,0.12903225806451613,0.14062012564925933
5,0.16129032258064518,0.14620856246412586
6,0.1935483870967742,0.1529978675876771
7,0.22580645161290322,0.16068606227442234
8,0.25806451612903225,0.168891792041306
9,0.2903225806451613,0.17722519056818045
10,0.32258064516129037,0.18529125415335126
11,0.3548387096774194,0.19269389519278232
12,0.3870967741935484,0.19906796204559843
13,0.41935483870967744,0.20410463193540382
14,0.45161290322580644,0.20757654085733296
15,0.4838709677419355,0.20934438683477297
16,0.5161290322580645,0.209344386834773
17,0.5483870967741935,0.20757654085733304
18,0.5806451612903226,0.204104631935404
19,0.6129032258064516,0.19906796204559843
20,0.6451612903225807,0.19269389519278254
21,0.6774193548387097,0.18529125415335115
22,0.7096774193548387,0.17722519056818054
23,0.7419354838709677,0.16889179204130603
24,0.7741935483870968,0.1606860622744223
25,0.8064516129032259,0.15299786758767717
26,0.8387096774193549,0.1462085624641259
27,0.8709677419354839,0.1406201256492593
28,0.9032258064516129,0.1363527948171155
29,0.935483870967742,0.13337756162205897
30,0.967741935483871,0.13163231265437222
31,1.0,0.13105899447676814
