,Phase,diffMag
0,0.0,0.12284226159912388
1,0.03225806451612903,0.12144199668015732
2,0.06451612903225806,0.11754794093645261
3,0.0967741935483871,0.1121196905983883
4,0.12903225806451613,0.10668534163854804
5,0.16129032258064518,0.1029498727617703
6,0.1935483870967742,0.10243797565109387
7,0.22580645161290322,0.10616332277273653
8,0.25806451612903225,0.11388609162977009
9,0.2903225806451613,0.12430890083452201
10,0.32258064516129037,0.13604117355364015
11,0.3548387096774194,0.14782898874498596
12,0.3870967741935484,0.1586398675511178
13,0.41935483870967744,0.16757152973870337
14,0.45161290322580644,0.17391074525638264
15,0.4838709677419355,0.1771934409280973
16,0.5161290322580645,0.1771934409280974
17,0.5483870967741935,0.17391074525638262
18,0.5806451612903226,0.16757152973870337
19,0.6129032258064516,0.15863986755111786
20,0.6451612903225807,0.14782898874498598
21,0.6774193548387097,0.13604117355364012
22,0.7096774193548387,0.12430890083452201
23,0.7419354838709677,0.11388609162977001
24,0.7741935483870968,0.10616332277273653
25,0.8064516129032259,0.10243797565109389
26,0.8387096774193549,0.10294987276177031
27,0.8709677419354839,0.10668534163854804
28,0.9032258064516129,0.11211969059838824
29,0.935483870967742,0.1175479409364526
30,0.967741935483871,0.12144199668015734
31,1.0,0.12284226159912388
