,Phase,diffMag
0,0.0,0.11782911263651696
1,0.03225806451612903,0.11617747121953799
2,0.06451612903225806,0.1113720350004296
3,0.0967741935483871,0.10384963101852526
4,0.12903225806451613,0.09429983922156801
5,0.16129032258064518,0.08358215688506329
6,0.1935483870967742,0.0725595311265563
7,0.22580645161290322,0.06219487395840117
8,0.25806451612903225,0.053483719145191434
9,0.2903225806451613,0.04739922167760717
10,0.32258064516129037,0.0444906875274651
11,0.3548387096774194,0.04433564745816301
12,0.3870967741935484,0.04599581447222645
13,0.41935483870967744,0.04843600938773448
14,0.45161290322580644,0.05061382035850352
15,0.4838709677419355,0.05185907019745759
16,0.5161290322580645,0.051859070197457606
17,0.5483870967741935,0.050613820358503536
18,0.5806451612903226,0.04843600938773448
19,0.6129032258064516,0.04599581447222643
20,0.6451612903225807,0.04433564745816303
21,0.6774193548387097,0.04449068752746507
22,0.7096774193548387,0.04739922167760717
23,0.7419354838709677,0.05348371914519141
24,0.7741935483870968,0.0621948739584011
25,0.8064516129032259,0.07255953112655628
26,0.8387096774193549,0.08358215688506328
27,0.8709677419354839,0.09429983922156801
28,0.9032258064516129,0.10384963101852525
29,0.935483870967742,0.11137203500042957
30,0.967741935483871,0.11617747121953799
31,1.0,0.11782911263651696
