,Phase,diffMag
0,0.0,0.2779431573469321
1,0.03225806451612903,0.2752860549159219
2,0.06451612903225806,0.26784757739738724
3,0.0967741935483871,0.257179001068618
4,0.12903225806451613,0.24572894899280454
5,0.16129032258064518,0.23631794743812926
6,0.1935483870967742,0.23111682138203413
7,0.22580645161290322,0.2315929666885941
8,0.25806451612903225,0.23776131000910738
9,0.2903225806451613,0.2481328572380103
10,0.32258064516129037,0.26088093876601826
11,0.3548387096774194,0.2743512812920929
12,0.3870967741935484,0.28716732627989666
13,0.41935483870967744,0.29813157930833156
14,0.45161290322580644,0.306137750595877
15,0.4838709677419355,0.31036232232022604
16,0.5161290322580645,0.310362322320226
17,0.5483870967741935,0.3061377505958771
18,0.5806451612903226,0.29813157930833173
19,0.6129032258064516,0.2871673262798966
20,0.6451612903225807,0.2743512812920931
21,0.6774193548387097,0.26088093876601787
22,0.7096774193548387,0.24813285723801037
23,0.7419354838709677,0.2377613100091073
24,0.7741935483870968,0.2315929666885939
25,0.8064516129032259,0.23111682138203415
26,0.8387096774193549,0.23631794743812937
27,0.8709677419354839,0.2457289489928044
28,0.9032258064516129,0.25717900106861785
29,0.935483870967742,0.26784757739738707
30,0.967741935483871,0.27528605491592184
31,1.0,0.2779431573469321
