,Phase,diffMag
0,0.0,0.28737649623916417
1,0.03225806451612903,0.2815038016387723
2,0.06451612903225806,0.2646149859603529
3,0.0967741935483871,0.2388953032129536
4,0.12903225806451613,0.20783329753330504
5,0.16129032258064518,0.1760228087550615
6,0.1935483870967742,0.14914312998884055
7,0.22580645161290322,0.13365629005414284
8,0.25806451612903225,0.13332101838267768
9,0.2903225806451613,0.14655391157829578
10,0.32258064516129037,0.1674275462348649
11,0.3548387096774194,0.19054465531424378
12,0.3870967741935484,0.21232648820393207
13,0.41935483870967744,0.23030073950420102
14,0.45161290322580644,0.2429247948882378
15,0.4838709677419355,0.2493992650016157
16,0.5161290322580645,0.2493992650016158
17,0.5483870967741935,0.24292479488823768
18,0.5806451612903226,0.23030073950420105
19,0.6129032258064516,0.2123264882039321
20,0.6451612903225807,0.19054465531424383
21,0.6774193548387097,0.16742754623486475
22,0.7096774193548387,0.1465539115782959
23,0.7419354838709677,0.1333210183826776
24,0.7741935483870968,0.13365629005414278
25,0.8064516129032259,0.14914312998884055
26,0.8387096774193549,0.17602280875506143
27,0.8709677419354839,0.207833297533305
28,0.9032258064516129,0.23889530321295338
29,0.935483870967742,0.26461498596035266
30,0.967741935483871,0.2815038016387723
31,1.0,0.28737649623916417
