,Phase,diffMag
0,0.0,0.22644437390913708
1,0.03225806451612903,0.22355056767321965
2,0.06451612903225806,0.2151815925966695
3,0.0967741935483871,0.202227215950972
4,0.12903225806451613,0.1860260959072237
5,0.16129032258064518,0.16812835358399886
6,0.1935483870967742,0.1501744867095278
7,0.22580645161290322,0.1339003067456779
8,0.25806451612903225,0.12097586080055399
9,0.2903225806451613,0.11275615764860683
10,0.32258064516129037,0.10961553024285961
11,0.3548387096774194,0.1106632715355461
12,0.3870967741935484,0.11447206518148956
13,0.41935483870967744,0.11915933465228468
14,0.45161290322580644,0.12308317403282282
15,0.4838709677419355,0.12527187608704435
16,0.5161290322580645,0.12527187608704438
17,0.5483870967741935,0.1230831740328228
18,0.5806451612903226,0.11915933465228472
19,0.6129032258064516,0.11447206518148953
20,0.6451612903225807,0.11066327153554616
21,0.6774193548387097,0.10961553024285957
22,0.7096774193548387,0.11275615764860683
23,0.7419354838709677,0.1209758608005539
24,0.7741935483870968,0.1339003067456778
25,0.8064516129032259,0.15017448670952777
26,0.8387096774193549,0.16812835358399883
27,0.8709677419354839,0.1860260959072236
28,0.9032258064516129,0.20222721595097204
29,0.935483870967742,0.21518159259666952
30,0.967741935483871,0.22355056767321962
31,1.0,0.226444373909137
