,Phase,diffMag
0,0.0,0.3331213667300612
1,0.03225806451612903,0.3266295828146805
2,0.06451612903225806,0.3079197763012865
3,0.0967741935483871,0.2792682686140054
4,0.12903225806451613,0.24427409525502747
5,0.16129032258064518,0.20734610819452434
6,0.1935483870967742,0.17336859671267507
7,0.22580645161290322,0.14793250403076597
8,0.25806451612903225,0.13640709386392227
9,0.2903225806451613,0.14041913040678303
10,0.32258064516129037,0.15621963289200858
11,0.3548387096774194,0.17685203124952886
12,0.3870967741935484,0.19724880916972126
13,0.41935483870967744,0.21441432612154473
14,0.45161290322580644,0.226587060958789
15,0.4838709677419355,0.2328611760549385
16,0.5161290322580645,0.23286117605493845
17,0.5483870967741935,0.22658706095878908
18,0.5806451612903226,0.2144143261215449
19,0.6129032258064516,0.19724880916972126
20,0.6451612903225807,0.17685203124952897
21,0.6774193548387097,0.1562196328920085
22,0.7096774193548387,0.14041913040678303
23,0.7419354838709677,0.1364070938639222
24,0.7741935483870968,0.1479325040307659
25,0.8064516129032259,0.17336859671267504
26,0.8387096774193549,0.20734610819452431
27,0.8709677419354839,0.24427409525502747
28,0.9032258064516129,0.2792682686140054
29,0.935483870967742,0.30791977630128625
30,0.967741935483871,0.32662958281468035
31,1.0,0.3331213667300612
