,Phase,diffMag
0,0.0,0.2541070887911674
1,0.03225806451612903,0.2504450167356009
2,0.06451612903225806,0.23982102433875796
3,0.0967741935483871,0.22328224641579444
4,0.12903225806451613,0.20242917797608884
5,0.16129032258064518,0.1792124850509423
6,0.1935483870967742,0.15581835077286624
7,0.22580645161290322,0.1344524211791976
8,0.25806451612903225,0.11708762799595518
9,0.2903225806451613,0.10522956332383028
10,0.32258064516129037,0.09914073079428959
11,0.3548387096774194,0.09793688031341267
12,0.3870967741935484,0.0998858519631274
13,0.41935483870967744,0.1030817627235706
14,0.45161290322580644,0.10598462036334733
15,0.4838709677419355,0.10765592354979592
16,0.5161290322580645,0.10765592354979593
17,0.5483870967741935,0.10598462036334733
18,0.5806451612903226,0.10308176272357061
19,0.6129032258064516,0.09988585196312735
20,0.6451612903225807,0.09793688031341274
21,0.6774193548387097,0.09914073079428953
22,0.7096774193548387,0.10522956332383028
23,0.7419354838709677,0.11708762799595514
24,0.7741935483870968,0.13445242117919756
25,0.8064516129032259,0.15581835077286613
26,0.8387096774193549,0.17921248505094234
27,0.8709677419354839,0.2024291779760888
28,0.9032258064516129,0.22328224641579428
29,0.935483870967742,0.2398210243387579
30,0.967741935483871,0.2504450167356008
31,1.0,0.25410708879116733
