,Phase,diffMag
0,0.0,0.2697962707601556
1,0.03225806451612903,0.2659158509108786
2,0.06451612903225806,0.2547891172510463
3,0.0967741935483871,0.23786576828220557
4,0.12903225806451613,0.21728127015013965
5,0.16129032258064518,0.19548104976365635
6,0.1935483870967742,0.17477338268726758
7,0.22580645161290322,0.157276250253881
8,0.25806451612903225,0.14475141631937913
9,0.2903225806451613,0.13825171596998523
10,0.32258064516129037,0.13755299621388187
11,0.3548387096774194,0.14120177675883241
12,0.3870967741935484,0.14706829872975472
13,0.41935483870967744,0.1530235188438402
14,0.45161290322580644,0.15764129487577383
15,0.4838709677419355,0.16012900498282884
16,0.5161290322580645,0.16012900498282887
17,0.5483870967741935,0.15764129487577394
18,0.5806451612903226,0.15302351884384022
19,0.6129032258064516,0.1470682987297547
20,0.6451612903225807,0.14120177675883241
21,0.6774193548387097,0.13755299621388178
22,0.7096774193548387,0.13825171596998523
23,0.7419354838709677,0.14475141631937902
24,0.7741935483870968,0.1572762502538809
25,0.8064516129032259,0.17477338268726758
26,0.8387096774193549,0.19548104976365635
27,0.8709677419354839,0.21728127015013962
28,0.9032258064516129,0.23786576828220546
29,0.935483870967742,0.25478911725104614
30,0.967741935483871,0.2659158509108786
31,1.0,0.2697962707601557
