,Phase,diffMag
0,0.0,0.24899306194404588
1,0.03225806451612903,0.24542856398273996
2,0.06451612903225806,0.23506863252926144
3,0.0967741935483871,0.2188842929470205
4,0.12903225806451613,0.1983827655041974
5,0.16129032258064518,0.17541776720401847
6,0.1935483870967742,0.1520293989906194
7,0.22580645161290322,0.13035478203095652
8,0.25806451612903225,0.11230330161628603
9,0.2903225806451613,0.09943787645734914
10,0.32258064516129037,0.09221186501011953
11,0.3548387096774194,0.08986022004411459
12,0.3870967741935484,0.09081963918292038
13,0.41935483870967744,0.09326616948032176
14,0.45161290322580644,0.09567910759551404
15,0.4838709677419355,0.09710685106997387
16,0.5161290322580645,0.09710685106997385
17,0.5483870967741935,0.09567910759551401
18,0.5806451612903226,0.09326616948032175
19,0.6129032258064516,0.09081963918292037
20,0.6451612903225807,0.08986022004411459
21,0.6774193548387097,0.09221186501011942
22,0.7096774193548387,0.09943787645734908
23,0.7419354838709677,0.11230330161628592
24,0.7741935483870968,0.1303547820309565
25,0.8064516129032259,0.15202939899061935
26,0.8387096774193549,0.17541776720401847
27,0.8709677419354839,0.1983827655041973
28,0.9032258064516129,0.2188842929470205
29,0.935483870967742,0.23506863252926144
30,0.967741935483871,0.24542856398273996
31,1.0,0.2489930619440459
