,Phase,diffMag
0,0.0,0.15581416957556488
1,0.03225806451612903,0.15554018657725946
2,0.06451612903225806,0.15473292677064635
3,0.0967741935483871,0.1534352951179233
4,0.12903225806451613,0.15171505265738103
5,0.16129032258064518,0.14965963446663114
6,0.1935483870967742,0.14736973550754148
7,0.22580645161290322,0.14495240669540577
8,0.25806451612903225,0.14251444711047542
9,0.2903225806451613,0.1401567771037682
10,0.32258064516129037,0.1379702398858963
11,0.3548387096774194,0.13603297098826875
12,0.3870967741935484,0.13440918682180664
13,0.41935483870967744,0.13314904695009724
14,0.45161290322580644,0.1322891652841796
15,0.4838709677419355,0.13185336640812567
16,0.5161290322580645,0.13185336640812556
17,0.5483870967741935,0.13228916528417958
18,0.5806451612903226,0.1331490469500972
19,0.6129032258064516,0.13440918682180664
20,0.6451612903225807,0.13603297098826894
21,0.6774193548387097,0.13797023988589635
22,0.7096774193548387,0.14015677710376825
23,0.7419354838709677,0.1425144471104753
24,0.7741935483870968,0.14495240669540574
25,0.8064516129032259,0.1473697355075415
26,0.8387096774193549,0.1496596344666311
27,0.8709677419354839,0.15171505265738103
28,0.9032258064516129,0.1534352951179233
29,0.935483870967742,0.15473292677064635
30,0.967741935483871,0.15554018657725943
31,1.0,0.15581416957556488
