,Phase,diffMag
0,0.0,0.22305312099357646
1,0.03225806451612903,0.22078767702069088
2,0.06451612903225806,0.21444306821999026
3,0.0967741935483871,0.20537411608668002
4,0.12903225806451613,0.19575985370081025
5,0.16129032258064518,0.1881049979987375
6,0.1935483870967742,0.1844068604762807
7,0.22580645161290322,0.18604340870126868
8,0.25806451612903225,0.1929759996607768
9,0.2903225806451613,0.2037550160686633
10,0.32258064516129037,0.2166318174822902
11,0.3548387096774194,0.23001035426417313
12,0.3870967741935484,0.24256469918773935
13,0.41935483870967744,0.25316135571399273
14,0.45161290322580644,0.26081638223501885
15,0.4838709677419355,0.2648284999660162
16,0.5161290322580645,0.26482849996601626
17,0.5483870967741935,0.26081638223501885
18,0.5806451612903226,0.2531613557139928
19,0.6129032258064516,0.24256469918773943
20,0.6451612903225807,0.2300103542641733
21,0.6774193548387097,0.21663181748229013
22,0.7096774193548387,0.20375501606866325
23,0.7419354838709677,0.1929759996607768
24,0.7741935483870968,0.18604340870126854
25,0.8064516129032259,0.18440686047628077
26,0.8387096774193549,0.18810499799873764
27,0.8709677419354839,0.19575985370081025
28,0.9032258064516129,0.20537411608667996
29,0.935483870967742,0.2144430682199903
30,0.967741935483871,0.22078767702069085
31,1.0,0.22305312099357646
