,Phase,diffMag
0,0.0,0.26697889489412624
1,0.03225806451612903,0.2614141148229813
2,0.06451612903225806,0.24542600612153245
3,0.0967741935483871,0.22112920641242398
4,0.12903225806451613,0.1918756190852085
5,0.16129032258064518,0.16209910061461746
6,0.1935483870967742,0.1372886504510063
7,0.22580645161290322,0.12368823192391336
8,0.25806451612903225,0.12481362562141295
9,0.2903225806451613,0.13896645601910856
10,0.32258064516129037,0.16024701487905985
11,0.3548387096774194,0.18345189612284468
12,0.3870967741935484,0.20513261929487928
13,0.41935483870967744,0.2229190274148735
14,0.45161290322580644,0.23536509604014655
15,0.4838709677419355,0.24173438672102765
16,0.5161290322580645,0.24173438672102768
17,0.5483870967741935,0.2353650960401466
18,0.5806451612903226,0.22291902741487357
19,0.6129032258064516,0.20513261929487928
20,0.6451612903225807,0.18345189612284468
21,0.6774193548387097,0.1602470148790597
22,0.7096774193548387,0.13896645601910865
23,0.7419354838709677,0.12481362562141289
24,0.7741935483870968,0.12368823192391322
25,0.8064516129032259,0.1372886504510063
26,0.8387096774193549,0.16209910061461755
27,0.8709677419354839,0.19187561908520837
28,0.9032258064516129,0.22112920641242376
29,0.935483870967742,0.24542600612153231
30,0.967741935483871,0.2614141148229812
31,1.0,0.26697889489412635
