,Phase,diffMag
0,0.0,0.36743091110765214
1,0.03225806451612903,0.3674359876373811
2,0.06451612903225806,0.3674480537661116
3,0.0967741935483871,0.367459598590662
4,0.12903225806451613,0.36746344649791435
5,0.16129032258064518,0.3674572081987505
6,0.1935483870967742,0.3674447578466197
7,0.22580645161290322,0.367433836686842
8,0.25806451612903225,0.36743124525217635
9,0.2903225806451613,0.3674385985911017
10,0.32258064516129037,0.367451315292709
11,0.3548387096774194,0.36746148243713345
12,0.3870967741935484,0.3674627827762292
13,0.41935483870967744,0.3674544089508602
14,0.45161290322580644,0.3674415624873586
15,0.4838709677419355,0.3674322339709741
16,0.5161290322580645,0.36743223397097396
17,0.5483870967741935,0.36744156248735876
18,0.5806451612903226,0.3674544089508602
19,0.6129032258064516,0.3674627827762292
20,0.6451612903225807,0.3674614824371335
21,0.6774193548387097,0.36745131529270897
22,0.7096774193548387,0.36743859859110173
23,0.7419354838709677,0.36743124525217596
24,0.7741935483870968,0.36743383668684193
25,0.8064516129032259,0.3674447578466197
26,0.8387096774193549,0.3674572081987504
27,0.8709677419354839,0.3674634464979143
28,0.9032258064516129,0.367459598590662
29,0.935483870967742,0.3674480537661117
30,0.967741935483871,0.367435987637381
31,1.0,0.36743091110765214
