,Phase,diffMag
0,0.0,0.25653876569277784
1,0.03225806451612903,0.2559790039908413
2,0.06451612903225806,0.2543264336993094
3,0.0967741935483871,0.2516606143081811
4,0.12903225806451613,0.24811150131182458
5,0.16129032258064518,0.243853598257556
6,0.1935483870967742,0.23909557009848054
7,0.22580645161290322,0.23406565640491822
8,0.25806451612903225,0.22899495874018225
9,0.2903225806451613,0.2241016882867683
10,0.32258064516129037,0.21957916572238517
11,0.3548387096774194,0.21558897178684308
12,0.3870967741935484,0.21225899639085666
13,0.41935483870967744,0.20968502516694015
14,0.45161290322580644,0.20793416386916658
15,0.4838709677419355,0.2070485964653496
16,0.5161290322580645,0.20704859646534957
17,0.5483870967741935,0.20793416386916658
18,0.5806451612903226,0.20968502516694018
19,0.6129032258064516,0.2122589963908566
20,0.6451612903225807,0.2155889717868432
21,0.6774193548387097,0.21957916572238514
22,0.7096774193548387,0.22410168828676824
23,0.7419354838709677,0.22899495874018228
24,0.7741935483870968,0.23406565640491828
25,0.8064516129032259,0.23909557009848056
26,0.8387096774193549,0.243853598257556
27,0.8709677419354839,0.2481115013118245
28,0.9032258064516129,0.25166061430818093
29,0.935483870967742,0.2543264336993094
30,0.967741935483871,0.2559790039908412
31,1.0,0.25653876569277784
