,Phase,diffMag
0,0.0,0.1717811621784207
1,0.03225806451612903,0.16944461415764853
2,0.06451612903225806,0.16286950208741152
3,0.0967741935483871,0.1533150085121069
4,0.12903225806451613,0.14279683566938833
5,0.16129032258064518,0.13379452619122745
6,0.1935483870967742,0.12857118019550878
7,0.22580645161290322,0.12843821969357516
8,0.25806451612903225,0.13349536093035347
9,0.2903225806451613,0.14244923824701325
10,0.32258064516129037,0.15352655194075904
11,0.3548387096774194,0.16510799434841092
12,0.3870967741935484,0.17581244859327638
13,0.41935483870967744,0.18466083390733104
14,0.45161290322580644,0.19094253997517616
15,0.4838709677419355,0.194193802766002
16,0.5161290322580645,0.19419380276600193
17,0.5483870967741935,0.19094253997517618
18,0.5806451612903226,0.18466083390733104
19,0.6129032258064516,0.1758124485932763
20,0.6451612903225807,0.16510799434841097
21,0.6774193548387097,0.15352655194075895
22,0.7096774193548387,0.1424492382470133
23,0.7419354838709677,0.13349536093035344
24,0.7741935483870968,0.12843821969357516
25,0.8064516129032259,0.12857118019550873
26,0.8387096774193549,0.13379452619122745
27,0.8709677419354839,0.1427968356693883
28,0.9032258064516129,0.15331500851210686
29,0.935483870967742,0.1628695020874115
30,0.967741935483871,0.16944461415764853
31,1.0,0.1717811621784207
