,Phase,diffMag
0,0.0,0.194086931457309
1,0.03225806451612903,0.18976632408932267
2,0.06451612903225806,0.1774199552297036
3,0.0967741935483871,0.15883775031294214
4,0.12903225806451613,0.13678196609202153
5,0.16129032258064518,0.11494022383861696
6,0.1935483870967742,0.09787932248566235
7,0.22580645161290322,0.09083709821897093
8,0.25806451612903225,0.09630858704123506
9,0.2903225806451613,0.11205754864906858
10,0.32258064516129037,0.13255708318118772
11,0.3548387096774194,0.15365655320343896
12,0.3870967741935484,0.172720890735493
13,0.41935483870967744,0.18802173751723258
14,0.45161290322580644,0.19858512902337863
15,0.4838709677419355,0.2039533664960872
16,0.5161290322580645,0.2039533664960871
17,0.5483870967741935,0.19858512902337866
18,0.5806451612903226,0.1880217375172327
19,0.6129032258064516,0.1727208907354929
20,0.6451612903225807,0.153656553203439
21,0.6774193548387097,0.13255708318118767
22,0.7096774193548387,0.11205754864906861
23,0.7419354838709677,0.09630858704123503
24,0.7741935483870968,0.09083709821897089
25,0.8064516129032259,0.09787932248566229
26,0.8387096774193549,0.11494022383861692
27,0.8709677419354839,0.13678196609202142
28,0.9032258064516129,0.15883775031294217
29,0.935483870967742,0.1774199552297036
30,0.967741935483871,0.18976632408932267
31,1.0,0.19408693145730901
