,Phase,diffMag
0,0.0,0.309336977838943
1,0.03225806451612903,0.303147393610725
2,0.06451612903225806,0.28533839285757456
3,0.0967741935483871,0.25817565507723866
4,0.12903225806451613,0.22527939811120903
5,0.16129032258064518,0.191388607698654
6,0.1935483870967742,0.1623399654490671
7,0.22580645161290322,0.14479237474213205
8,0.25806451612903225,0.1427450491029597
9,0.2903225806451613,0.15473210789307681
10,0.32258064516129037,0.17483365616156646
11,0.3548387096774194,0.19749836701077628
12,0.3870967741935484,0.21904495121041218
13,0.41935483870967744,0.23693470095140928
14,0.45161290322580644,0.2495464380056806
15,0.4838709677419355,0.2560283986902561
16,0.5161290322580645,0.25602839869025606
17,0.5483870967741935,0.24954643800568072
18,0.5806451612903226,0.23693470095140926
19,0.6129032258064516,0.21904495121041234
20,0.6451612903225807,0.19749836701077628
21,0.6774193548387097,0.17483365616156643
22,0.7096774193548387,0.15473210789307684
23,0.7419354838709677,0.14274504910295968
24,0.7741935483870968,0.14479237474213197
25,0.8064516129032259,0.16233996544906704
26,0.8387096774193549,0.19138860769865412
27,0.8709677419354839,0.2252793981112089
28,0.9032258064516129,0.25817565507723855
29,0.935483870967742,0.28533839285757434
30,0.967741935483871,0.3031473936107249
31,1.0,0.30933697783894304
