,Phase,diffMag
0,0.0,0.22469304409889893
1,0.03225806451612903,0.22838410151334781
2,0.06451612903225806,0.22738150387884734
3,0.0967741935483871,0.22258379234588221
4,0.12903225806451613,0.21609427956201985
5,0.16129032258064518,0.2107234432231767
6,0.1935483870967742,0.2088177360423257
7,0.22580645161290322,0.2119377831106073
8,0.25806451612903225,0.2199240225398113
9,0.2903225806451613,0.23091839957421334
10,0.32258064516129037,0.24272118901798678
11,0.3548387096774194,0.25348688565610994
12,0.3870967741935484,0.26197356071529
13,0.41935483870967744,0.2674833230956304
14,0.45161290322580644,0.269578259989268
15,0.4838709677419355,0.2679779422765648
16,0.5161290322580645,0.26253771920355473
17,0.5483870967741935,0.25336489039087384
18,0.5806451612903226,0.24095929228989643
19,0.6129032258064516,0.22624957624446823
20,0.6451612903225807,0.21051917298438488
21,0.6774193548387097,0.1951556689844858
22,0.7096774193548387,0.18153069857715906
23,0.7419354838709677,0.17103305059561263
24,0.7741935483870968,0.16502777378940192
25,0.8064516129032259,0.16463740294585902
26,0.8387096774193549,0.16984675750261624
27,0.8709677419354839,0.17949972902702985
28,0.9032258064516129,0.19195873326694937
29,0.935483870967742,0.20503584403956915
30,0.967741935483871,0.21653602154646218
31,1.0,0.22469304409889893
