,Phase,diffMag
0,0.0,0.2134437845864691
1,0.03225806451612903,0.2190124995571206
2,0.06451612903225806,0.22483109369963392
3,0.0967741935483871,0.23109307453225747
4,0.12903225806451613,0.2380778683795044
5,0.16129032258064518,0.24595097823284265
6,0.1935483870967742,0.25468377646063517
7,0.22580645161290322,0.2639022335060486
8,0.25806451612903225,0.27288888447055043
9,0.2903225806451613,0.2808675502191461
10,0.32258064516129037,0.2872531779853123
11,0.3548387096774194,0.29171719997737183
12,0.3870967741935484,0.29412732475791115
13,0.41935483870967744,0.2944487836190026
14,0.45161290322580644,0.29266597506636266
15,0.4838709677419355,0.28877178055153013
16,0.5161290322580645,0.28282976887528244
17,0.5483870967741935,0.27504954081558
18,0.5806451612903226,0.2658195515254298
19,0.6129032258064516,0.2556719118355581
20,0.6451612903225807,0.24518303140774558
21,0.6774193548387097,0.2348754736338786
22,0.7096774193548387,0.22517914842606743
23,0.7419354838709677,0.2164606875734481
24,0.7741935483870968,0.2091101700470954
25,0.8064516129032259,0.20357523136588979
26,0.8387096774193549,0.200249166310275
27,0.8709677419354839,0.19928001115757607
28,0.9032258064516129,0.20054685457841437
29,0.935483870967742,0.20370670955369893
30,0.967741935483871,0.20820534478581498
31,1.0,0.2134437845864691
