,Phase,diffMag
0,0.0,0.20869306646681637
1,0.03225806451612903,0.212503562458873
2,0.06451612903225806,0.21533605732748057
3,0.0967741935483871,0.21703458444061302
4,0.12903225806451613,0.21750539991071832
5,0.16129032258064518,0.21672251967915293
6,0.1935483870967742,0.21472915257485725
7,0.22580645161290322,0.21163529267418923
8,0.25806451612903225,0.2076110444850618
9,0.2903225806451613,0.20287489615637022
10,0.32258064516129037,0.19767675259951323
11,0.3548387096774194,0.19227730185496686
12,0.3870967741935484,0.18692724957706122
13,0.41935483870967744,0.181850539013772
14,0.45161290322580644,0.1772342715572985
15,0.4838709677419355,0.17322562342750902
16,0.5161290322580645,0.1699341140896364
17,0.5483870967741935,0.16743686105133573
18,0.5806451612903226,0.16578470085259744
19,0.6129032258064516,0.16500766563166597
20,0.6451612903225807,0.1651188994700143
21,0.6774193548387097,0.1661165589810907
22,0.7096774193548387,0.16798353940904515
23,0.7419354838709677,0.1706850463827824
24,0.7741935483870968,0.17416423155363867
25,0.8064516129032259,0.1783364477356006
26,0.8387096774193549,0.18308317758821085
27,0.8709677419354839,0.188247306475981
28,0.9032258064516129,0.19363197736451093
29,0.935483870967742,0.19900532554133912
30,0.967741935483871,0.2041123576060995
31,1.0,0.20869306646681637
