,Phase,diffMag
0,0.0,0.17657620353206568
1,0.03225806451612903,0.17903556208114751
2,0.06451612903225806,0.1735321584103705
3,0.0967741935483871,0.16082137996214907
4,0.12903225806451613,0.1431290153206092
5,0.16129032258064518,0.12426052638126113
6,0.1935483870967742,0.10927046825598749
7,0.22580645161290322,0.10388887361862442
8,0.25806451612903225,0.11067274188414154
9,0.2903225806451613,0.1269373893732481
10,0.32258064516129037,0.14658999800002923
11,0.3548387096774194,0.16528295975283494
12,0.3870967741935484,0.18051196520259746
13,0.41935483870967744,0.19089995567240187
14,0.45161290322580644,0.19588577314086267
15,0.4838709677419355,0.19546663768324715
16,0.5161290322580645,0.18997850184770518
17,0.5483870967741935,0.17992611032632683
18,0.5806451612903226,0.1658927627939902
19,0.6129032258064516,0.14855612697365694
20,0.6451612903225807,0.12886000757268382
21,0.6774193548387097,0.10826878614011139
22,0.7096774193548387,0.08885327828645434
23,0.7419354838709677,0.07383948821386761
24,0.7741935483870968,0.06793843239029207
25,0.8064516129032259,0.07336360071547962
26,0.8387096774193549,0.08830192909662724
27,0.8709677419354839,0.10852645519369301
28,0.9032258064516129,0.13030525230829518
29,0.935483870967742,0.15052702092738826
30,0.967741935483871,0.16662478353338206
31,1.0,0.17657620353206563
