,Phase,diffMag
0,0.0,0.2671456520765407
1,0.03225806451612903,0.2704971467473831
2,0.06451612903225806,0.2693795714562124
3,0.0967741935483871,0.2638032576726264
4,0.12903225806451613,0.25414857137704083
5,0.16129032258064518,0.24113012797189662
6,0.1935483870967742,0.2256922822984975
7,0.22580645161290322,0.20887556703128807
8,0.25806451612903225,0.1917135052377704
9,0.2903225806451613,0.1751645350809486
10,0.32258064516129037,0.16002444186487141
11,0.3548387096774194,0.14680667546187928
12,0.3870967741935484,0.13571557193734027
13,0.41935483870967744,0.1268062757756075
14,0.45161290322580644,0.12005456233896786
15,0.4838709677419355,0.11535175419700136
16,0.5161290322580645,0.11259397106970434
17,0.5483870967741935,0.11176932407539182
18,0.5806451612903226,0.11297804979411677
19,0.6129032258064516,0.11637936252787319
20,0.6451612903225807,0.12212566173865214
21,0.6774193548387097,0.13034643641612312
22,0.7096774193548387,0.14107705588966393
23,0.7419354838709677,0.15412005282836744
24,0.7741935483870968,0.16905665231000744
25,0.8064516129032259,0.18532082947700232
26,0.8387096774193549,0.2022325489372349
27,0.8709677419354839,0.21900222245848092
28,0.9032258064516129,0.23475888318456542
29,0.935483870967742,0.24859932248274183
30,0.967741935483871,0.2596506475957493
31,1.0,0.2671456520765407
