,Phase,diffMag
0,0.0,0.3315792492118859
1,0.03225806451612903,0.3315896519054728
2,0.06451612903225806,0.3314583060231369
3,0.0967741935483871,0.3312668598598885
4,0.12903225806451613,0.33113528803538117
5,0.16129032258064518,0.33114534502375603
6,0.1935483870967742,0.33128980562277643
7,0.22580645161290322,0.33147920326956143
8,0.25806451612903225,0.33159642797420746
9,0.2903225806451613,0.331568219441656
10,0.32258064516129037,0.33141147180959135
11,0.3548387096774194,0.33122393971607555
12,0.3870967741935484,0.3311231246241378
13,0.41935483870967744,0.33117124161168204
14,0.45161290322580644,0.33133759710184446
15,0.4838709677419355,0.33151940421322745
16,0.5161290322580645,0.3316040372198204
17,0.5483870967741935,0.3315383216886245
18,0.5806451612903226,0.33136260582296534
19,0.6129032258064516,0.3311867375181641
20,0.6451612903225807,0.3311207653374831
21,0.6774193548387097,0.33120490739536046
22,0.7096774193548387,0.3313864088495824
23,0.7419354838709677,0.331553216205347
24,0.7741935483870968,0.3316017519701937
25,0.8064516129032259,0.3315011768511076
26,0.8387096774193549,0.33131372780982776
27,0.8709677419354839,0.331156780286096
28,0.9032258064516129,0.3311282819743255
29,0.935483870967742,0.33124497048336937
30,0.967741935483871,0.3314342599515911
31,1.0,0.3315792492118859
