,Phase,diffMag
0,0.0,0.2860978592326357
1,0.03225806451612903,0.28608161922599445
2,0.06451612903225806,0.2860126893649994
3,0.0967741935483871,0.2859336892059368
4,0.12903225806451613,0.2858933324689567
5,0.16129032258064518,0.2859172681314293
6,0.1935483870967742,0.2859909183471293
7,0.22580645161290322,0.2860677406482121
8,0.25806451612903225,0.2861000053173926
9,0.2903225806451613,0.2860680588045183
10,0.32258064516129037,0.28599184169099556
11,0.3548387096774194,0.2859183855994199
12,0.3870967741935484,0.2858931247611089
13,0.41935483870967744,0.285932483483737
14,0.45161290322580644,0.2860119400680179
15,0.4838709677419355,0.28608139777954184
16,0.5161290322580645,0.2860979275960054
17,0.5483870967741935,0.2860515874017204
18,0.5806451612903226,0.28597117652802945
19,0.6129032258064516,0.28590624472832293
20,0.6451612903225807,0.28589717641980045
21,0.6774193548387097,0.285950343153988
22,0.7096774193548387,0.28603229482065134
23,0.7419354838709677,0.28609157311465055
24,0.7741935483870968,0.2860917135710816
25,0.8064516129032259,0.28603287727932364
26,0.8387096774193549,0.28595152770826365
27,0.8709677419354839,0.2858977728038646
28,0.9032258064516129,0.28590533425405557
29,0.935483870967742,0.28597009720794314
30,0.967741935483871,0.2860511500257881
31,1.0,0.2860978592326357
