,Phase,diffMag
0,0.0,0.13133315378406787
1,0.03225806451612903,0.13498529358948597
2,0.06451612903225806,0.13976002321614273
3,0.0967741935483871,0.145645101608445
4,0.12903225806451613,0.15262508584396958
5,0.16129032258064518,0.16062770692936099
6,0.1935483870967742,0.1693920382297401
7,0.22580645161290322,0.1784491554935163
8,0.25806451612903225,0.18726262197889673
9,0.2903225806451613,0.19534132155591133
10,0.32258064516129037,0.20226706523038032
11,0.3548387096774194,0.20769668548230613
12,0.3870967741935484,0.21137874353189387
13,0.41935483870967744,0.21315954852501065
14,0.45161290322580644,0.21298474738171488
15,0.4838709677419355,0.21090180993414837
16,0.5161290322580645,0.20704876263021063
17,0.5483870967741935,0.20163080792510857
18,0.5806451612903226,0.19489767389053467
19,0.6129032258064516,0.18713298185098898
20,0.6451612903225807,0.1786574170651966
21,0.6774193548387097,0.16982766679440706
22,0.7096774193548387,0.16101711173323063
23,0.7419354838709677,0.1526028690135116
24,0.7741935483870968,0.14494447390467874
25,0.8064516129032259,0.13838088326516432
26,0.8387096774193549,0.13322862066962396
27,0.8709677419354839,0.12971755888997705
28,0.9032258064516129,0.1278949536145914
29,0.935483870967742,0.1276565258406103
30,0.967741935483871,0.12885311282636594
31,1.0,0.13133315378406782
