,Phase,diffMag
0,0.0,0.24856640000022343
1,0.03225806451612903,0.2485435190610336
2,0.06451612903225806,0.24852515418893728
3,0.0967741935483871,0.24852167038338488
4,0.12903225806451613,0.2485345841236705
5,0.16129032258064518,0.2485569858626565
6,0.1935483870967742,0.2485755709651624
7,0.22580645161290322,0.24857745104335796
8,0.25806451612903225,0.24856107729120902
9,0.2903225806451613,0.24853796381798574
10,0.32258064516129037,0.2485226722076349
11,0.3548387096774194,0.24852349790192646
12,0.3870967741935484,0.24853973083243183
13,0.41935483870967744,0.24856258603591502
14,0.45161290322580644,0.24857793087070226
15,0.4838709677419355,0.2485747886816744
16,0.5161290322580645,0.24855532043886483
17,0.5483870967741935,0.2485329331759016
18,0.5806451612903226,0.24852124385118968
19,0.6129032258064516,0.24852632770448876
20,0.6451612903225807,0.24854532229527596
21,0.6774193548387097,0.24856770444189696
22,0.7096774193548387,0.2485790606249611
23,0.7419354838709677,0.2485710440409025
24,0.7741935483870968,0.24854938384733913
25,0.8064516129032259,0.24852861277587415
26,0.8387096774193549,0.24852090873909885
27,0.8709677419354839,0.24853006486240614
28,0.9032258064516129,0.24855115033923791
29,0.935483870967742,0.24857210388716947
30,0.967741935483871,0.24857889889829884
31,1.0,0.24856640000022345
