,Phase,diffMag
0,0.0,0.29683791660132924
1,0.03225806451612903,0.3010937586803643
2,0.06451612903225806,0.2934196937759558
3,0.0967741935483871,0.2743984595643024
4,0.12903225806451613,0.24627194372504463
5,0.16129032258064518,0.2129543627863234
6,0.1935483870967742,0.17951084852526825
7,0.22580645161290322,0.15210533271262217
8,0.25806451612903225,0.1370326260011205
9,0.2903225806451613,0.13677392551768167
10,0.32258064516129037,0.1481146214472875
11,0.3548387096774194,0.1641354886865339
12,0.3870967741935484,0.17940753832821563
13,0.41935483870967744,0.19078451017906575
14,0.45161290322580644,0.1966308481763803
15,0.4838709677419355,0.19637336103186145
16,0.5161290322580645,0.19016376108586436
17,0.5483870967741935,0.17857448160214814
18,0.5806451612903226,0.16250895445786484
19,0.6129032258064516,0.14327859002768673
20,0.6451612903225807,0.12279352146387346
21,0.6774193548387097,0.10380352208796899
22,0.7096774193548387,0.09049668559431549
23,0.7419354838709677,0.08832944581331574
24,0.7741935483870968,0.09994478326591402
25,0.8064516129032259,0.12365555030674953
26,0.8387096774193549,0.15509771843042472
27,0.8709677419354839,0.19014324261325638
28,0.9032258064516129,0.22518648965409185
29,0.935483870967742,0.25668386675190535
30,0.967741935483871,0.28143147321262996
31,1.0,0.29683791660132924
