,Phase,diffMag
0,0.0,0.2577010006074867
1,0.03225806451612903,0.2641321033703617
2,0.06451612903225806,0.2702886316164764
3,0.0967741935483871,0.2764666077933173
4,0.12903225806451613,0.2831299857176182
5,0.16129032258064518,0.2905897872570798
6,0.1935483870967742,0.2988841229286088
7,0.22580645161290322,0.30767231771780645
8,0.25806451612903225,0.31619124161826045
9,0.2903225806451613,0.3235488434480937
10,0.32258064516129037,0.3290861269343587
11,0.3548387096774194,0.3325010968338271
12,0.3870967741935484,0.33376147448075527
13,0.41935483870967744,0.3329415121203346
14,0.45161290322580644,0.33008474819369504
15,0.4838709677419355,0.32516695042480886
16,0.5161290322580645,0.3181972410477516
17,0.5483870967741935,0.30937412928612856
18,0.5806451612903226,0.29916660975442694
19,0.6129032258064516,0.28825138139074086
20,0.6451612903225807,0.277343314050832
21,0.6774193548387097,0.2670415441351264
22,0.7096774193548387,0.25775088558593245
23,0.7419354838709677,0.24974405311435738
24,0.7741935483870968,0.2433148764106475
25,0.8064516129032259,0.23886588490644756
26,0.8387096774193549,0.23677385384125757
27,0.8709677419354839,0.23720601104500397
28,0.9032258064516129,0.24007049043424594
29,0.935483870967742,0.2449575831201315
30,0.967741935483871,0.2511135401468913
31,1.0,0.2577010006074867
