,Phase,diffMag
0,0.0,0.28750780560897166
1,0.03225806451612903,0.2933122496641821
2,0.06451612903225806,0.29756288671703224
3,0.0967741935483871,0.300081273113885
4,0.12903225806451613,0.300774924636046
5,0.16129032258064518,0.29962042598629324
6,0.1935483870967742,0.29665726401993314
7,0.22580645161290322,0.29199771062757557
8,0.25806451612903225,0.2858441755774933
9,0.2903225806451613,0.27849780891821374
10,0.32258064516129037,0.2703453722421442
11,0.3548387096774194,0.26182225097693995
12,0.3870967741935484,0.2533617310128973
13,0.41935483870967744,0.24534804150636086
14,0.45161290322580644,0.23808837572974786
15,0.4838709677419355,0.23180855010374352
16,0.5161290322580645,0.22666590290920138
17,0.5483870967741935,0.2227681432222233
18,0.5806451612903226,0.2201887449591329
19,0.6129032258064516,0.21897481000023797
20,0.6451612903225807,0.21914863173312424
21,0.6774193548387097,0.22070700152509656
22,0.7096774193548387,0.22362137330021994
23,0.7419354838709677,0.22783838488038127
24,0.7741935483870968,0.23327704925913714
25,0.8064516129032259,0.23981894361679462
26,0.8387096774193549,0.24729133871049228
27,0.8709677419354839,0.25544879266143833
28,0.9032258064516129,0.26396356227052953
29,0.935483870967742,0.2724356121237766
30,0.967741935483871,0.2804262664462867
31,1.0,0.28750780560897166
