,Phase,diffMag
0,0.0,0.2539546923235778
1,0.03225806451612903,0.2593515676003378
2,0.06451612903225806,0.25716202996898163
3,0.0967741935483871,0.2475376461691311
4,0.12903225806451613,0.23148392842762547
5,0.16129032258064518,0.21075609926630012
6,0.1935483870967742,0.1877276668394667
7,0.22580645161290322,0.16506726887621
8,0.25806451612903225,0.1453217989132157
9,0.2903225806451613,0.1305043116772191
10,0.32258064516129037,0.12116110412621071
11,0.3548387096774194,0.11648503749479597
12,0.3870967741935484,0.1146997240768943
13,0.41935483870967744,0.113860491159838
14,0.45161290322580644,0.11248172253189506
15,0.4838709677419355,0.10977953507397502
16,0.5161290322580645,0.10552296046343557
17,0.5483870967741935,0.09991692403171379
18,0.5806451612903226,0.09354358749928403
19,0.6129032258064516,0.08737726438060231
20,0.6451612903225807,0.08286519862505591
21,0.6774193548387097,0.08172453022604362
22,0.7096774193548387,0.08550515432986729
23,0.7419354838709677,0.09504200438615965
24,0.7741935483870968,0.11024475726648672
25,0.8064516129032259,0.1300323105112106
26,0.8387096774193549,0.15298477371971467
27,0.8709677419354839,0.17743919391973434
28,0.9032258064516129,0.2015946621203879
29,0.935483870967742,0.2236058129377646
30,0.967741935483871,0.24161695205860637
31,1.0,0.25395469232357776
