,Phase,diffMag
0,0.0,0.3103400061870449
1,0.03225806451612903,0.316529878822357
2,0.06451612903225806,0.30976417687773433
3,0.0967741935483871,0.29089873908529734
4,0.12903225806451613,0.26295595008837
5,0.16129032258064518,0.23109158251452425
6,0.1935483870967742,0.2022883885870927
7,0.22580645161290322,0.18443059792135835
8,0.25806451612903225,0.18212950912220455
9,0.2903225806451613,0.1936599639346576
10,0.32258064516129037,0.21220693748911182
11,0.3548387096774194,0.23142182531419256
12,0.3870967741935484,0.2474123652848208
13,0.41935483870967744,0.2580018179037572
14,0.45161290322580644,0.26221001800153887
15,0.4838709677419355,0.25987241778960535
16,0.5161290322580645,0.25127560660211523
17,0.5483870967741935,0.23698103414160382
18,0.5806451612903226,0.21781231560684816
19,0.6129032258064516,0.19495538123574976
20,0.6451612903225807,0.17016368051198003
21,0.6774193548387097,0.1458202585849556
22,0.7096774193548387,0.12511418682996045
23,0.7419354838709677,0.11284282698080907
24,0.7741935483870968,0.11427268095815248
25,0.8064516129032259,0.13085398172559298
26,0.8387096774193549,0.15929403383547705
27,0.8709677419354839,0.19410139352150388
28,0.9032258064516129,0.2305542492227117
29,0.935483870967742,0.264524982032983
30,0.967741935483871,0.29221213457996176
31,1.0,0.31034000618704477
