,Phase,diffMag
0,0.0,0.18261497038127128
1,0.03225806451612903,0.18544440105651913
2,0.06451612903225806,0.18437586053357302
3,0.0967741935483871,0.18025839775913333
4,0.12903225806451613,0.174946295109218
5,0.16129032258064518,0.17083837112844658
6,0.1935483870967742,0.16997049856276206
7,0.22580645161290322,0.17372181531608674
8,0.25806451612903225,0.18190835901687166
9,0.2903225806451613,0.19284727569715052
10,0.32258064516129037,0.20459153688092166
11,0.3548387096774194,0.2154755990909874
12,0.3870967741935484,0.22430780909687795
13,0.41935483870967744,0.23032302334791907
14,0.45161290322580644,0.23300728173602497
15,0.4838709677419355,0.2320683692753372
16,0.5161290322580645,0.22742668956113637
17,0.5483870967741935,0.21926162165866803
18,0.5806451612903226,0.20806588650802482
19,0.6129032258064516,0.19465109830975894
20,0.6451612903225807,0.1800997492238799
21,0.6774193548387097,0.165593251196172
22,0.7096774193548387,0.15233181526113995
23,0.7419354838709677,0.14164221842298905
24,0.7741935483870968,0.13491598266511975
25,0.8064516129032259,0.13335945794876536
26,0.8387096774193549,0.13706875996801293
27,0.8709677419354839,0.1449506553705703
28,0.9032258064516129,0.15540833721161443
29,0.935483870967742,0.16641635766358406
30,0.967741935483871,0.17598503151748845
31,1.0,0.1826149703812713
