,Phase,diffMag
0,0.0,0.19369765540320327
1,0.03225806451612903,0.1992096643194065
2,0.06451612903225806,0.20148453700839686
3,0.0967741935483871,0.20022980401079632
4,0.12903225806451613,0.19542480492120368
5,0.16129032258064518,0.1873453916997149
6,0.1935483870967742,0.17653532707433767
7,0.22580645161290322,0.16373692082815117
8,0.25806451612903225,0.14980120256393173
9,0.2903225806451613,0.13559667584976304
10,0.32258064516129037,0.12193778861531836
11,0.3548387096774194,0.10951175114843213
12,0.3870967741935484,0.09878579335678925
13,0.41935483870967744,0.08996458739709015
14,0.45161290322580644,0.08309003815591799
15,0.4838709677419355,0.07814073623878497
16,0.5161290322580645,0.07505236944748973
17,0.5483870967741935,0.07376084457179527
18,0.5806451612903226,0.07423741795779189
19,0.6129032258064516,0.07648565974948332
20,0.6451612903225807,0.08053738183119426
21,0.6774193548387097,0.08640038588958539
22,0.7096774193548387,0.09398621520759298
23,0.7419354838709677,0.10314134718730425
24,0.7741935483870968,0.11367598146901484
25,0.8064516129032259,0.1253415273110487
26,0.8387096774193549,0.13779854961270063
27,0.8709677419354839,0.15060993373621204
28,0.9032258064516129,0.16323766167747716
29,0.935483870967742,0.17506903826886586
30,0.967741935483871,0.1854447465043227
31,1.0,0.19369765540320327
