,Phase,diffMag
0,0.0,0.17542501780992714
1,0.03225806451612903,0.19115189516543216
2,0.06451612903225806,0.20523746867302425
3,0.0967741935483871,0.21665147704095866
4,0.12903225806451613,0.22460895021356228
5,0.16129032258064518,0.22861923765321493
6,0.1935483870967742,0.22846153077243356
7,0.22580645161290322,0.22414411014648497
8,0.25806451612903225,0.215906387663719
9,0.2903225806451613,0.20426094038301357
10,0.32258064516129037,0.1900139509067109
11,0.3548387096774194,0.174209727049589
12,0.3870967741935484,0.1579952049795756
13,0.41935483870967744,0.14243611607719495
14,0.45161290322580644,0.12834747300980412
15,0.4838709677419355,0.11621269891317146
16,0.5161290322580645,0.10621370560555578
17,0.5483870967741935,0.09832708382922031
18,0.5806451612903226,0.09242697557060264
19,0.6129032258064516,0.08836222185434493
20,0.6451612903225807,0.08600318124091982
21,0.6774193548387097,0.08526600449612474
22,0.7096774193548387,0.08612328438202484
23,0.7419354838709677,0.08860684040119418
24,0.7741935483870968,0.09280445559682317
25,0.8064516129032259,0.09884845203524616
26,0.8387096774193549,0.106890058208386
27,0.8709677419354839,0.11705051695434963
28,0.9032258064516129,0.1293415883605201
29,0.935483870967742,0.1435616315154792
30,0.967741935483871,0.15920213616214532
31,1.0,0.17542501780992711
