,Phase,diffMag
0,0.0,0.17274114457140385
1,0.03225806451612903,0.1773642430786483
2,0.06451612903225806,0.17720453318941776
3,0.0967741935483871,0.17226427222208493
4,0.12903225806451613,0.16309289074380287
5,0.16129032258064518,0.1507442932418703
6,0.1935483870967742,0.1366131926575393
7,0.22580645161290322,0.1223310504023883
8,0.25806451612903225,0.10967840617162027
9,0.2903225806451613,0.10025567018320133
10,0.32258064516129037,0.09471477135927267
11,0.3548387096774194,0.09235868135726884
12,0.3870967741935484,0.09193068068376065
13,0.41935483870967744,0.09195844564417216
14,0.45161290322580644,0.09120255930283422
15,0.4838709677419355,0.0890152955207568
16,0.5161290322580645,0.08523746649245503
17,0.5483870967741935,0.08005498927201814
18,0.5806451612903226,0.07398864707022947
19,0.6129032258064516,0.06790134351726157
20,0.6451612903225807,0.06309232378117831
21,0.6774193548387097,0.06088173855914618
22,0.7096774193548387,0.06232630988529422
23,0.7419354838709677,0.06803109022223457
24,0.7741935483870968,0.07765778468935586
25,0.8064516129032259,0.09032972192814118
26,0.8387096774193549,0.10508862868019879
27,0.8709677419354839,0.12090127785411987
28,0.9032258064516129,0.13674700191697078
29,0.935483870967742,0.15145856877872801
30,0.967741935483871,0.16382178712654982
31,1.0,0.17274114457140388
