,Phase,diffMag
0,0.0,0.2264312610011075
1,0.03225806451612903,0.23402268308111288
2,0.06451612903225806,0.23563492909156963
3,0.0967741935483871,0.23094664321037658
4,0.12903225806451613,0.22051873222842314
5,0.16129032258064518,0.20583131629848314
6,0.1935483870967742,0.18895490366171938
7,0.22580645161290322,0.17219334337951328
8,0.25806451612903225,0.1577828652595763
9,0.2903225806451613,0.14737906859490854
10,0.32258064516129037,0.1412722963841084
11,0.3548387096774194,0.1382916949993608
12,0.3870967741935484,0.136893000571769
13,0.41935483870967744,0.13542802594799777
14,0.45161290322580644,0.13278476642547943
15,0.4838709677419355,0.12850794510673408
16,0.5161290322580645,0.12256178667348476
17,0.5483870967741935,0.11515658078249671
18,0.5806451612903226,0.10679690255937672
19,0.6129032258064516,0.09838637425558434
20,0.6451612903225807,0.09141623988508
21,0.6774193548387097,0.08761780216502305
22,0.7096774193548387,0.08833750702818399
23,0.7419354838709677,0.09444732275159905
24,0.7741935483870968,0.1057045747428755
25,0.8064516129032259,0.12104916600728875
26,0.8387096774193549,0.1392006266344894
27,0.8709677419354839,0.1588202614006251
28,0.9032258064516129,0.17865069054288077
29,0.935483870967742,0.197424616165815
30,0.967741935483871,0.21380416889156276
31,1.0,0.22643126100110753
