,Phase,diffMag
0,0.0,0.36678236948975523
1,0.03225806451612903,0.36853739967109594
2,0.06451612903225806,0.37016560904747586
3,0.0967741935483871,0.3706662262864374
4,0.12903225806451613,0.3697998358430847
5,0.16129032258064518,0.3681035533098006
6,0.1935483870967742,0.3665555725647579
7,0.22580645161290322,0.3661176607423463
8,0.25806451612903225,0.36716222629553374
9,0.2903225806451613,0.36900529705163787
10,0.32258064516129037,0.3704206381253237
11,0.3548387096774194,0.37056834144650164
12,0.3870967741935484,0.3694194767111047
13,0.41935483870967744,0.36766116825036327
14,0.45161290322580644,0.3663119818291128
15,0.4838709677419355,0.36624819572916134
16,0.5161290322580645,0.3675948609588747
17,0.5483870967741935,0.36944413229575296
18,0.5806451612903226,0.37059214193704604
19,0.6129032258064516,0.37038573295713517
20,0.6451612903225807,0.36899939539166987
21,0.6774193548387097,0.3672449374066977
22,0.7096774193548387,0.3661524245755976
23,0.7419354838709677,0.3664729756938234
24,0.7741935483870968,0.36806027165554017
25,0.8064516129032259,0.3698360105551421
26,0.8387096774193549,0.3706746543040782
27,0.8709677419354839,0.3701261144712013
28,0.9032258064516129,0.36855525535360695
29,0.935483870967742,0.36687124354189943
30,0.967741935483871,0.366085921830741
31,1.0,0.3667823694897553
