,Phase,diffMag
0,0.0,0.08827722238543999
1,0.03225806451612903,0.09253186369270201
2,0.06451612903225806,0.09812354356439695
3,0.0967741935483871,0.10494841880793584
4,0.12903225806451613,0.1128264159552851
5,0.16129032258064518,0.12143104311746712
6,0.1935483870967742,0.1303018253616435
7,0.22580645161290322,0.13892564900831234
8,0.25806451612903225,0.14680216955779207
9,0.2903225806451613,0.15347589917313206
10,0.32258064516129037,0.1585744871964013
11,0.3548387096774194,0.16185343370087893
12,0.3870967741935484,0.16321398598222658
13,0.41935483870967744,0.16269166695051918
14,0.45161290322580644,0.16043343893828793
15,0.4838709677419355,0.15666841902659812
16,0.5161290322580645,0.151672352716677
17,0.5483870967741935,0.14573274342349637
18,0.5806451612903226,0.1391230317720886
19,0.6129032258064516,0.1320899708034206
20,0.6451612903225807,0.12485405846644754
21,0.6774193548387097,0.11762057080806032
22,0.7096774193548387,0.11059476521580636
23,0.7419354838709677,0.10398610047078831
24,0.7741935483870968,0.09800160454166867
25,0.8064516129032259,0.09284311026651136
26,0.8387096774193549,0.08870017773795638
27,0.8709677419354839,0.08575624683366197
28,0.9032258064516129,0.08417640378755328
29,0.935483870967742,0.08406308031196899
30,0.967741935483871,0.0854372516223698
31,1.0,0.08827722238543999
