,Phase,diffMag
0,0.0,0.2668208312086988
1,0.03225806451612903,0.2868363349212808
2,0.06451612903225806,0.2990554611383987
3,0.0967741935483871,0.30151048633244754
4,0.12903225806451613,0.29406226073277797
5,0.16129032258064518,0.27862926224227297
6,0.1935483870967742,0.25868743649414505
7,0.22580645161290322,0.23833119805557917
8,0.25806451612903225,0.22111985562509212
9,0.2903225806451613,0.20855720294094668
10,0.32258064516129037,0.19977855874538475
11,0.3548387096774194,0.19266732611958853
12,0.3870967741935484,0.18516039044295762
13,0.41935483870967744,0.17605340000442413
14,0.45161290322580644,0.16520698083312557
15,0.4838709677419355,0.15300365698520305
16,0.5161290322580645,0.1399045539363272
17,0.5483870967741935,0.1263711780959076
18,0.5806451612903226,0.1129498117127922
19,0.6129032258064516,0.10040636465872047
20,0.6451612903225807,0.08989792643769456
21,0.6774193548387097,0.08298970172251342
22,0.7096774193548387,0.08118577195618557
23,0.7419354838709677,0.0855250636337926
24,0.7741935483870968,0.09625855859759432
25,0.8064516129032259,0.11283686059630955
26,0.8387096774193549,0.13424627814619983
27,0.8709677419354839,0.15927794978375254
28,0.9032258064516129,0.18653146276721064
29,0.935483870967742,0.21454752403199673
30,0.967741935483871,0.2418872605612687
31,1.0,0.26682083120869876
