,Phase,diffMag
0,0.0,0.1819123598385426
1,0.03225806451612903,0.18245370685266563
2,0.06451612903225806,0.18268579710258495
3,0.0967741935483871,0.18249130120426435
4,0.12903225806451613,0.18197055503347492
5,0.16129032258064518,0.18144710187391772
6,0.1935483870967742,0.18123830672669627
7,0.22580645161290322,0.18149482004652664
8,0.25806451612903225,0.18206222380775547
9,0.2903225806451613,0.1825487141807284
10,0.32258064516129037,0.18267748620240234
11,0.3548387096774194,0.18238191766433418
12,0.3870967741935484,0.18182528357091665
13,0.41935483870967744,0.18135615922379422
14,0.45161290322580644,0.18125823625434978
15,0.4838709677419355,0.18162163877170087
16,0.5161290322580645,0.1822061207277594
17,0.5483870967741935,0.1826203502583991
18,0.5806451612903226,0.18264156355675085
19,0.6129032258064516,0.18225500333959868
20,0.6451612903225807,0.181686093523385
21,0.6774193548387097,0.1812891490538382
22,0.7096774193548387,0.1813089590560832
23,0.7419354838709677,0.18176314130854526
24,0.7741935483870968,0.18233823169215896
25,0.8064516129032259,0.18266651023597294
26,0.8387096774193549,0.18257887289188557
27,0.8709677419354839,0.182115879023618
28,0.9032258064516129,0.18155844585035158
29,0.935483870967742,0.1812490794044176
30,0.967741935483871,0.1813889310129788
31,1.0,0.18191235983854256
