,Phase,diffMag
0,0.0,0.24693903515861673
1,0.03225806451612903,0.2722953571400949
2,0.06451612903225806,0.2917005556273384
3,0.0967741935483871,0.30204377417033457
4,0.12903225806451613,0.3014590805332789
5,0.16129032258064518,0.2903145381225465
6,0.1935483870967742,0.2709573704519646
7,0.22580645161290322,0.2466875027209079
8,0.25806451612903225,0.22074771658341488
9,0.2903225806451613,0.19604175117425918
10,0.32258064516129037,0.17424492012707568
11,0.3548387096774194,0.15580308348695668
12,0.3870967741935484,0.14029965737442165
13,0.41935483870967744,0.12676549795619033
14,0.45161290322580644,0.11425820291336847
15,0.4838709677419355,0.10226627926374811
16,0.5161290322580645,0.09067695006078777
17,0.5483870967741935,0.079667763542845
18,0.5806451612903226,0.06963984169965247
19,0.6129032258064516,0.061227455047944836
20,0.6451612903225807,0.055347645537171204
21,0.6774193548387097,0.0530592752743987
22,0.7096774193548387,0.05526023643634167
23,0.7419354838709677,0.06243044613734922
24,0.7741935483870968,0.07446565580328027
25,0.8064516129032259,0.0908444369956626
26,0.8387096774193549,0.11110755506716867
27,0.8709677419354839,0.13473098701765157
28,0.9032258064516129,0.16112883558362973
29,0.935483870967742,0.1894749309708512
30,0.967741935483871,0.2186005799537529
31,1.0,0.24693903515861668
