,Phase,diffMag
0,0.0,0.24807354498873024
1,0.03225806451612903,0.25203483297665336
2,0.06451612903225806,0.2544862693269505
3,0.0967741935483871,0.2541331449362019
4,0.12903225806451613,0.251185411669199
5,0.16129032258064518,0.24727575222924417
6,0.1935483870967742,0.24482320654304024
7,0.22580645161290322,0.24559204508090546
8,0.25806451612903225,0.249081296391655
9,0.2903225806451613,0.2528653613608701
10,0.32258064516129037,0.25467832102176186
11,0.3548387096774194,0.25359829918544324
12,0.3870967741935484,0.25020843553913996
13,0.41935483870967744,0.2464319722421559
14,0.45161290322580644,0.24468591237193876
15,0.4838709677419355,0.24628634415568107
16,0.5161290322580645,0.2501055604042641
17,0.5483870967741935,0.25356542501412943
18,0.5806451612903226,0.25468226484661083
19,0.6129032258064516,0.25291193639574894
20,0.6451612903225807,0.24920447046389743
21,0.6774193548387097,0.2457201518948953
22,0.7096774193548387,0.24477191102444273
23,0.7419354838709677,0.247127138832047
24,0.7741935483870968,0.2511032665108117
25,0.8064516129032259,0.2541115261534324
26,0.8387096774193549,0.2544984824399306
27,0.8709677419354839,0.2520978870730911
28,0.9032258064516129,0.24821332992849435
29,0.935483870967742,0.24517452249993302
30,0.967741935483871,0.24507875495229486
31,1.0,0.24807354498873016
