,Phase,diffMag
0,0.0,0.1606825994096598
1,0.03225806451612903,0.1616076047278217
2,0.06451612903225806,0.16201298347093462
3,0.0967741935483871,0.16171306046890774
4,0.12903225806451613,0.1609235456199684
5,0.16129032258064518,0.16007970823874557
6,0.1935483870967742,0.15965617359265535
7,0.22580645161290322,0.1600051235831337
8,0.25806451612903225,0.1609347270749331
9,0.2903225806451613,0.16177294280143595
10,0.32258064516129037,0.162001478635361
11,0.3548387096774194,0.16154654426157675
12,0.3870967741935484,0.1606991165430027
13,0.41935483870967744,0.15991607549695996
14,0.45161290322580644,0.15966602407252556
15,0.4838709677419355,0.1602058319382351
16,0.5161290322580645,0.16117997962716332
17,0.5483870967741935,0.16189777381482415
18,0.5806451612903226,0.16194542894653238
19,0.6129032258064516,0.16135469749820608
20,0.6451612903225807,0.16047872289658935
21,0.6774193548387097,0.15978637640765977
22,0.7096774193548387,0.1597289681985697
23,0.7419354838709677,0.16043554926935447
24,0.7741935483870968,0.16140741497459127
25,0.8064516129032259,0.16197839455910104
26,0.8387096774193549,0.1618478466998967
27,0.8709677419354839,0.1611445672560263
28,0.9032258064516129,0.1602697700542496
29,0.935483870967742,0.15969771546546957
30,0.967741935483871,0.1598435794436158
31,1.0,0.16068259940965982
