,Phase,diffMag
0,0.0,0.3351611219723299
1,0.03225806451612903,0.3606898012564993
2,0.06451612903225806,0.3811440813977228
3,0.0967741935483871,0.3923085476737985
4,0.12903225806451613,0.39242390744602473
5,0.16129032258064518,0.38252027905699426
6,0.1935483870967742,0.365559781961368
7,0.22580645161290322,0.34495326838851104
8,0.25806451612903225,0.32383621382089556
9,0.2903225806451613,0.30366154097846043
10,0.32258064516129037,0.28307234868836656
11,0.3548387096774194,0.2604502159371239
12,0.3870967741935484,0.23567250077881302
13,0.41935483870967744,0.21023713716155673
14,0.45161290322580644,0.18630181927203138
15,0.4838709677419355,0.16605488461747928
16,0.5161290322580645,0.15179636048163822
17,0.5483870967741935,0.14389200254533582
18,0.5806451612903226,0.14013679959401318
19,0.6129032258064516,0.13841165585409604
20,0.6451612903225807,0.13807743660473518
21,0.6774193548387097,0.13974794406416227
22,0.7096774193548387,0.14446886609031523
23,0.7419354838709677,0.15361918658329493
24,0.7741935483870968,0.1687816882831762
25,0.8064516129032259,0.18920059545574902
26,0.8387096774193549,0.2122085657491131
27,0.8709677419354839,0.23570870800922183
28,0.9032258064516129,0.2592179690910458
29,0.935483870967742,0.2834215838501777
30,0.967741935483871,0.3088388838323105
31,1.0,0.3351611219723297
