,Phase,diffMag
0,0.0,0.2900348597758965
1,0.03225806451612903,0.2914656126328766
2,0.06451612903225806,0.29181536156250915
3,0.0967741935483871,0.2909276048014045
4,0.12903225806451613,0.2893442825798792
5,0.16129032258064518,0.287991756445834
6,0.1935483870967742,0.28772353369354897
7,0.22580645161290322,0.2887688717101277
8,0.25806451612903225,0.2904551110651317
9,0.2903225806451613,0.29167438066145823
10,0.32258064516129037,0.2916983080019324
11,0.3548387096774194,0.29056436532147206
12,0.3870967741935484,0.28894580362054423
13,0.41935483870967744,0.2877992685976693
14,0.45161290322580644,0.28787329754209345
15,0.4838709677419355,0.2891727768921472
16,0.5161290322580645,0.29084394039608
17,0.5483870967741935,0.29180432244199556
18,0.5806451612903226,0.29150569282205785
19,0.6129032258064516,0.290169357942594
20,0.6451612903225807,0.2885777648729329
21,0.6774193548387097,0.28768695150533163
22,0.7096774193548387,0.2881044856316026
23,0.7419354838709677,0.2896011034990982
24,0.7741935483870968,0.29118528644347125
25,0.8064516129032259,0.29185152515561946
26,0.8387096774193549,0.2912454084706242
27,0.8709677419354839,0.2897574500584322
28,0.9032258064516129,0.2882551817270804
29,0.935483870967742,0.2876608947853199
30,0.967741935483871,0.28840741784995794
31,1.0,0.2900348597758964
