,Phase,diffMag
0,0.0,0.17145661570982507
1,0.03225806451612903,0.18006212523409582
2,0.06451612903225806,0.18408380753317827
3,0.0967741935483871,0.18287582777209083
4,0.12903225806451613,0.17651366391112513
5,0.16129032258064518,0.16595219418661125
6,0.1935483870967742,0.15267042290215324
7,0.22580645161290322,0.13835879299400444
8,0.25806451612903225,0.12499029978496853
9,0.2903225806451613,0.11443896209179107
10,0.32258064516129037,0.10744691883880188
11,0.3548387096774194,0.10319071407679169
12,0.3870967741935484,0.10034526096558369
13,0.41935483870967744,0.09761616005954349
14,0.45161290322580644,0.09414610809804456
15,0.4838709677419355,0.08954568404565609
16,0.5161290322580645,0.08376732610045316
17,0.5483870967741935,0.07702257002375963
18,0.5806451612903226,0.06980697886426782
19,0.6129032258064516,0.06290184605229994
20,0.6451612903225807,0.05747592166416114
21,0.6774193548387097,0.05471787596886341
22,0.7096774193548387,0.05557698109729833
23,0.7419354838709677,0.060592856162258305
24,0.7741935483870968,0.0694608566762903
25,0.8064516129032259,0.081441108153154
26,0.8387096774193549,0.0957736911357649
27,0.8709677419354839,0.11163534158346725
28,0.9032258064516129,0.12819831953754812
29,0.935483870967742,0.14444156691468193
30,0.967741935483871,0.15923164632142847
31,1.0,0.1714566157098251
