,Phase,diffMag
0,0.0,0.24703528433430427
1,0.03225806451612903,0.27111642203477326
2,0.06451612903225806,0.28546396044430394
3,0.0967741935483871,0.28744592450368356
4,0.12903225806451613,0.2771069079893578
5,0.16129032258064518,0.2585857806063523
6,0.1935483870967742,0.23944198497257485
7,0.22580645161290322,0.2287019174877296
8,0.25806451612903225,0.23157188879034712
9,0.2903225806451613,0.24572601930504243
10,0.32258064516129037,0.26222892252534574
11,0.3548387096774194,0.2732754591017488
12,0.3870967741935484,0.2756930344294076
13,0.41935483870967744,0.26983753043542424
14,0.45161290322580644,0.25737490909911076
15,0.4838709677419355,0.23982246995290732
16,0.5161290322580645,0.2184770867286505
17,0.5483870967741935,0.1946000782157394
18,0.5806451612903226,0.1693626261974986
19,0.6129032258064516,0.14377744864736847
20,0.6451612903225807,0.11888508289165269
21,0.6774193548387097,0.09596084975718701
22,0.7096774193548387,0.07663053984948519
23,0.7419354838709677,0.0636971935892578
24,0.7741935483870968,0.06109532690029852
25,0.8064516129032259,0.07045999219928209
26,0.8387096774193549,0.09023565976267935
27,0.8709677419354839,0.11722870376127131
28,0.9032258064516129,0.1488760748441501
29,0.935483870967742,0.18283659497537644
30,0.967741935483871,0.2165364635403563
31,1.0,0.24703528433430427
