,Phase,diffMag
0,0.0,0.19650147462259662
1,0.03225806451612903,0.20753815845488113
2,0.06451612903225806,0.2134833820646006
3,0.0967741935483871,0.21330670946895644
4,0.12903225806451613,0.20691869776938018
5,0.16129032258064518,0.19547272470257118
6,0.1935483870967742,0.18086738953844486
7,0.22580645161290322,0.1652485212472027
8,0.25806451612903225,0.15093601333483966
9,0.2903225806451613,0.1398447118420932
10,0.32258064516129037,0.1324598852890499
11,0.3548387096774194,0.1275847109584372
12,0.3870967741935484,0.12365154334988435
13,0.41935483870967744,0.11936447853757541
14,0.45161290322580644,0.11413034389528953
15,0.4838709677419355,0.1077917517377717
16,0.5161290322580645,0.10041588787674376
17,0.5483870967741935,0.09222287606422938
18,0.5806451612903226,0.08366114086306178
19,0.6129032258064516,0.0754830340954156
20,0.6451612903225807,0.06890718998763377
21,0.6774193548387097,0.06528935377899063
22,0.7096774193548387,0.06570588381410276
23,0.7419354838709677,0.07082594097180121
24,0.7741935483870968,0.08040658323254266
25,0.8064516129032259,0.09364527705222496
26,0.8387096774193549,0.10964503388197319
27,0.8709677419354839,0.12744021066739272
28,0.9032258064516129,0.1460934522465412
29,0.935483870967742,0.16456196002342535
30,0.967741935483871,0.18174181202672138
31,1.0,0.19650147462259662
