,Phase,diffMag
0,0.0,0.2390901492628828
1,0.03225806451612903,0.2613642009531602
2,0.06451612903225806,0.2768325140809423
3,0.0967741935483871,0.28327196537727783
4,0.12903225806451613,0.28218754907804267
5,0.16129032258064518,0.27868717611852584
6,0.1935483870967742,0.27845609920477205
7,0.22580645161290322,0.2852342734667561
8,0.25806451612903225,0.2983733386178304
9,0.2903225806451613,0.3132796117582163
10,0.32258064516129037,0.32431248819775677
11,0.3548387096774194,0.32714470939444124
12,0.3870967741935484,0.3207097992553263
13,0.41935483870967744,0.3075375086820243
14,0.45161290322580644,0.2915329555927946
15,0.4838709677419355,0.27542239880397834
16,0.5161290322580645,0.25972162701581103
17,0.5483870967741935,0.24303980754222496
18,0.5806451612903226,0.2237605634188966
19,0.6129032258064516,0.20186261466269445
20,0.6451612903225807,0.17948930747567304
21,0.6774193548387097,0.15968256100701597
22,0.7096774193548387,0.144937600576037
23,0.7419354838709677,0.13653842971937916
24,0.7741935483870968,0.1344612224747251
25,0.8064516129032259,0.13787444813851082
26,0.8387096774193549,0.14540752658489772
27,0.8709677419354839,0.1563217869453784
28,0.9032258064516129,0.17117685219073359
29,0.935483870967742,0.19056329437619612
30,0.967741935483871,0.21406822798490607
31,1.0,0.23909014926288275
