,Phase,diffMag
0,0.0,0.4524192200967972
1,0.03225806451612903,0.4619438911868786
2,0.06451612903225806,0.4716383673756349
3,0.0967741935483871,0.47537814561852243
4,0.12903225806451613,0.47135643981651254
5,0.16129032258064518,0.4624817240682969
6,0.1935483870967742,0.453840580117354
7,0.22580645161290322,0.4498069439837864
8,0.25806451612903225,0.4543623981521675
9,0.2903225806451613,0.4646427173386515
10,0.32258064516129037,0.4732896819753943
11,0.3548387096774194,0.47505871863797294
12,0.3870967741935484,0.46939863659940423
13,0.41935483870967744,0.4601141490742162
14,0.45161290322580644,0.45222719353704355
15,0.4838709677419355,0.4500789340291698
16,0.5161290322580645,0.45667980775027883
17,0.5483870967741935,0.4672279424897402
18,0.5806451612903226,0.47448588078012394
19,0.6129032258064516,0.47425187017046055
20,0.6451612903225807,0.4672082440525909
21,0.6774193548387097,0.45784316517108964
22,0.7096774193548387,0.45096105721521057
23,0.7419354838709677,0.4509626229493023
24,0.7741935483870968,0.4592486486342144
25,0.8064516129032259,0.46959154024266575
26,0.8387096774193549,0.47518802626245643
27,0.8709677419354839,0.4729984226686558
28,0.9032258064516129,0.46487350938440475
29,0.935483870967742,0.45573247481911633
30,0.967741935483871,0.4501246210348472
31,1.0,0.452419220096797
