,Phase,diffMag
0,0.0,0.19164727165489387
1,0.03225806451612903,0.20087120316015056
2,0.06451612903225806,0.20702327508926502
3,0.0967741935483871,0.20940002147513656
4,0.12903225806451613,0.20760950105893194
5,0.16129032258064518,0.20168900677992418
6,0.1935483870967742,0.19205574563986277
7,0.22580645161290322,0.17941360930556471
8,0.25806451612903225,0.1646951487448261
9,0.2903225806451613,0.14897599145500043
10,0.32258064516129037,0.13331160241076948
11,0.3548387096774194,0.1185820818924314
12,0.3870967741935484,0.10542263939197213
13,0.41935483870967744,0.09421592897855151
14,0.45161290322580644,0.08516087403503354
15,0.4838709677419355,0.07832375730627561
16,0.5161290322580645,0.0736409466134852
17,0.5483870967741935,0.07098819402929883
18,0.5806451612903226,0.07025829405241461
19,0.6129032258064516,0.0713834562014238
20,0.6451612903225807,0.07434186538106634
21,0.6774193548387097,0.07911700035396659
22,0.7096774193548387,0.08563210092700317
23,0.7419354838709677,0.09378174520214141
24,0.7741935483870968,0.10345761733755185
25,0.8064516129032259,0.11452468430108333
26,0.8387096774193549,0.12678390963702676
27,0.8709677419354839,0.13994832455959375
28,0.9032258064516129,0.15361030851667828
29,0.935483870967742,0.16723569643526534
30,0.967741935483871,0.1801660770791354
31,1.0,0.19164727165489384
