,Phase,diffMag
0,0.0,0.34155907515538547
1,0.03225806451612903,0.34440126543196026
2,0.06451612903225806,0.345364168546102
3,0.0967741935483871,0.34393866250303257
4,0.12903225806451613,0.3409770536030507
5,0.16129032258064518,0.338257763887736
6,0.1935483870967742,0.33750306423881055
7,0.22580645161290322,0.3392359319699047
8,0.25806451612903225,0.34236385182769913
9,0.2903225806451613,0.3448633701322512
10,0.32258064516129037,0.3452195843615797
11,0.3548387096774194,0.34328346463470255
12,0.3870967741935484,0.3401962347207149
13,0.41935483870967744,0.3378373443042641
14,0.45161290322580644,0.33771912646464697
15,0.4838709677419355,0.3399605222231348
16,0.5161290322580645,0.34312630680044703
17,0.5483870967741935,0.3451841173248791
18,0.5806451612903226,0.3449253133055954
19,0.6129032258064516,0.34255217598780313
20,0.6451612903225807,0.3394628023747694
21,0.6774193548387097,0.3375643795214748
22,0.7096774193548387,0.3380910480617887
23,0.7419354838709677,0.34074626438243943
24,0.7741935483870968,0.3438146930279201
25,0.8064516129032259,0.3453526613963502
26,0.8387096774193549,0.3444928894025253
27,0.8709677419354839,0.3417730964716449
28,0.9032258064516129,0.3388074105458418
29,0.935483870967742,0.33745107147131953
30,0.967741935483871,0.33860378768302885
31,1.0,0.3415590751553854
