,Phase,diffMag
0,0.0,0.30513859930829873
1,0.03225806451612903,0.33616058174799496
2,0.06451612903225806,0.3576400008945259
3,0.0967741935483871,0.3652217356043859
4,0.12903225806451613,0.3610621208658795
5,0.16129032258064518,0.35301435029596223
6,0.1935483870967742,0.3494890950591524
7,0.22580645161290322,0.35603526807935665
8,0.25806451612903225,0.3720499753802505
9,0.2903225806451613,0.39097805209331943
10,0.32258064516129037,0.4040468031167522
11,0.3548387096774194,0.4045716580242554
12,0.3870967741935484,0.39195496889521547
13,0.41935483870967744,0.371010370668347
14,0.45161290322580644,0.3481067037255776
15,0.4838709677419355,0.32801905814460086
16,0.5161290322580645,0.31170174774829257
17,0.5483870967741935,0.2955729532200605
18,0.5806451612903226,0.2746100407646622
19,0.6129032258064516,0.24730316060695437
20,0.6451612903225807,0.2178738746961982
21,0.6774193548387097,0.19262231377497582
22,0.7096774193548387,0.17622531524896815
23,0.7419354838709677,0.17071766597110222
24,0.7741935483870968,0.17484447373320605
25,0.8064516129032259,0.18464340907627994
26,0.8387096774193549,0.19558062581097907
27,0.8709677419354839,0.20661847419264917
28,0.9032258064516129,0.22110721267937697
29,0.935483870967742,0.24249863870301128
30,0.967741935483871,0.27165230792666084
31,1.0,0.3051385993082986
