,Phase,diffMag
0,0.0,0.2758285506180889
1,0.03225806451612903,0.3202243932987758
2,0.06451612903225806,0.3584444730334861
3,0.0967741935483871,0.3816216318774953
4,0.12903225806451613,0.3862151131962497
5,0.16129032258064518,0.3753636545489803
6,0.1935483870967742,0.35604227249282683
7,0.22580645161290322,0.335750828642518
8,0.25806451612903225,0.322140865975121
9,0.2903225806451613,0.3151154858197082
10,0.32258064516129037,0.30756832302035036
11,0.3548387096774194,0.2923549881091315
12,0.3870967741935484,0.26728205267971816
13,0.41935483870967744,0.23609750662756485
14,0.45161290322580644,0.2045731710615309
15,0.4838709677419355,0.1761869899405249
16,0.5161290322580645,0.15160826449194179
17,0.5483870967741935,0.13025652126270576
18,0.5806451612903226,0.11153241691152663
19,0.6129032258064516,0.09529430191607403
20,0.6451612903225807,0.08200000330535075
21,0.6774193548387097,0.0727018925366966
22,0.7096774193548387,0.06854343829412679
23,0.7419354838709677,0.07038835335902147
24,0.7741935483870968,0.07854120527541127
25,0.8064516129032259,0.0927442981138769
26,0.8387096774193549,0.11252935168410212
27,0.8709677419354839,0.1372948733218808
28,0.9032258064516129,0.1663232802833909
29,0.935483870967742,0.1988047914385192
30,0.967741935483871,0.23460798765174817
31,1.0,0.2758285506180889
