,Phase,diffMag
0,0.0,0.20224114895225428
1,0.03225806451612903,0.22953897481396682
2,0.06451612903225806,0.25060420424077046
3,0.0967741935483871,0.26349093277037444
4,0.12903225806451613,0.26914580469230454
5,0.16129032258064518,0.27109458133781744
6,0.1935483870967742,0.2732127864192471
7,0.22580645161290322,0.2774588989375857
8,0.25806451612903225,0.2830824017651673
9,0.2903225806451613,0.2869742791281711
10,0.32258064516129037,0.28562653423508993
11,0.3548387096774194,0.27729206295893216
12,0.3870967741935484,0.2625501910622527
13,0.41935483870967744,0.24380608466625195
14,0.45161290322580644,0.22349566948979094
15,0.4838709677419355,0.20294158108952148
16,0.5161290322580645,0.18256038746174133
17,0.5483870967741935,0.16253142796220307
18,0.5806451612903226,0.14318166468302404
19,0.6129032258064516,0.12494997330795161
20,0.6451612903225807,0.10828526847692155
21,0.6774193548387097,0.09369293739328055
22,0.7096774193548387,0.08186123116867727
23,0.7419354838709677,0.07364887596533162
24,0.7741935483870968,0.07022786835748787
25,0.8064516129032259,0.07269421800005024
26,0.8387096774193549,0.08156259686914363
27,0.8709677419354839,0.09674309900306081
28,0.9032258064516129,0.11765323284309583
29,0.935483870967742,0.14332554969555264
30,0.967741935483871,0.17232798546869327
31,1.0,0.20224114895225428
