,Phase,diffMag
0,0.0,0.24703528433430436
1,0.03225806451612903,0.2711164220347733
2,0.06451612903225806,0.2854639604443041
3,0.0967741935483871,0.2874459245036836
4,0.12903225806451613,0.2771069079893579
5,0.16129032258064518,0.2585857806063523
6,0.1935483870967742,0.2394419849725749
7,0.22580645161290322,0.2287019174877296
8,0.25806451612903225,0.2315718887903472
9,0.2903225806451613,0.24572601930504245
10,0.32258064516129037,0.2622289225253458
11,0.3548387096774194,0.27327545910174883
12,0.3870967741935484,0.27569303442940774
13,0.41935483870967744,0.26983753043542424
14,0.45161290322580644,0.2573749090991108
15,0.4838709677419355,0.23982246995290735
16,0.5161290322580645,0.21847708672865052
17,0.5483870967741935,0.19460007821573946
18,0.5806451612903226,0.1693626261974985
19,0.6129032258064516,0.14377744864736847
20,0.6451612903225807,0.11888508289165269
21,0.6774193548387097,0.09596084975718697
22,0.7096774193548387,0.07663053984948517
23,0.7419354838709677,0.06369719358925782
24,0.7741935483870968,0.061095326900298556
25,0.8064516129032259,0.07045999219928213
26,0.8387096774193549,0.09023565976267937
27,0.8709677419354839,0.11722870376127138
28,0.9032258064516129,0.14887607484415014
29,0.935483870967742,0.18283659497537647
30,0.967741935483871,0.21653646354035638
31,1.0,0.2470352843343044
