,Phase,diffMag
0,0.0,0.3186542656541479
1,0.03225806451612903,0.3582493355207947
2,0.06451612903225806,0.38417532147467015
3,0.0967741935483871,0.39034344006152494
4,0.12903225806451613,0.3762664791221224
5,0.16129032258064518,0.34891396815038567
6,0.1935483870967742,0.32066274853552995
7,0.22580645161290322,0.3042441107925561
8,0.25806451612903225,0.30519178719369494
9,0.2903225806451613,0.3187884333003569
10,0.32258064516129037,0.3330760812892044
11,0.3548387096774194,0.3378140470247942
12,0.3870967741935484,0.32985232664128666
13,0.41935483870967744,0.3121410172895702
14,0.45161290322580644,0.289415099507016
15,0.4838709677419355,0.2646350838045492
16,0.5161290322580645,0.23863072312375724
17,0.5483870967741935,0.21132864630217457
18,0.5806451612903226,0.18310729605693674
19,0.6129032258064516,0.15489820341965774
20,0.6451612903225807,0.12794851475329955
21,0.6774193548387097,0.10371802908861025
22,0.7096774193548387,0.08410943604866718
23,0.7419354838709677,0.07238686652576336
24,0.7741935483870968,0.07259573829643719
25,0.8064516129032259,0.08620072892381081
26,0.8387096774193549,0.11125661610050254
27,0.8709677419354839,0.14445557548978463
28,0.9032258064516129,0.18345663532052778
29,0.935483870967742,0.226712754137917
30,0.967741935483871,0.2728409968649958
31,1.0,0.3186542656541479
