,Phase,diffMag
0,0.0,0.05650502453618589
1,0.03225806451612903,0.05935574166336639
2,0.06451612903225806,0.06103541284292618
3,0.0967741935483871,0.06192289717589258
4,0.12903225806451613,0.06281616013504285
5,0.16129032258064518,0.06470901694588141
6,0.1935483870967742,0.06856000295906535
7,0.22580645161290322,0.07490577554619071
8,0.25806451612903225,0.08313152479604523
9,0.2903225806451613,0.09194203393880848
10,0.32258064516129037,0.10017343008781797
11,0.3548387096774194,0.10687304471029425
12,0.3870967741935484,0.11139561499878094
13,0.41935483870967744,0.11338726212071532
14,0.45161290322580644,0.1127682228364462
15,0.4838709677419355,0.10973007493770813
16,0.5161290322580645,0.1046507718052925
17,0.5483870967741935,0.09796737235010927
18,0.5806451612903226,0.09009503486215074
19,0.6129032258064516,0.08141450818309327
20,0.6451612903225807,0.0723217688179662
21,0.6774193548387097,0.06328717894797874
22,0.7096774193548387,0.054759100579983525
23,0.7419354838709677,0.04723746049556395
24,0.7741935483870968,0.04138937124035571
25,0.8064516129032259,0.03800892176384534
26,0.8387096774193549,0.03751992172748727
27,0.8709677419354839,0.039533276242553476
28,0.9032258064516129,0.04327397241655419
29,0.935483870967742,0.04789977338952272
30,0.967741935483871,0.05255014986277809
31,1.0,0.05650502453618589
