,Phase,diffMag
0,0.0,0.38673304396199293
1,0.03225806451612903,0.4495659828783208
2,0.06451612903225806,0.5034530891213317
3,0.0967741935483871,0.5299097592550133
4,0.12903225806451613,0.5225012981719414
5,0.16129032258064518,0.4906331164969922
6,0.1935483870967742,0.45340241118697555
7,0.22580645161290322,0.4268594560552988
8,0.25806451612903225,0.41936073435017035
9,0.2903225806451613,0.42678731955724114
10,0.32258064516129037,0.4349727443727718
11,0.3548387096774194,0.42702136330787105
12,0.3870967741935484,0.3961088796550438
13,0.41935483870967744,0.34851630826402064
14,0.45161290322580644,0.2984610826544624
15,0.4838709677419355,0.2575311368595155
16,0.5161290322580645,0.2344679563908821
17,0.5483870967741935,0.2273626753798489
18,0.5806451612903226,0.22210236874524455
19,0.6129032258064516,0.20307171424299242
20,0.6451612903225807,0.17223013838836396
21,0.6774193548387097,0.14430952983717452
22,0.7096774193548387,0.1290928339328661
23,0.7419354838709677,0.1322715483761799
24,0.7741935483870968,0.1565495471513236
25,0.8064516129032259,0.1956526745515498
26,0.8387096774193549,0.2334057655790919
27,0.8709677419354839,0.2565327369100397
28,0.9032258064516129,0.271461004795401
29,0.935483870967742,0.29357332821383936
30,0.967741935483871,0.3314568236236569
31,1.0,0.3867330439619929
