,Phase,diffMag
0,0.0,0.09918237996339009
1,0.03225806451612903,0.10964148356050636
2,0.06451612903225806,0.12185030787871418
3,0.0967741935483871,0.13519285988757246
4,0.12903225806451613,0.14926204399501977
5,0.16129032258064518,0.16365117566276619
6,0.1935483870967742,0.17749481622206187
7,0.22580645161290322,0.18960022734791218
8,0.25806451612903225,0.19898321148337839
9,0.2903225806451613,0.20500944437233376
10,0.32258064516129037,0.2072065602962234
11,0.3548387096774194,0.2053625191684503
12,0.3870967741935484,0.19990962469075207
13,0.41935483870967744,0.19183906190723032
14,0.45161290322580644,0.18208506230854943
15,0.4838709677419355,0.17128315405115505
16,0.5161290322580645,0.15995513085144586
17,0.5483870967741935,0.14858155872163306
18,0.5806451612903226,0.13755043410798876
19,0.6129032258064516,0.12713118618607785
20,0.6451612903225807,0.11749460223746912
21,0.6774193548387097,0.10875348642960012
22,0.7096774193548387,0.10100326163434878
23,0.7419354838709677,0.0943379948250824
24,0.7741935483870968,0.08886109618284792
25,0.8064516129032259,0.08469834992498951
26,0.8387096774193549,0.08201659640836058
27,0.8709677419354839,0.0810487660441768
28,0.9032258064516129,0.08206868849355381
29,0.935483870967742,0.08532411101506641
30,0.967741935483871,0.09100587369391847
31,1.0,0.09918237996339008
