,Phase,diffMag
0,0.0,0.19476805109361325
1,0.03225806451612903,0.21207862488812673
2,0.06451612903225806,0.2252795452030101
3,0.0967741935483871,0.23150982214320787
4,0.12903225806451613,0.22941132492485075
5,0.16129032258064518,0.22036340726365738
6,0.1935483870967742,0.20687880992511892
7,0.22580645161290322,0.19125318800374844
8,0.25806451612903225,0.17611552463449917
9,0.2903225806451613,0.16390274285079953
10,0.32258064516129037,0.15512490322157632
11,0.3548387096774194,0.14771588400812688
12,0.3870967741935484,0.13940633318261156
13,0.41935483870967744,0.12955905001303003
14,0.45161290322580644,0.11908516266849481
15,0.4838709677419355,0.10866714251825801
16,0.5161290322580645,0.09843551889629276
17,0.5483870967741935,0.0883959461228718
18,0.5806451612903226,0.07870589822261416
19,0.6129032258064516,0.06981788568965624
20,0.6451612903225807,0.06269491682809733
21,0.6774193548387097,0.05854484074115387
22,0.7096774193548387,0.05836932037286401
23,0.7419354838709677,0.06279027092964139
24,0.7741935483870968,0.07159742636311058
25,0.8064516129032259,0.08410273942971029
26,0.8387096774193549,0.09955171651904529
27,0.8709677419354839,0.11715155743719811
28,0.9032258064516129,0.13620479932487198
29,0.935483870967742,0.15595244324857338
30,0.967741935483871,0.17566530394176164
31,1.0,0.19476805109361325
