,Phase,diffMag
0,0.0,0.2717224455497041
1,0.03225806451612903,0.3298897882975521
2,0.06451612903225806,0.38726288200193093
3,0.0967741935483871,0.42903468579509
4,0.12903225806451613,0.44718659872261945
5,0.16129032258064518,0.44131891883215163
6,0.1935483870967742,0.42038412148328136
7,0.22580645161290322,0.3958069847332809
8,0.25806451612903225,0.3752906974823251
9,0.2903225806451613,0.3635179592038587
10,0.32258064516129037,0.35208797291563
11,0.3548387096774194,0.331021242262017
12,0.3870967741935484,0.29562036309779494
13,0.41935483870967744,0.24929761929365168
14,0.45161290322580644,0.20309542299827196
15,0.4838709677419355,0.16469019761574766
16,0.5161290322580645,0.13472648037430285
17,0.5483870967741935,0.11109816590610216
18,0.5806451612903226,0.0919591570220155
19,0.6129032258064516,0.07639728524713041
20,0.6451612903225807,0.0643595027093636
21,0.6774193548387097,0.05642877223350641
22,0.7096774193548387,0.053323863847384315
23,0.7419354838709677,0.05559404115157223
24,0.7741935483870968,0.06341548927926297
25,0.8064516129032259,0.07663900651809039
26,0.8387096774193549,0.09510214486375987
27,0.8709677419354839,0.11879322337933565
28,0.9032258064516129,0.14772568509204664
29,0.935483870967742,0.18208472133986806
30,0.967741935483871,0.2228619122651617
31,1.0,0.2717224455497041
