,Phase,diffMag
0,0.0,0.14965194847221205
1,0.03225806451612903,0.1810759430977002
2,0.06451612903225806,0.21822979782969876
3,0.0967741935483871,0.2561540358008133
4,0.12903225806451613,0.28615725527680186
5,0.16129032258064518,0.30298819840657343
6,0.1935483870967742,0.3093786455269074
7,0.22580645161290322,0.30959551110595357
8,0.25806451612903225,0.3038392735302091
9,0.2903225806451613,0.28805615133210527
10,0.32258064516129037,0.25905551764063633
11,0.3548387096774194,0.22143944104364374
12,0.3870967741935484,0.18396448932797818
13,0.41935483870967744,0.1519924235400786
14,0.45161290322580644,0.12668713915848134
15,0.4838709677419355,0.10728370639799104
16,0.5161290322580645,0.09260794469926842
17,0.5483870967741935,0.08162192003774119
18,0.5806451612903226,0.07352758239428983
19,0.6129032258064516,0.06774284506167508
20,0.6451612903225807,0.0638594594965001
21,0.6774193548387097,0.061608403025436624
22,0.7096774193548387,0.06083597779730106
23,0.7419354838709677,0.0614898677636346
24,0.7741935483870968,0.0636143460217766
25,0.8064516129032259,0.06735433222636301
26,0.8387096774193549,0.07296855476263941
27,0.8709677419354839,0.08085259041650543
28,0.9032258064516129,0.09157260292450209
29,0.935483870967742,0.10590727931733049
30,0.967741935483871,0.12487560026351219
31,1.0,0.14965194847221203
