,Phase,diffMag
0,0.0,0.11485624006203908
1,0.03225806451612903,0.12800423949113182
2,0.06451612903225806,0.14274501176766197
3,0.0967741935483871,0.1581642153962147
4,0.12903225806451613,0.17387526465289005
5,0.16129032258064518,0.18973466724213106
6,0.1935483870967742,0.2050478808446667
7,0.22580645161290322,0.21846832432487195
8,0.25806451612903225,0.22869348602306547
9,0.2903225806451613,0.2348618068447287
10,0.32258064516129037,0.23634989797273273
11,0.3548387096774194,0.23289006763339606
12,0.3870967741935484,0.2251104037929442
13,0.41935483870967744,0.21447100592818688
14,0.45161290322580644,0.20237274130984442
15,0.4838709677419355,0.18956636863595958
16,0.5161290322580645,0.17645149930764592
17,0.5483870967741935,0.16341929921863568
18,0.5806451612903226,0.15084739314271384
19,0.6129032258064516,0.13903402625037609
20,0.6451612903225807,0.12818743102388477
21,0.6774193548387097,0.118449741098787
22,0.7096774193548387,0.10992849474542002
23,0.7419354838709677,0.10271569556263499
24,0.7741935483870968,0.09691580296290199
25,0.8064516129032259,0.0926641009392184
26,0.8387096774193549,0.09017744350260853
27,0.8709677419354839,0.08976959266384389
28,0.9032258064516129,0.09178585878415661
29,0.935483870967742,0.09652414809060698
30,0.967741935483871,0.10421327377126262
31,1.0,0.11485624006203907
