,Phase,diffMag
0,0.0,0.29659756709961393
1,0.03225806451612903,0.32880274500073237
2,0.06451612903225806,0.3579088490215847
3,0.0967741935483871,0.3781540007670574
4,0.12903225806451613,0.38583794915638553
5,0.16129032258064518,0.38050363598627945
6,0.1935483870967742,0.3653068019589876
7,0.22580645161290322,0.3450346765786822
8,0.25806451612903225,0.32356751266456074
9,0.2903225806451613,0.30237942454696143
10,0.32258064516129037,0.2805249286179088
11,0.3548387096774194,0.25592846527242014
12,0.3870967741935484,0.22742862204654238
13,0.41935483870967744,0.19660703422251471
14,0.45161290322580644,0.1675861387706502
15,0.4838709677419355,0.1435825152953248
16,0.5161290322580645,0.1258257746556288
17,0.5483870967741935,0.1148788132827078
18,0.5806451612903226,0.10972109733767482
19,0.6129032258064516,0.1079280254455891
20,0.6451612903225807,0.10798928537933805
21,0.6774193548387097,0.10994436896830939
22,0.7096774193548387,0.11446885825108935
23,0.7419354838709677,0.12213840393115916
24,0.7741935483870968,0.13375120602267965
25,0.8064516129032259,0.15018584924639014
26,0.8387096774193549,0.17045505573296743
27,0.8709677419354839,0.19252143213226017
28,0.9032258064516129,0.2153881375229602
29,0.935483870967742,0.23950789386358368
30,0.967741935483871,0.2662429328846199
31,1.0,0.29659756709961377
