,Phase,diffMag
0,0.0,0.22227546464935238
1,0.03225806451612903,0.2571298824387022
2,0.06451612903225806,0.29472087082002946
3,0.0967741935483871,0.3287423803268628
4,0.12903225806451613,0.34532870158682183
5,0.16129032258064518,0.33714983695923434
6,0.1935483870967742,0.3141967345769488
7,0.22580645161290322,0.2894756616125779
8,0.25806451612903225,0.2671165372885004
9,0.2903225806451613,0.24136171720576394
10,0.32258064516129037,0.20519042951884459
11,0.3548387096774194,0.16401335478545334
12,0.3870967741935484,0.1290543723388753
13,0.41935483870967744,0.10395945251797914
14,0.45161290322580644,0.08636896626496068
15,0.4838709677419355,0.07314990500702248
16,0.5161290322580645,0.06239978772165122
17,0.5483870967741935,0.05336053749373434
18,0.5806451612903226,0.04595007872370685
19,0.6129032258064516,0.04050654244479068
20,0.6451612903225807,0.03762577498963523
21,0.6774193548387097,0.03792968077542331
22,0.7096774193548387,0.04189151598396726
23,0.7419354838709677,0.04964955909269891
24,0.7741935483870968,0.06079872775390422
25,0.8064516129032259,0.0750200938534139
26,0.8387096774193549,0.09218557795021812
27,0.8709677419354839,0.11235821170177891
28,0.9032258064516129,0.13556512320328737
29,0.935483870967742,0.16171647971702752
30,0.967741935483871,0.19062664386728848
31,1.0,0.22227546464935236
