,Phase,diffMag
0,0.0,0.24719704638475806
1,0.03225806451612903,0.2807162309916493
2,0.06451612903225806,0.31375179291706645
3,0.0967741935483871,0.33925086341135363
4,0.12903225806451613,0.3441788831190077
5,0.16129032258064518,0.3233441387198425
6,0.1935483870967742,0.288831422263168
7,0.22580645161290322,0.258846241692325
8,0.25806451612903225,0.24395765542475084
9,0.2903225806451613,0.2396710824738686
10,0.32258064516129037,0.23318554496200822
11,0.3548387096774194,0.21946086884210844
12,0.3870967741935484,0.203287181923917
13,0.41935483870967744,0.18847027821177118
14,0.45161290322580644,0.17431024493446903
15,0.4838709677419355,0.1583657748001464
16,0.5161290322580645,0.14022482829950286
17,0.5483870967741935,0.12080322060794885
18,0.5806451612903226,0.10116762330330309
19,0.6129032258064516,0.0822510686886941
20,0.6451612903225807,0.06501210875860908
21,0.6774193548387097,0.050705569757035454
22,0.7096774193548387,0.04144620831951965
23,0.7419354838709677,0.04027798398308427
24,0.7741935483870968,0.04844475251189883
25,0.8064516129032259,0.06472168861861458
26,0.8387096774193549,0.08699500754562878
27,0.8709677419354839,0.11402642252270674
28,0.9032258064516129,0.14494231797788976
29,0.935483870967742,0.17852603209337767
30,0.967741935483871,0.21314544287958484
31,1.0,0.24719704638475798
