,Phase,diffMag
0,0.0,0.1125465114249721
1,0.03225806451612903,0.13726424070064108
2,0.06451612903225806,0.1672782033685234
3,0.0967741935483871,0.20046367541275303
4,0.12903225806451613,0.22908819585979392
5,0.16129032258064518,0.24733841913226365
6,0.1935483870967742,0.2594942013645941
7,0.22580645161290322,0.27342868448259455
8,0.25806451612903225,0.2908081557761424
9,0.2903225806451613,0.30385421369765425
10,0.32258064516129037,0.3017234341168499
11,0.3548387096774194,0.28356367107284475
12,0.3870967741935484,0.25802816542203666
13,0.41935483870967744,0.23211803284484372
14,0.45161290322580644,0.20795751215988686
15,0.4838709677419355,0.1853782426269846
16,0.5161290322580645,0.16408325016655168
17,0.5483870967741935,0.1441419294984056
18,0.5806451612903226,0.12573339345297263
19,0.6129032258064516,0.10895592788513847
20,0.6451612903225807,0.09382822851755551
21,0.6774193548387097,0.08036880379160573
22,0.7096774193548387,0.06863882467883421
23,0.7419354838709677,0.0588620262938523
24,0.7741935483870968,0.05160170231383146
25,0.8064516129032259,0.04777548014388062
26,0.8387096774193549,0.04817490833043349
27,0.8709677419354839,0.0530051503082294
28,0.9032258064516129,0.062153324121660775
29,0.935483870967742,0.07529758116054293
30,0.967741935483871,0.09210731441455207
31,1.0,0.11254651142497205
