,Phase,diffMag
0,0.0,0.23413975732467981
1,0.03225806451612903,0.2538092402804466
2,0.06451612903225806,0.2708021847141774
3,0.0967741935483871,0.2825416714612088
4,0.12903225806451613,0.2872458496762495
5,0.16129032258064518,0.284444137215674
6,0.1935483870967742,0.27472163813473666
7,0.22580645161290322,0.25925962946491515
8,0.25806451612903225,0.23995591574079023
9,0.2903225806451613,0.21888232073428393
10,0.32258064516129037,0.19730582122956578
11,0.3548387096774194,0.1757857684508039
12,0.3870967741935484,0.15459365882066797
13,0.41935483870967744,0.13455762199184693
14,0.45161290322580644,0.11709048487867471
15,0.4838709677419355,0.10319578365558052
16,0.5161290322580645,0.09304732093789359
17,0.5483870967741935,0.08635452886842329
18,0.5806451612903226,0.08272478527833774
19,0.6129032258064516,0.08177381990420296
20,0.6451612903225807,0.0832086903572214
21,0.6774193548387097,0.08691307585038059
22,0.7096774193548387,0.09288682416766898
23,0.7419354838709677,0.101121697932003
24,0.7741935483870968,0.1116145373680671
25,0.8064516129032259,0.12436491591729494
26,0.8387096774193549,0.13928951000800666
27,0.8709677419354839,0.15613474867680777
28,0.9032258064516129,0.17451131665742953
29,0.935483870967742,0.1939327138781646
30,0.967741935483871,0.2139197393698918
31,1.0,0.2341397573246798
