,Phase,diffMag
0,0.0,0.1664292728219296
1,0.03225806451612903,0.1648880677808262
2,0.06451612903225806,0.16037474678560634
3,0.0967741935483871,0.15320862926147563
4,0.12903225806451613,0.14388456080713335
5,0.16129032258064518,0.13302199595507036
6,0.1935483870967742,0.12130294819280174
7,0.22580645161290322,0.10940050479992133
8,0.25806451612903225,0.09791254121433016
9,0.2903225806451613,0.08732307831612868
10,0.32258064516129037,0.07798521291078551
11,0.3548387096774194,0.07014062488257543
12,0.3870967741935484,0.06392669368613126
13,0.41935483870967744,0.059362755882295636
14,0.45161290322580644,0.056379535418997914
15,0.4838709677419355,0.054908346587013754
16,0.5161290322580645,0.054908346587013754
17,0.5483870967741935,0.056379535418997914
18,0.5806451612903226,0.05936275588229563
19,0.6129032258064516,0.06392669368613124
20,0.6451612903225807,0.07014062488257547
21,0.6774193548387097,0.0779852129107855
22,0.7096774193548387,0.08732307831612861
23,0.7419354838709677,0.09791254121433011
24,0.7741935483870968,0.1094005047999213
25,0.8064516129032259,0.1213029481928017
26,0.8387096774193549,0.13302199595507036
27,0.8709677419354839,0.14388456080713335
28,0.9032258064516129,0.1532086292614756
29,0.935483870967742,0.16037474678560631
30,0.967741935483871,0.1648880677808262
31,1.0,0.16642927282192954
