,Phase,diffMag
0,0.0,0.20236359526068576
1,0.03225806451612903,0.19995680463839605
2,0.06451612903225806,0.1932546611647344
3,0.0967741935483871,0.18376823505952317
4,0.12903225806451613,0.1737265297542824
5,0.16129032258064518,0.16544826465496512
6,0.1935483870967742,0.16088759463614208
7,0.22580645161290322,0.1611981264560387
8,0.25806451612903225,0.16598549056504747
9,0.2903225806451613,0.1737355530578841
10,0.32258064516129037,0.18296620465465063
11,0.3548387096774194,0.19244746967314574
12,0.3870967741935484,0.20126063581858303
13,0.41935483870967744,0.2086134895301274
14,0.45161290322580644,0.21387093758901451
15,0.4838709677419355,0.21660585958233158
16,0.5161290322580645,0.2166058595823316
17,0.5483870967741935,0.21387093758901451
18,0.5806451612903226,0.2086134895301275
19,0.6129032258064516,0.20126063581858303
20,0.6451612903225807,0.19244746967314597
21,0.6774193548387097,0.18296620465465047
22,0.7096774193548387,0.17373555305788418
23,0.7419354838709677,0.16598549056504744
24,0.7741935483870968,0.16119812645603868
25,0.8064516129032259,0.16088759463614208
26,0.8387096774193549,0.16544826465496507
27,0.8709677419354839,0.17372652975428235
28,0.9032258064516129,0.18376823505952317
29,0.935483870967742,0.19325466116473447
30,0.967741935483871,0.19995680463839607
31,1.0,0.20236359526068579
