,Phase,diffMag
0,0.0,0.3592162892125887
1,0.03225806451612903,0.35541923993035
2,0.06451612903225806,0.34445688186595647
3,0.0967741935483871,0.32760018360041926
4,0.12903225806451613,0.30676040520632575
5,0.16129032258064518,0.28377308063156265
6,0.1935483870967742,0.2598337182781607
7,0.22580645161290322,0.23589264362464665
8,0.25806451612903225,0.2129353090067804
9,0.2903225806451613,0.19189991876467175
10,0.32258064516129037,0.17357988932002139
11,0.3548387096774194,0.15870346271244976
12,0.3870967741935484,0.14791334000212447
13,0.41935483870967744,0.1411354842147022
14,0.45161290322580644,0.13742069610887536
15,0.4838709677419355,0.13581249436574197
16,0.5161290322580645,0.13581249436574194
17,0.5483870967741935,0.13742069610887528
18,0.5806451612903226,0.1411354842147023
19,0.6129032258064516,0.14791334000212444
20,0.6451612903225807,0.15870346271244978
21,0.6774193548387097,0.17357988932002125
22,0.7096774193548387,0.19189991876467186
23,0.7419354838709677,0.21293530900678034
24,0.7741935483870968,0.23589264362464663
25,0.8064516129032259,0.25983371827816054
26,0.8387096774193549,0.283773080631563
27,0.8709677419354839,0.3067604052063252
28,0.9032258064516129,0.32760018360041915
29,0.935483870967742,0.3444568818659564
30,0.967741935483871,0.35541923993034996
31,1.0,0.35921628921258875
