,Phase,diffMag
0,0.0,0.3659323777712832
1,0.03225806451612903,0.3574573661898465
2,0.06451612903225806,0.3333048870839575
3,0.0967741935483871,0.29707513594552737
4,0.12903225806451613,0.2539672098592149
5,0.16129032258064518,0.20968875006148782
6,0.1935483870967742,0.16997908611519713
7,0.22580645161290322,0.1404551433565298
8,0.25806451612903225,0.12573127048719449
9,0.2903225806451613,0.12639916469288398
10,0.32258064516129037,0.13793467802003223
11,0.3548387096774194,0.1534601117542751
12,0.3870967741935484,0.16862645986937744
13,0.41935483870967744,0.18115421005314386
14,0.45161290322580644,0.1898912615201514
15,0.4838709677419355,0.19434981343788504
16,0.5161290322580645,0.19434981343788507
17,0.5483870967741935,0.18989126152015143
18,0.5806451612903226,0.1811542100531439
19,0.6129032258064516,0.16862645986937744
20,0.6451612903225807,0.15346011175427518
21,0.6774193548387097,0.13793467802003218
22,0.7096774193548387,0.12639916469288395
23,0.7419354838709677,0.12573127048719443
24,0.7741935483870968,0.1404551433565298
25,0.8064516129032259,0.1699790861151971
26,0.8387096774193549,0.20968875006148782
27,0.8709677419354839,0.25396720985921495
28,0.9032258064516129,0.2970751359455273
29,0.935483870967742,0.3333048870839574
30,0.967741935483871,0.35745736618984664
31,1.0,0.3659323777712832
