,Phase,diffMag
0,0.0,0.2945756744470705
1,0.03225806451612903,0.2893883744498827
2,0.06451612903225806,0.27445046041547855
3,0.0967741935483871,0.25152438233862795
4,0.12903225806451613,0.2231871620158867
5,0.16129032258064518,0.19240339982264124
6,0.1935483870967742,0.16220722637539095
7,0.22580645161290322,0.13525795306156932
8,0.25806451612903225,0.11366043979048748
9,0.2903225806451613,0.09867854535792804
10,0.32258064516129037,0.09018393790219432
11,0.3548387096774194,0.08696976264426028
12,0.3870967741935484,0.08713138253089657
13,0.41935483870967744,0.08878088958743746
14,0.45161290322580644,0.09052403514601957
15,0.4838709677419355,0.09157047371199462
16,0.5161290322580645,0.09157047371199459
17,0.5483870967741935,0.0905240351460196
18,0.5806451612903226,0.08878088958743746
19,0.6129032258064516,0.08713138253089647
20,0.6451612903225807,0.08696976264426023
21,0.6774193548387097,0.09018393790219432
22,0.7096774193548387,0.09867854535792804
23,0.7419354838709677,0.11366043979048736
24,0.7741935483870968,0.13525795306156932
25,0.8064516129032259,0.16220722637539095
26,0.8387096774193549,0.19240339982264124
27,0.8709677419354839,0.2231871620158867
28,0.9032258064516129,0.2515243823386278
29,0.935483870967742,0.2744504604154784
30,0.967741935483871,0.2893883744498826
31,1.0,0.2945756744470705
