,Phase,diffMag
0,0.0,0.15167282306633328
1,0.03225806451612903,0.15199878796543476
2,0.06451612903225806,0.15297803698168377
3,0.0967741935483871,0.15461995197124104
4,0.12903225806451613,0.15696052792572068
5,0.16129032258064518,0.16002705148137336
6,0.1935483870967742,0.16374296990306894
7,0.22580645161290322,0.16794373739265916
8,0.25806451612903225,0.17244974932551901
9,0.2903225806451613,0.1770733422309721
10,0.32258064516129037,0.1815872145171156
11,0.3548387096774194,0.18573732372220159
12,0.3870967741935484,0.1892845756210229
13,0.41935483870967744,0.19204233721158753
14,0.45161290322580644,0.1939057737729291
15,0.4838709677419355,0.19483942205309945
16,0.5161290322580645,0.19483942205309948
17,0.5483870967741935,0.19390577377292914
18,0.5806451612903226,0.19204233721158767
19,0.6129032258064516,0.18928457562102297
20,0.6451612903225807,0.18573732372220164
21,0.6774193548387097,0.1815872145171155
22,0.7096774193548387,0.17707334223097207
23,0.7419354838709677,0.17244974932551901
24,0.7741935483870968,0.16794373739265914
25,0.8064516129032259,0.16374296990306894
26,0.8387096774193549,0.16002705148137342
27,0.8709677419354839,0.1569605279257206
28,0.9032258064516129,0.15461995197124095
29,0.935483870967742,0.15297803698168375
30,0.967741935483871,0.1519987879654348
31,1.0,0.1516728230663333
