,Phase,diffMag
0,0.0,0.40717955716685794
1,0.03225806451612903,0.4028675155972898
2,0.06451612903225806,0.39034220332577085
3,0.0967741935483871,0.3710401012841307
4,0.12903225806451613,0.34786081208281144
5,0.16129032258064518,0.3235211877890529
6,0.1935483870967742,0.2983886783297292
7,0.22580645161290322,0.2729496340478733
8,0.25806451612903225,0.24825239166395358
9,0.2903225806451613,0.22520413333569034
10,0.32258064516129037,0.20456063722067538
11,0.3548387096774194,0.18747405091906322
12,0.3870967741935484,0.17585551722784926
13,0.41935483870967744,0.16986321667440363
14,0.45161290322580644,0.16718693011285868
15,0.4838709677419355,0.16616755376242376
16,0.5161290322580645,0.16616755376242381
17,0.5483870967741935,0.1671869301128586
18,0.5806451612903226,0.16986321667440366
19,0.6129032258064516,0.1758555172278491
20,0.6451612903225807,0.1874740509190633
21,0.6774193548387097,0.20456063722067527
22,0.7096774193548387,0.2252041333356904
23,0.7419354838709677,0.2482523916639535
24,0.7741935483870968,0.2729496340478732
25,0.8064516129032259,0.2983886783297292
26,0.8387096774193549,0.3235211877890532
27,0.8709677419354839,0.34786081208281133
28,0.9032258064516129,0.37104010128413023
29,0.935483870967742,0.39034220332577096
30,0.967741935483871,0.4028675155972896
31,1.0,0.4071795571668579
