,Phase,diffMag
0,0.0,0.38278529278128404
1,0.03225806451612903,0.3773151570600698
2,0.06451612903225806,0.3617350290283332
3,0.0967741935483871,0.3385646244488723
4,0.12903225806451613,0.3117747583328979
5,0.16129032258064518,0.28494328726704504
6,0.1935483870967742,0.2597239894202991
7,0.22580645161290322,0.23738744855682595
8,0.25806451612903225,0.21935106303094534
9,0.2903225806451613,0.20657060264620428
10,0.32258064516129037,0.19912375911435481
11,0.3548387096774194,0.19686650917534823
12,0.3870967741935484,0.19972957422746387
13,0.41935483870967744,0.20569073228856735
14,0.45161290322580644,0.21144480212568634
15,0.4838709677419355,0.21475813954217515
16,0.5161290322580645,0.21475813954217524
17,0.5483870967741935,0.2114448021256864
18,0.5806451612903226,0.2056907322885676
19,0.6129032258064516,0.19972957422746396
20,0.6451612903225807,0.19686650917534845
21,0.6774193548387097,0.19912375911435473
22,0.7096774193548387,0.2065706026462044
23,0.7419354838709677,0.21935106303094526
24,0.7741935483870968,0.23738744855682575
25,0.8064516129032259,0.25972398942029923
26,0.8387096774193549,0.2849432872670451
27,0.8709677419354839,0.31177475833289775
28,0.9032258064516129,0.338564624448872
29,0.935483870967742,0.3617350290283333
30,0.967741935483871,0.3773151570600699
31,1.0,0.3827852927812841
