,Phase,diffMag
0,0.0,0.11440647448462983
1,0.03225806451612903,0.11486169089071385
2,0.06451612903225806,0.11622229503576062
3,0.0967741935483871,0.11847439639075674
4,0.12903225806451613,0.12157638323091915
5,0.16129032258064518,0.12541064328639864
6,0.1935483870967742,0.12978723638930495
7,0.22580645161290322,0.1344962397677238
8,0.25806451612903225,0.13932976546774187
9,0.2903225806451613,0.14407088859941541
10,0.32258064516129037,0.14850125418839683
11,0.3548387096774194,0.15242195189713553
12,0.3870967741935484,0.15567316294775316
13,0.41935483870967744,0.1581536613555101
14,0.45161290322580644,0.15981678857583018
15,0.4838709677419355,0.1606489255161759
16,0.5161290322580645,0.1606489255161759
17,0.5483870967741935,0.15981678857583023
18,0.5806451612903226,0.15815366135551012
19,0.6129032258064516,0.15567316294775313
20,0.6451612903225807,0.15242195189713545
21,0.6774193548387097,0.14850125418839671
22,0.7096774193548387,0.14407088859941541
23,0.7419354838709677,0.13932976546774176
24,0.7741935483870968,0.1344962397677238
25,0.8064516129032259,0.12978723638930503
26,0.8387096774193549,0.1254106432863987
27,0.8709677419354839,0.12157638323091918
28,0.9032258064516129,0.11847439639075666
29,0.935483870967742,0.11622229503576068
30,0.967741935483871,0.11486169089071388
31,1.0,0.11440647448462982
