,Phase,diffMag
0,0.0,0.19843182109354826
1,0.03225806451612903,0.19675725498596738
2,0.06451612903225806,0.19186781294111324
3,0.0967741935483871,0.18415348167011067
4,0.12903225806451613,0.17422136058488819
5,0.16129032258064518,0.1628290331559969
6,0.1935483870967742,0.15078991403758252
7,0.22580645161290322,0.1388652609483006
8,0.25806451612903225,0.1276737023167193
9,0.2903225806451613,0.11764568210762252
10,0.32258064516129037,0.10902778026369703
11,0.3548387096774194,0.10192096128694286
12,0.3870967741935484,0.09633078240130544
13,0.41935483870967744,0.09221349559973313
14,0.45161290322580644,0.0895109375911172
15,0.4838709677419355,0.08817353046404967
16,0.5161290322580645,0.08817353046404962
17,0.5483870967741935,0.08951093759111722
18,0.5806451612903226,0.09221349559973313
19,0.6129032258064516,0.09633078240130535
20,0.6451612903225807,0.10192096128694286
21,0.6774193548387097,0.10902778026369701
22,0.7096774193548387,0.11764568210762252
23,0.7419354838709677,0.12767370231671923
24,0.7741935483870968,0.13886526094830048
25,0.8064516129032259,0.1507899140375825
26,0.8387096774193549,0.16282903315599692
27,0.8709677419354839,0.17422136058488807
28,0.9032258064516129,0.18415348167011064
29,0.935483870967742,0.19186781294111316
30,0.967741935483871,0.19675725498596738
31,1.0,0.19843182109354823
