,Phase,diffMag
0,0.0,0.3233815820115755
1,0.03225806451612903,0.3220733022125622
2,0.06451612903225806,0.3181495058618159
3,0.0967741935483871,0.3116576022802938
4,0.12903225806451613,0.3027888110509983
5,0.16129032258064518,0.2919552708404951
6,0.1935483870967742,0.2797934112054615
7,0.22580645161290322,0.26708111253374495
8,0.25806451612903225,0.254595194903172
9,0.2903225806451613,0.24297403153847194
10,0.32258064516129037,0.2326501786459494
11,0.3548387096774194,0.22386680152759306
12,0.3870967741935484,0.2167420802904458
13,0.41935483870967744,0.21133634813300042
14,0.45161290322580644,0.20769499109070977
15,0.4838709677419355,0.20586023227798375
16,0.5161290322580645,0.20586023227798364
17,0.5483870967741935,0.2076949910907099
18,0.5806451612903226,0.21133634813300062
19,0.6129032258064516,0.2167420802904457
20,0.6451612903225807,0.22386680152759314
21,0.6774193548387097,0.23265017864594917
22,0.7096774193548387,0.2429740315384719
23,0.7419354838709677,0.2545951949031718
24,0.7741935483870968,0.2670811125337448
25,0.8064516129032259,0.27979341120546164
26,0.8387096774193549,0.29195527084049505
27,0.8709677419354839,0.3027888110509983
28,0.9032258064516129,0.31165760228029377
29,0.935483870967742,0.31814950586181584
30,0.967741935483871,0.32207330221256214
31,1.0,0.3233815820115755
