,Phase,diffMag
0,0.0,0.15282559025750966
1,0.03225806451612903,0.1523048754711195
2,0.06451612903225806,0.15077591685052408
3,0.0967741935483871,0.14833506420385273
4,0.12903225806451613,0.1451325542932945
5,0.16129032258064518,0.14135814554790185
6,0.1935483870967742,0.13722329797332533
7,0.22580645161290322,0.13294232289628724
8,0.25806451612903225,0.12871550060322687
9,0.2903225806451613,0.12471684297790613
10,0.32258064516129037,0.12108782656760243
11,0.3548387096774194,0.11793671746562116
12,0.3870967741935484,0.11534188553683304
13,0.41935483870967744,0.11335711048857372
14,0.45161290322580644,0.11201715684514482
15,0.4838709677419355,0.11134247738103197
16,0.5161290322580645,0.11134247738103198
17,0.5483870967741935,0.11201715684514481
18,0.5806451612903226,0.11335711048857376
19,0.6129032258064516,0.11534188553683306
20,0.6451612903225807,0.1179367174656212
21,0.6774193548387097,0.12108782656760243
22,0.7096774193548387,0.12471684297790614
23,0.7419354838709677,0.12871550060322684
24,0.7741935483870968,0.13294232289628716
25,0.8064516129032259,0.1372232979733253
26,0.8387096774193549,0.14135814554790185
27,0.8709677419354839,0.1451325542932946
28,0.9032258064516129,0.14833506420385267
29,0.935483870967742,0.15077591685052405
30,0.967741935483871,0.1523048754711195
31,1.0,0.1528255902575097
