,Phase,diffMag
0,0.0,0.24567419355947168
1,0.03225806451612903,0.24552762625880073
2,0.06451612903225806,0.2451768689825993
3,0.0967741935483871,0.2448448530634102
4,0.12903225806451613,0.24473607184004958
5,0.16129032258064518,0.24491298054335547
6,0.1935483870967742,0.24527263472921926
7,0.22580645161290322,0.24558989257153033
8,0.25806451612903225,0.24566459256948167
9,0.2903225806451613,0.24545182400703805
10,0.32258064516129037,0.24508240762112027
11,0.3548387096774194,0.2447914515105977
12,0.3870967741935484,0.24475475132885605
13,0.41935483870967744,0.24499322624970343
14,0.45161290322580644,0.24536561246316915
15,0.4838709677419355,0.24563613983965324
16,0.5161290322580645,0.2456361398396533
17,0.5483870967741935,0.2453656124631691
18,0.5806451612903226,0.24499322624970352
19,0.6129032258064516,0.24475475132885607
20,0.6451612903225807,0.24479145151059778
21,0.6774193548387097,0.24508240762112027
22,0.7096774193548387,0.2454518240070382
23,0.7419354838709677,0.24566459256948164
24,0.7741935483870968,0.24558989257153022
25,0.8064516129032259,0.2452726347292193
26,0.8387096774193549,0.2449129805433555
27,0.8709677419354839,0.24473607184004956
28,0.9032258064516129,0.24484485306341022
29,0.935483870967742,0.24517686898259938
30,0.967741935483871,0.24552762625880073
31,1.0,0.24567419355947168
