,Phase,diffMag
0,0.0,0.15252367860453384
1,0.03225806451612903,0.1545826744021718
2,0.06451612903225806,0.15551614837541544
3,0.0967741935483871,0.15526271611979856
4,0.12903225806451613,0.15383909691124706
5,0.16129032258064518,0.15133845827515244
6,0.1935483870967742,0.14792122323577558
7,0.22580645161290322,0.1437992889723331
8,0.25806451612903225,0.1392152393377049
9,0.2903225806451613,0.13441912964022784
10,0.32258064516129037,0.12964662777212288
11,0.3548387096774194,0.12510248556367623
12,0.3870967741935484,0.12095173839531467
13,0.41935483870967744,0.11731853083741631
14,0.45161290322580644,0.11429050530153295
15,0.4838709677419355,0.11192598972418592
16,0.5161290322580645,0.11026157734247699
17,0.5483870967741935,0.10931853929553491
18,0.5806451612903226,0.10910735666069835
19,0.6129032258064516,0.10963022571756037
20,0.6451612903225807,0.1108816086080834
21,0.6774193548387097,0.11284686237807538
22,0.7096774193548387,0.11549887620597965
23,0.7419354838709677,0.11879269759931951
24,0.7741935483870968,0.12265849197457354
25,0.8064516129032259,0.1269938853058639
26,0.8387096774193549,0.13165763316719004
27,0.8709677419354839,0.13646726920964056
28,0.9032258064516129,0.14120335548556823
29,0.935483870967742,0.145621701802976
30,0.967741935483871,0.14947258113798892
31,1.0,0.15252367860453386
