,Phase,diffMag
0,0.0,0.20748650500170632
1,0.03225806451612903,0.21074332718073183
2,0.06451612903225806,0.21221807240045565
3,0.0967741935483871,0.21181780005223438
4,0.12903225806451613,0.20956778509510673
5,0.16129032258064518,0.20560947541450506
6,0.1935483870967742,0.20019003256933726
7,0.22580645161290322,0.1936451341277178
8,0.25806451612903225,0.18637180191245248
9,0.2903225806451613,0.17878827331107353
10,0.32258064516129037,0.17128832421539236
11,0.3548387096774194,0.16420489839106767
12,0.3870967741935484,0.15779289703813154
13,0.41935483870967744,0.15223054693703422
14,0.45161290322580644,0.14763235508850842
15,0.4838709677419355,0.14406608081787395
16,0.5161290322580645,0.14156860922863843
17,0.5483870967741935,0.1401582673157011
18,0.5806451612903226,0.13984289986814408
19,0.6129032258064516,0.14062402971379317
20,0.6451612903225807,0.14249773299220192
21,0.6774193548387097,0.14545243171808836
22,0.7096774193548387,0.14946314692230891
23,0.7419354838709677,0.15448161693898102
24,0.7741935483870968,0.1604223041831266
25,0.8064516129032259,0.16714561724490323
26,0.8387096774193549,0.17444184939447643
27,0.8709677419354839,0.18202214771315015
28,0.9032258064516129,0.18952440763704645
29,0.935483870967742,0.1965391400481965
30,0.967741935483871,0.2026515499791765
31,1.0,0.2074865050017063
