,Phase,diffMag
0,0.0,0.2072713603830749
1,0.03225806451612903,0.21426776722652624
2,0.06451612903225806,0.21744985523352245
3,0.0967741935483871,0.2165854073099964
4,0.12903225806451613,0.2117372134858774
5,0.16129032258064518,0.2032613768154229
6,0.1935483870967742,0.1917934492937683
7,0.22580645161290322,0.17820583924618122
8,0.25806451612903225,0.1635168543177879
9,0.2903225806451613,0.14875168599693314
10,0.32258064516129037,0.13479112328715698
11,0.3548387096774194,0.12226463113902232
12,0.3870967741935484,0.11152478852576257
13,0.41935483870967744,0.1026941476631296
14,0.45161290322580644,0.09574531949601008
15,0.4838709677419355,0.09057794209336914
16,0.5161290322580645,0.08707537656052464
17,0.5483870967741935,0.08513981653509858
18,0.5806451612903226,0.08471119131760184
19,0.6129032258064516,0.08577564707762836
20,0.6451612903225807,0.0883672248496169
21,0.6774193548387097,0.0925635582977926
22,0.7096774193548387,0.09847355899813037
23,0.7419354838709677,0.10621240303660874
24,0.7741935483870968,0.11585771051089955
25,0.8064516129032259,0.12738336544222104
26,0.8387096774193549,0.14057793146267392
27,0.8709677419354839,0.15497342594062946
28,0.9032258064516129,0.1698254220775292
29,0.935483870967742,0.18417486002278596
30,0.967741935483871,0.19698047892118642
31,1.0,0.2072713603830749
