,Phase,diffMag
0,0.0,0.19293337945517158
1,0.03225806451612903,0.19945974463606045
2,0.06451612903225806,0.20243990755419
3,0.0967741935483871,0.2016296101231197
4,0.12903225806451613,0.19709496678535166
5,0.16129032258064518,0.18920985644722346
6,0.1935483870967742,0.17863437461554788
7,0.22580645161290322,0.1662511388648776
8,0.25806451612903225,0.15304244590936367
9,0.2903225806451613,0.1399321502056153
10,0.32258064516129037,0.1276534032421258
11,0.3548387096774194,0.11669067874137204
12,0.3870967741935484,0.1072966768342228
13,0.41935483870967744,0.09955128651921141
14,0.45161290322580644,0.09342860461219142
15,0.4838709677419355,0.08885285135290406
16,0.5161290322580645,0.08573771978140934
17,0.5483870967741935,0.08401093712795775
18,0.5806451612903226,0.0836279995200528
19,0.6129032258064516,0.08457862446223334
20,0.6451612903225807,0.08688806425295877
21,0.6774193548387097,0.09061376627558348
22,0.7096774193548387,0.09583617998039688
23,0.7419354838709677,0.10264091451531489
24,0.7741935483870968,0.1110883351299226
25,0.8064516129032259,0.12116711648334126
26,0.8387096774193549,0.1327322857832903
27,0.8709677419354839,0.14543831782568853
28,0.9032258064516129,0.15869333759350798
29,0.935483870967742,0.1716711864177904
30,0.967741935483871,0.18340399062916196
31,1.0,0.19293337945517158
