,Phase,diffMag
0,0.0,0.10067299923471362
1,0.03225806451612903,0.10320168775422271
2,0.06451612903225806,0.10667111798114662
3,0.0967741935483871,0.11098714122602021
4,0.12903225806451613,0.11598295302263245
5,0.16129032258064518,0.12140157035068232
6,0.1935483870967742,0.12693712941165128
7,0.22580645161290322,0.13229157451407594
8,0.25806451612903225,0.1371989997622018
9,0.2903225806451613,0.14143169737607583
10,0.32258064516129037,0.14481230621412486
11,0.3548387096774194,0.14721904838483219
12,0.3870967741935484,0.14858910907957842
13,0.41935483870967744,0.1489254975735749
14,0.45161290322580644,0.14828905642031207
15,0.4838709677419355,0.14677624791262908
16,0.5161290322580645,0.14449622386695635
17,0.5483870967741935,0.14155506297292386
18,0.5806451612903226,0.1380490325493841
19,0.6129032258064516,0.13406642082170508
20,0.6451612903225807,0.12969711221797514
21,0.6774193548387097,0.1250485100476779
22,0.7096774193548387,0.12026182316908461
23,0.7419354838709677,0.11551422507666294
24,0.7741935483870968,0.11100492130449544
25,0.8064516129032259,0.10694030492528589
26,0.8387096774193549,0.10351451719460197
27,0.8709677419354839,0.10090262023466964
28,0.9032258064516129,0.09925428125786966
29,0.935483870967742,0.09866290569724706
30,0.967741935483871,0.09914528804215568
31,1.0,0.10067299923471362
