,Phase,diffMag
0,0.0,0.3603624472993432
1,0.03225806451612903,0.3650897467980779
2,0.06451612903225806,0.36171702279613943
3,0.0967741935483871,0.35080350397557136
4,0.12903225806451613,0.33372907726730555
5,0.16129032258064518,0.31253858770942616
6,0.1935483870967742,0.28938824881446523
7,0.22580645161290322,0.2655310588293696
8,0.25806451612903225,0.24165691951245072
9,0.2903225806451613,0.21858545808572116
10,0.32258064516129037,0.19714564592856176
11,0.3548387096774194,0.1780077201971686
12,0.3870967741935484,0.1618947019720629
13,0.41935483870967744,0.14970377635013157
14,0.45161290322580644,0.14176036856936522
15,0.4838709677419355,0.13712639965580498
16,0.5161290322580645,0.13461769188456718
17,0.5483870967741935,0.1336886173712837
18,0.5806451612903226,0.13444597196283262
19,0.6129032258064516,0.13744517103471474
20,0.6451612903225807,0.14361471766486242
21,0.6774193548387097,0.15410011285720035
22,0.7096774193548387,0.16934797975825075
23,0.7419354838709677,0.18853853111922758
24,0.7741935483870968,0.2104883442482891
25,0.8064516129032259,0.23419757837903848
26,0.8387096774193549,0.2588386517742816
27,0.8709677419354839,0.28356824253471835
28,0.9032258064516129,0.30749847368468786
29,0.935483870967742,0.32959360603318255
30,0.967741935483871,0.3479962160305756
31,1.0,0.3603624472993432
