,Phase,diffMag
0,0.0,0.36364019241147844
1,0.03225806451612903,0.36915040476288385
2,0.06451612903225806,0.35731884655401736
3,0.0967741935483871,0.33056789269253367
4,0.12903225806451613,0.2940104126912321
5,0.16129032258064518,0.25444872278477765
6,0.1935483870967742,0.21939214462724477
7,0.22580645161290322,0.19631407361499842
8,0.25806451612903225,0.18856723618191804
9,0.2903225806451613,0.19339595932227993
10,0.32258064516129037,0.20396172322565656
11,0.3548387096774194,0.21518954310505928
12,0.3870967741935484,0.22444130859695532
13,0.41935483870967744,0.2302273949791403
14,0.45161290322580644,0.23181139502839943
15,0.4838709677419355,0.2289992922272465
16,0.5161290322580645,0.22192735948528827
17,0.5483870967741935,0.210919913442962
18,0.5806451612903226,0.19640529265372939
19,0.6129032258064516,0.1789893917839286
20,0.6451612903225807,0.15973910856581572
21,0.6774193548387097,0.1404718670473307
22,0.7096774193548387,0.12395347988102629
23,0.7419354838709677,0.11479001864011185
24,0.7741935483870968,0.11901259936939143
25,0.8064516129032259,0.13927895886914496
26,0.8387096774193549,0.1734091335988668
27,0.8709677419354839,0.2161936536060652
28,0.9032258064516129,0.26228825694014035
29,0.935483870967742,0.3059792353295582
30,0.967741935483871,0.341458509744743
31,1.0,0.36364019241147844
