,Phase,diffMag
0,0.0,0.1889239017856028
1,0.03225806451612903,0.19393274364218385
2,0.06451612903225806,0.19296210003803735
3,0.0967741935483871,0.1870186162950956
4,0.12903225806451613,0.17825553229754768
5,0.16129032258064518,0.16944199874855428
6,0.1935483870967742,0.1630310114868525
7,0.22580645161290322,0.16037863955311266
8,0.25806451612903225,0.16142944629903236
9,0.2903225806451613,0.16473742293200888
10,0.32258064516129037,0.16878247754378997
11,0.3548387096774194,0.17233378325129411
12,0.3870967741935484,0.17462315327780575
13,0.41935483870967744,0.17519997390967237
14,0.45161290322580644,0.1738402428804271
15,0.4838709677419355,0.1705371685103985
16,0.5161290322580645,0.16543194805528666
17,0.5483870967741935,0.1587346093037399
18,0.5806451612903226,0.1506906138276167
19,0.6129032258064516,0.14160925561121054
20,0.6451612903225807,0.1319250572534849
21,0.6774193548387097,0.12223610959386372
22,0.7096774193548387,0.11341700940531688
23,0.7419354838709677,0.10677874047241662
24,0.7741935483870968,0.10393736010054304
25,0.8064516129032259,0.10653619106992629
26,0.8387096774193549,0.11508462276822438
27,0.8709677419354839,0.12878884825751585
28,0.9032258064516129,0.1456629185415956
29,0.935483870967742,0.16302329430431733
30,0.967741935483871,0.17817382469547013
31,1.0,0.1889239017856028
