,Phase,diffMag
0,0.0,0.18202178584449544
1,0.03225806451612903,0.18284873816321798
2,0.06451612903225806,0.17807778152091602
3,0.0967741935483871,0.1683161872643109
4,0.12903225806451613,0.15472345940859344
5,0.16129032258064518,0.13876374818192327
6,0.1935483870967742,0.12206747825870545
7,0.22580645161290322,0.10638717874609556
8,0.25806451612903225,0.0933962829520706
9,0.2903225806451613,0.08440350056453236
10,0.32258064516129037,0.07972550544114491
11,0.3548387096774194,0.07857062111809075
12,0.3870967741935484,0.07972404766847073
13,0.41935483870967744,0.0815669044363435
14,0.45161290322580644,0.08279191438631138
15,0.4838709677419355,0.08270560270672196
16,0.5161290322580645,0.0810543701243777
17,0.5483870967741935,0.07791551590008268
18,0.5806451612903226,0.07367153725186777
19,0.6129032258064516,0.06907113078965922
20,0.6451612903225807,0.06537094225423688
21,0.6774193548387097,0.06410609774231235
22,0.7096774193548387,0.06644303352115281
23,0.7419354838709677,0.07319982827265759
24,0.7741935483870968,0.08425820796744718
25,0.8064516129032259,0.09870453493895776
26,0.8387096774193549,0.11533770852940844
27,0.8709677419354839,0.1327988145013093
28,0.9032258064516129,0.14966650290066466
29,0.935483870967742,0.16445626478858397
30,0.967741935483871,0.17565236244533705
31,1.0,0.18202178584449547
