,Phase,diffMag
0,0.0,0.16584952305782621
1,0.03225806451612903,0.16784240047436527
2,0.06451612903225806,0.16592832967433982
3,0.0967741935483871,0.16124831375644624
4,0.12903225806451613,0.15569252651863708
5,0.16129032258064518,0.15128236765308883
6,0.1935483870967742,0.14977058225379278
7,0.22580645161290322,0.15220117656120036
8,0.25806451612903225,0.15805133353456619
9,0.2903225806451613,0.16571558809885356
10,0.32258064516129037,0.17374981036573844
11,0.3548387096774194,0.18108375608557092
12,0.3870967741935484,0.18701621908871266
13,0.41935483870967744,0.19098880996094103
14,0.45161290322580644,0.19257835311804145
15,0.4838709677419355,0.19155571549593162
16,0.5161290322580645,0.18790280058680095
17,0.5483870967741935,0.18180570261477286
18,0.5806451612903226,0.17361703217860758
19,0.6129032258064516,0.16382697234495916
20,0.6451612903225807,0.15306624741746136
21,0.6774193548387097,0.1421052654123246
22,0.7096774193548387,0.13179104878119036
23,0.7419354838709677,0.12322476880562144
24,0.7741935483870968,0.11774098386124264
25,0.8064516129032259,0.1167586120742938
26,0.8387096774193549,0.1207763540720091
27,0.8709677419354839,0.12890181710993096
28,0.9032258064516129,0.1394748273476526
29,0.935483870967742,0.15046711127419785
30,0.967741935483871,0.1597920189712765
31,1.0,0.1658495230578262
