,Phase,diffMag
0,0.0,0.41851658495824606
1,0.03225806451612903,0.4174057316990044
2,0.06451612903225806,0.41452527917984316
3,0.0967741935483871,0.4116128328298813
4,0.12903225806451613,0.4104923758003823
5,0.16129032258064518,0.4119079569822411
6,0.1935483870967742,0.41496714707594695
7,0.22580645161290322,0.41771936107281055
8,0.25806451612903225,0.4184664337363958
9,0.2903225806451613,0.41679591786232895
10,0.32258064516129037,0.41372106469757886
11,0.3548387096774194,0.41110927899236605
12,0.3870967741935484,0.4106157814223887
13,0.41935483870967744,0.41258572346775496
14,0.45161290322580644,0.4157653194921535
15,0.4838709677419355,0.41813649133116454
16,0.5161290322580645,0.4182578150005262
17,0.5483870967741935,0.41609380878475416
18,0.5806451612903226,0.4129467371480409
19,0.6129032258064516,0.4107451065171965
20,0.6451612903225807,0.41090179115495035
21,0.6774193548387097,0.4133432072860857
22,0.7096774193548387,0.4165097334215021
23,0.7419354838709677,0.41840546737179873
24,0.7741935483870968,0.41789947979161796
25,0.8064516129032259,0.4153268517086992
26,0.8387096774193549,0.41223408886442164
27,0.8709677419354839,0.4105363081989585
28,0.9032258064516129,0.41133862524785
29,0.935483870967742,0.41414833727046924
30,0.967741935483871,0.4171699231065947
31,1.0,0.41851658495824595
