,Phase,diffMag
0,0.0,0.32914942523669094
1,0.03225806451612903,0.350132857834559
2,0.06451612903225806,0.35660765038986975
3,0.0967741935483871,0.35141898160801655
4,0.12903225806451613,0.3393606732535539
5,0.16129032258064518,0.32513946735586496
6,0.1935483870967742,0.31136015797831035
7,0.22580645161290322,0.2978322221882231
8,0.25806451612903225,0.28279756233608466
9,0.2903225806451613,0.2651876349752391
10,0.32258064516129037,0.2458675722955594
11,0.3548387096774194,0.22706071537055122
12,0.3870967741935484,0.2104869335339324
13,0.41935483870967744,0.19642600927998488
14,0.45161290322580644,0.1840746954748443
15,0.4838709677419355,0.17235570000583425
16,0.5161290322580645,0.1605670151480677
17,0.5483870967741935,0.14850923774360522
18,0.5806451612903226,0.13634470776913374
19,0.6129032258064516,0.12445532573072472
20,0.6451612903225807,0.11339739922927496
21,0.6774193548387097,0.10401014824766473
22,0.7096774193548387,0.09747724563591081
23,0.7419354838709677,0.0954098533262293
24,0.7741935483870968,0.09984958335596565
25,0.8064516129032259,0.11267751784919064
26,0.8387096774193549,0.13504518792583736
27,0.8709677419354839,0.16698984047721577
28,0.9032258064516129,0.2070483938899822
29,0.935483870967742,0.2515837283736891
30,0.967741935483871,0.2946166620454604
31,1.0,0.32914942523669094
