,Phase,diffMag
0,0.0,0.2642303153356127
1,0.03225806451612903,0.2802298023664188
2,0.06451612903225806,0.28583897502756705
3,0.0967741935483871,0.2800794809296543
4,0.12903225806451613,0.2642721360292885
5,0.16129032258064518,0.2409485959207027
6,0.1935483870967742,0.21261797321516399
7,0.22580645161290322,0.18155575385445885
8,0.25806451612903225,0.15050857253559147
9,0.2903225806451613,0.12283243724271259
10,0.32258064516129037,0.10119074449605327
11,0.3548387096774194,0.08602722843236824
12,0.3870967741935484,0.07621581468741967
13,0.41935483870967744,0.06984539305748255
14,0.45161290322580644,0.06513682826749495
15,0.4838709677419355,0.060955251896602884
16,0.5161290322580645,0.05679703976413652
17,0.5483870967741935,0.05263186856952007
18,0.5806451612903226,0.04879609287409275
19,0.6129032258064516,0.04598054154492645
20,0.6451612903225807,0.045220965065453464
21,0.6774193548387097,0.04768525369373871
22,0.7096774193548387,0.05438249604743151
23,0.7419354838709677,0.06596684259356626
24,0.7741935483870968,0.0822857154528946
25,0.8064516129032259,0.10288359963244209
26,0.8387096774193549,0.12717819230804953
27,0.8709677419354839,0.15442200549082882
28,0.9032258064516129,0.18352374577196082
29,0.935483870967742,0.21295220995620295
30,0.967741935483871,0.24072504468605796
31,1.0,0.2642303153356127
