,Phase,diffMag
0,0.0,0.2920538960721362
1,0.03225806451612903,0.3035245393811656
2,0.06451612903225806,0.3116759263961892
3,0.0967741935483871,0.3163516054561189
4,0.12903225806451613,0.31761399318698624
5,0.16129032258064518,0.3155064347237787
6,0.1935483870967742,0.30996344101558126
7,0.22580645161290322,0.300953984375377
8,0.25806451612903225,0.288722314880913
9,0.2903225806451613,0.2739193544438728
10,0.32258064516129037,0.25757968443403695
11,0.3548387096774194,0.24095260172371782
12,0.3870967741935484,0.225185938225637
13,0.41935483870967744,0.21106090186450394
14,0.45161290322580644,0.19896953737198958
15,0.4838709677419355,0.18905491663746124
16,0.5161290322580645,0.1813300276985802
17,0.5483870967741935,0.1757240684553012
18,0.5806451612903226,0.17212994699263365
19,0.6129032258064516,0.17046738647989607
20,0.6451612903225807,0.17070440770827164
21,0.6774193548387097,0.17284512627149756
22,0.7096774193548387,0.17693280540254688
23,0.7419354838709677,0.18305870871015162
24,0.7741935483870968,0.19132714329953968
25,0.8064516129032259,0.20179108301333612
26,0.8387096774193549,0.21441130673010764
27,0.8709677419354839,0.22899684001514906
28,0.9032258064516129,0.24506858255973246
29,0.935483870967742,0.26174135725383935
30,0.967741935483871,0.27781016484023174
31,1.0,0.2920538960721362
