,Phase,diffMag
0,0.0,0.2588807096270023
1,0.03225806451612903,0.26897064137203697
2,0.06451612903225806,0.2763516755895208
3,0.0967741935483871,0.28070792611602
4,0.12903225806451613,0.28190455964066896
5,0.16129032258064518,0.27991207233470594
6,0.1935483870967742,0.27478143280126016
7,0.22580645161290322,0.2666845691306847
8,0.25806451612903225,0.2559956207674089
9,0.2903225806451613,0.24335003853125106
10,0.32258064516129037,0.22961524872398806
11,0.3548387096774194,0.21574738358398765
12,0.3870967741935484,0.20258862203850983
13,0.41935483870967744,0.1907282781798751
14,0.45161290322580644,0.18049677716529153
15,0.4838709677419355,0.1720418270263487
16,0.5161290322580645,0.16540173779827372
17,0.5483870967741935,0.16054874989355358
18,0.5806451612903226,0.15742506089469352
19,0.6129032258064516,0.15597905818868654
20,0.6451612903225807,0.15618517769525342
21,0.6774193548387097,0.158047057633651
22,0.7096774193548387,0.16159747488486048
23,0.7419354838709677,0.16689232356923311
24,0.7741935483870968,0.17398552900351635
25,0.8064516129032259,0.18289155861794218
26,0.8387096774193549,0.19354975550684592
27,0.8709677419354839,0.20577478111817724
28,0.9032258064516129,0.21917706045885532
29,0.935483870967742,0.23309837394438598
30,0.967741935483871,0.24665042614012492
31,1.0,0.25888070962700227
