,Phase,diffMag
0,0.0,0.16496758912247375
1,0.03225806451612903,0.16892772413162582
2,0.06451612903225806,0.1696246503246444
3,0.0967741935483871,0.166910984112529
4,0.12903225806451613,0.16092008187192575
5,0.16129032258064518,0.15205507275203953
6,0.1935483870967742,0.14094937270698882
7,0.22580645161290322,0.12839509484611936
8,0.25806451612903225,0.11524233880340007
9,0.2903225806451613,0.10229770650890455
10,0.32258064516129037,0.09024862668442284
11,0.3548387096774194,0.07962919564405492
12,0.3870967741935484,0.07078346686039638
13,0.41935483870967744,0.06383242372154112
14,0.45161290322580644,0.05871776039096826
15,0.4838709677419355,0.055322452988773814
16,0.5161290322580645,0.053529340770157835
17,0.5483870967741935,0.05325199635494458
18,0.5806451612903226,0.05445135096199499
19,0.6129032258064516,0.05713119827713608
20,0.6451612903225807,0.06132591759498291
21,0.6774193548387097,0.06703039596631553
22,0.7096774193548387,0.07419064808232721
23,0.7419354838709677,0.08272400523484764
24,0.7741935483870968,0.09250596815934702
25,0.8064516129032259,0.10333051739926558
26,0.8387096774193549,0.11488791302584049
27,0.8709677419354839,0.12674298725085922
28,0.9032258064516129,0.13834306636976693
29,0.935483870967742,0.14904234775106034
30,0.967741935483871,0.1581443503591684
31,1.0,0.16496758912247375
