,Phase,diffMag
0,0.0,0.15583898059132603
1,0.03225806451612903,0.17879669490736153
2,0.06451612903225806,0.1989122605282355
3,0.0967741935483871,0.212929245916462
4,0.12903225806451613,0.22029553974551228
5,0.16129032258064518,0.22370639295136643
6,0.1935483870967742,0.2269733494053848
7,0.22580645161290322,0.23202567686439848
8,0.25806451612903225,0.23626229085096453
9,0.2903225806451613,0.23567587117346417
10,0.32258064516129037,0.22938886556113344
11,0.3548387096774194,0.21921504807428102
12,0.3870967741935484,0.20719830367430514
13,0.41935483870967744,0.19434291873908402
14,0.45161290322580644,0.1809299860344116
15,0.4838709677419355,0.1671203406303664
16,0.5161290322580645,0.15318346029774155
17,0.5483870967741935,0.1394221511444772
18,0.5806451612903226,0.1260696257258993
19,0.6129032258064516,0.11327600240078373
20,0.6451612903225807,0.10116802165392098
21,0.6774193548387097,0.08993018731561678
22,0.7096774193548387,0.07984612854991896
23,0.7419354838709677,0.07146489238544926
24,0.7741935483870968,0.06576476269537627
25,0.8064516129032259,0.0641633436925423
26,0.8387096774193549,0.06784308515715623
27,0.8709677419354839,0.07717419270094537
28,0.9032258064516129,0.09185512864309633
29,0.935483870967742,0.11087311681392269
30,0.967741935483871,0.1327122147349137
31,1.0,0.15583898059132598
