,Phase,diffMag
0,0.0,0.34599065784291977
1,0.03225806451612903,0.3824506495891229
2,0.06451612903225806,0.3990593734398167
3,0.0967741935483871,0.3935533183036546
4,0.12903225806451613,0.3705637348317384
5,0.16129032258064518,0.3394189890236088
6,0.1935483870967742,0.3104725416823883
7,0.22580645161290322,0.2924879550005911
8,0.25806451612903225,0.28819982140517736
9,0.2903225806451613,0.2924159360662247
10,0.32258064516129037,0.2946602478706904
11,0.3548387096774194,0.2891519907316823
12,0.3870967741935484,0.27711410699448313
13,0.41935483870967744,0.26183716537946594
14,0.45161290322580644,0.24493618482409835
15,0.4838709677419355,0.2265494667276219
16,0.5161290322580645,0.20657187175842223
17,0.5483870967741935,0.18532424101901915
18,0.5806451612903226,0.16335556217107752
19,0.6129032258064516,0.14117180585524688
20,0.6451612903225807,0.11939208650140755
21,0.6774193548387097,0.09905501744063937
22,0.7096774193548387,0.08178721582709249
23,0.7419354838709677,0.0706539685297321
24,0.7741935483870968,0.07041101765926179
25,0.8064516129032259,0.08380471827977777
26,0.8387096774193549,0.11022882983711565
27,0.8709677419354839,0.1470176995381853
28,0.9032258064516129,0.19202435826984285
29,0.935483870967742,0.24326679391307102
30,0.967741935483871,0.29685912652175966
31,1.0,0.3459906578429197
