,Phase,diffMag
0,0.0,0.3516697969649126
1,0.03225806451612903,0.38696606035289605
2,0.06451612903225806,0.4045676617687785
3,0.0967741935483871,0.4005577048410562
4,0.12903225806451613,0.376875376092607
5,0.16129032258064518,0.3399044713813324
6,0.1935483870967742,0.2985910162199448
7,0.22580645161290322,0.26277784439608115
8,0.25806451612903225,0.24029105762120004
9,0.2903225806451613,0.23261241027412274
10,0.32258064516129037,0.23296969235879902
11,0.3548387096774194,0.23199395363075984
12,0.3870967741935484,0.22637256441841244
13,0.41935483870967744,0.21682940800825062
14,0.45161290322580644,0.20427231721344968
15,0.4838709677419355,0.1892336550721495
16,0.5161290322580645,0.1721851855501307
17,0.5483870967741935,0.15361472537922685
18,0.5806451612903226,0.1340817489902866
19,0.6129032258064516,0.11421611070221943
20,0.6451612903225807,0.09486971251988767
21,0.6774193548387097,0.07745677833689074
22,0.7096774193548387,0.06462853069435676
23,0.7419354838709677,0.060883578739741886
24,0.7741935483870968,0.06948578029426374
25,0.8064516129032259,0.09053271381627277
26,0.8387096774193549,0.12188694807724977
27,0.8709677419354839,0.16125220630351636
28,0.9032258064516129,0.20645235907159515
29,0.935483870967742,0.2554800679089102
30,0.967741935483871,0.3056212971755489
31,1.0,0.3516697969649126
