,Phase,diffMag
0,0.0,0.2138476038506521
1,0.03225806451612903,0.2400030332595571
2,0.06451612903225806,0.2574478683813878
3,0.0967741935483871,0.258396964938093
4,0.12903225806451613,0.24276180685453658
5,0.16129032258064518,0.21879831260969207
6,0.1935483870967742,0.20049321893919575
7,0.22580645161290322,0.19585611366104655
8,0.25806451612903225,0.20163148109559081
9,0.2903225806451613,0.20996640533138602
10,0.32258064516129037,0.21481789855385489
11,0.3548387096774194,0.2156614080638415
12,0.3870967741935484,0.2132932326791361
13,0.41935483870967744,0.2077685392196792
14,0.45161290322580644,0.19872180772705642
15,0.4838709677419355,0.1863899524262878
16,0.5161290322580645,0.17162067518598706
17,0.5483870967741935,0.15529100270911889
18,0.5806451612903226,0.13803126165094143
19,0.6129032258064516,0.12022859381343311
20,0.6451612903225807,0.10220208073063386
21,0.6774193548387097,0.08455679051950764
22,0.7096774193548387,0.06843675388887083
23,0.7419354838709677,0.05596634491938403
24,0.7741935483870968,0.05116834891140499
25,0.8064516129032259,0.05689952287986629
26,0.8387096774193549,0.07287209970340827
27,0.8709677419354839,0.09659081434907074
28,0.9032258064516129,0.12540404552195164
29,0.935483870967742,0.15634739224635363
30,0.967741935483871,0.18621848305772143
31,1.0,0.21384760385065196
