,Phase,diffMag
0,0.0,0.2808781079240936
1,0.03225806451612903,0.30316165748390345
2,0.06451612903225806,0.31342855673693093
3,0.0967741935483871,0.31232817491667464
4,0.12903225806451613,0.3055180262531698
5,0.16129032258064518,0.30050403397008
6,0.1935483870967742,0.3023574284379451
7,0.22580645161290322,0.31125354428870305
8,0.25806451612903225,0.32277999621367837
9,0.2903225806451613,0.3308287718712574
10,0.32258064516129037,0.33041521502971205
11,0.3548387096774194,0.3204011316313951
12,0.3870967741935484,0.30451297920305204
13,0.41935483870967744,0.28806056411376424
14,0.45161290322580644,0.2739537427516141
15,0.4838709677419355,0.2619119090490271
16,0.5161290322580645,0.24922495340223794
17,0.5483870967741935,0.23303425051191545
18,0.5806451612903226,0.213090399219745
19,0.6129032258064516,0.1921006091344301
20,0.6451612903225807,0.17346756257273638
21,0.6774193548387097,0.1594801947364201
22,0.7096774193548387,0.1508259884535631
23,0.7419354838709677,0.14690255698686178
24,0.7741935483870968,0.14636728669471116
25,0.8064516129032259,0.14869067377806608
26,0.8387096774193549,0.15517307909758085
27,0.8709677419354839,0.16805544767683556
28,0.9032258064516129,0.18886768059488493
29,0.935483870967742,0.21747930030917914
30,0.967741935483871,0.2503133739784952
31,1.0,0.2808781079240936
