,Phase,diffMag
0,0.0,0.2223012821462864
1,0.03225806451612903,0.24897737061643402
2,0.06451612903225806,0.2673787704650245
3,0.0967741935483871,0.27702737974363323
4,0.12903225806451613,0.27995285240240025
5,0.16129032258064518,0.2792491114707212
6,0.1935483870967742,0.2774406985283416
7,0.22580645161290322,0.27549584689839857
8,0.25806451612903225,0.2726992422222952
9,0.2903225806451613,0.2667264056181351
10,0.32258064516129037,0.25596740724315775
11,0.3548387096774194,0.24104558595761047
12,0.3870967741935484,0.22411577051026033
13,0.41935483870967744,0.20707355308469733
14,0.45161290322580644,0.190581446252698
15,0.4838709677419355,0.17452232462883469
16,0.5161290322580645,0.1587627786048551
17,0.5483870967741935,0.14340030692561542
18,0.5806451612903226,0.1286363467207041
19,0.6129032258064516,0.11468611798689546
20,0.6451612903225807,0.10178302503694261
21,0.6774193548387097,0.09023400591986787
22,0.7096774193548387,0.08060842456526968
23,0.7419354838709677,0.07382283671151456
24,0.7741935483870968,0.0712355499587578
25,0.8064516129032259,0.0744699825381735
26,0.8387096774193549,0.08464013997074725
27,0.8709677419354839,0.10225661130284887
28,0.9032258064516129,0.1269318632425371
29,0.935483870967742,0.15720547268536475
30,0.967741935483871,0.19030994057100292
31,1.0,0.2223012821462864
