,Phase,diffMag
0,0.0,0.1822378073907305
1,0.03225806451612903,0.1903373772592854
2,0.06451612903225806,0.19471717581055611
3,0.0967741935483871,0.1948349143216983
4,0.12903225806451613,0.1905874801386724
5,0.16129032258064518,0.18226771908024825
6,0.1935483870967742,0.17048783143215998
7,0.22580645161290322,0.15614648316360907
8,0.25806451612903225,0.14035487447704337
9,0.2903225806451613,0.1242510154563113
10,0.32258064516129037,0.1088291535802464
11,0.3548387096774194,0.09489766443858381
12,0.3870967741935484,0.08302512855625771
13,0.41935483870967744,0.07345761924947651
14,0.45161290322580644,0.06617907889563386
15,0.4838709677419355,0.06104459463092826
16,0.5161290322580645,0.057852589474327656
17,0.5483870967741935,0.05642542385778879
18,0.5806451612903226,0.0566592625186495
19,0.6129032258064516,0.05851535668229507
20,0.6451612903225807,0.06201473125939649
21,0.6774193548387097,0.06718451397510047
22,0.7096774193548387,0.07400300097581805
23,0.7419354838709677,0.08242811134148202
24,0.7741935483870968,0.09241040255508945
25,0.8064516129032259,0.10385538039196358
26,0.8387096774193549,0.11657862392044917
27,0.8709677419354839,0.13026120577172373
28,0.9032258064516129,0.14440880328345732
29,0.935483870967742,0.15834989290727777
30,0.967741935483871,0.1712632873821827
31,1.0,0.18223780739073048
