,Phase,diffMag
0,0.0,0.28848923587862085
1,0.03225806451612903,0.3370568053344465
2,0.06451612903225806,0.3772102188741446
3,0.0967741935483871,0.39986590126747334
4,0.12903225806451613,0.4026848958828041
5,0.16129032258064518,0.38923762224913966
6,0.1935483870967742,0.36356461650231103
7,0.22580645161290322,0.32880996323023054
8,0.25806451612903225,0.2882817810245237
9,0.2903225806451613,0.24555773612566575
10,0.32258064516129037,0.20440452846593868
11,0.3548387096774194,0.16869104624216988
12,0.3870967741935484,0.1402532093507169
13,0.41935483870967744,0.11828732711840843
14,0.45161290322580644,0.10098005087053948
15,0.4838709677419355,0.08678977963551014
16,0.5161290322580645,0.07471531956060766
17,0.5483870967741935,0.06425657580363615
18,0.5806451612903226,0.055286974327588764
19,0.6129032258064516,0.04800719069764781
20,0.6451612903225807,0.042993872146363764
21,0.6774193548387097,0.04108792122838708
22,0.7096774193548387,0.04316970273104868
23,0.7419354838709677,0.04986285894806712
24,0.7741935483870968,0.06147550703757973
25,0.8064516129032259,0.07803947489802206
26,0.8387096774193549,0.0997354495864351
27,0.8709677419354839,0.12677377882783697
28,0.9032258064516129,0.1592843715681331
29,0.935483870967742,0.19724126623094718
30,0.967741935483871,0.24053972411007452
31,1.0,0.2884892358786208
