,Phase,diffMag
0,0.0,0.33304470557839877
1,0.03225806451612903,0.38473738928108353
2,0.06451612903225806,0.42177262086774947
3,0.0967741935483871,0.4344223413302079
4,0.12903225806451613,0.42281984301049774
5,0.16129032258064518,0.3938042818006654
6,0.1935483870967742,0.3557033363487198
7,0.22580645161290322,0.31800087537734206
8,0.25806451612903225,0.29062288616599635
9,0.2903225806451613,0.27623219584297015
10,0.32258064516129037,0.2672489205483728
11,0.3548387096774194,0.2544351569578073
12,0.3870967741935484,0.2368956483671959
13,0.41935483870967744,0.21758097000112805
14,0.45161290322580644,0.1978235806030669
15,0.4838709677419355,0.17759087167992513
16,0.5161290322580645,0.15699735227615472
17,0.5483870967741935,0.1363430479681166
18,0.5806451612903226,0.11601480139737656
19,0.6129032258064516,0.09643114967769315
20,0.6451612903225807,0.0781556011030095
21,0.6774193548387097,0.06220549132995258
22,0.7096774193548387,0.05065003098466424
23,0.7419354838709677,0.04719907884406353
24,0.7741935483870968,0.05450464038350646
25,0.8064516129032259,0.07261263981217658
26,0.8387096774193549,0.10000397136798969
27,0.8709677419354839,0.13543123976510593
28,0.9032258064516129,0.1778102355751858
29,0.935483870967742,0.22579317840796917
30,0.967741935483871,0.27816642179628004
31,1.0,0.33304470557839877
