,Phase,diffMag
0,0.0,0.2825552047434153
1,0.03225806451612903,0.2835767690828186
2,0.06451612903225806,0.28366861685898426
3,0.0967741935483871,0.2827814470574745
4,0.12903225806451613,0.2814124066620091
5,0.16129032258064518,0.2804120561297779
6,0.1935483870967742,0.28045594733395446
7,0.22580645161290322,0.28151361148635046
8,0.25806451612903225,0.2828739771712834
9,0.2903225806451613,0.283698501141342
10,0.32258064516129037,0.2835280785439668
11,0.3548387096774194,0.28245428416512824
12,0.3870967741935484,0.28109319949212846
13,0.41935483870967744,0.28031189487975383
14,0.45161290322580644,0.28064462630651843
15,0.4838709677419355,0.28186097271230504
16,0.5161290322580645,0.28315712383966657
17,0.5483870967741935,0.283755278927212
18,0.5806451612903226,0.2833283760802878
19,0.6129032258064516,0.28210765026786105
20,0.6451612903225807,0.2808119511115723
21,0.6774193548387097,0.2802855861415355
22,0.7096774193548387,0.28089164964597757
23,0.7419354838709677,0.28221300452184733
24,0.7741935483870968,0.28339420383660324
25,0.8064516129032259,0.2837452057269011
26,0.8387096774193549,0.28307647725535773
27,0.8709677419354839,0.28175547144789453
28,0.9032258064516129,0.2805813692936683
29,0.935483870967742,0.280334369005282
30,0.967741935483871,0.2811857127524372
31,1.0,0.2825552047434153
