,Phase,diffMag
0,0.0,0.40915172808085215
1,0.03225806451612903,0.49148384959746766
2,0.06451612903225806,0.5485866708034406
3,0.0967741935483871,0.5655679836241091
4,0.12903225806451613,0.541133961118283
5,0.16129032258064518,0.49237023367832344
6,0.1935483870967742,0.44426826851854473
7,0.22580645161290322,0.416792286115043
8,0.25806451612903225,0.40831576546103604
9,0.2903225806451613,0.41291664949433465
10,0.32258064516129037,0.4099688437800157
11,0.3548387096774194,0.3828446770744217
12,0.3870967741935484,0.33417198726566233
13,0.41935483870967744,0.28429792607817966
14,0.45161290322580644,0.24435346035584582
15,0.4838709677419355,0.21283218434259085
16,0.5161290322580645,0.18571924599067138
17,0.5483870967741935,0.1605045771037686
18,0.5806451612903226,0.13651580900433657
19,0.6129032258064516,0.11381904683148265
20,0.6451612903225807,0.09277480876893388
21,0.6774193548387097,0.07424064206906708
22,0.7096774193548387,0.060240420711166746
23,0.7419354838709677,0.0547723594432521
24,0.7741935483870968,0.06108769007438035
25,0.8064516129032259,0.07968571415056094
26,0.8387096774193549,0.10910889992425324
27,0.8709677419354839,0.14771139223962312
28,0.9032258064516129,0.19320145288232551
29,0.935483870967742,0.24754232548830274
30,0.967741935483871,0.3228680429911835
31,1.0,0.409151728080852
