,Phase,diffMag
0,0.0,0.1791911381489219
1,0.03225806451612903,0.19077411306212028
2,0.06451612903225806,0.1989084737396064
3,0.0967741935483871,0.20247306736945103
4,0.12903225806451613,0.2010409855178286
5,0.16129032258064518,0.1947863036356978
6,0.1935483870967742,0.18414951649442665
7,0.22580645161290322,0.1698683813824778
8,0.25806451612903225,0.15314347540742573
9,0.2903225806451613,0.13546418183094103
10,0.32258064516129037,0.11807164696475307
11,0.3548387096774194,0.10187739068009907
12,0.3870967741935484,0.0876841564945322
13,0.41935483870967744,0.07602953291767066
14,0.45161290322580644,0.06705162628300765
15,0.4838709677419355,0.060600828343132324
16,0.5161290322580645,0.05638245468180985
17,0.5483870967741935,0.0541052249545584
18,0.5806451612903226,0.05357007747802163
19,0.6129032258064516,0.05466986832234415
20,0.6451612903225807,0.0573810736631677
21,0.6774193548387097,0.061708730692442273
22,0.7096774193548387,0.06763169788541296
23,0.7419354838709677,0.07513172568113653
24,0.7741935483870968,0.08421148747597389
25,0.8064516129032259,0.09486736511206505
26,0.8387096774193549,0.10705221521827464
27,0.8709677419354839,0.12062244725923657
28,0.9032258064516129,0.13526606319902384
29,0.935483870967742,0.1504485900204672
30,0.967741935483871,0.16540024568992232
31,1.0,0.17919113814892187
