,Phase,diffMag
0,0.0,0.20846552422450665
1,0.03225806451612903,0.22824438062444993
2,0.06451612903225806,0.2407591707958219
3,0.0967741935483871,0.24332822086638228
4,0.12903225806451613,0.23715241540501641
5,0.16129032258064518,0.22488250179711183
6,0.1935483870967742,0.20850560419484648
7,0.22580645161290322,0.1904243452144713
8,0.25806451612903225,0.17385184266635664
9,0.2903225806451613,0.16081467891977236
10,0.32258064516129037,0.15012016605861037
11,0.3548387096774194,0.1393194765816653
12,0.3870967741935484,0.12818093598842245
13,0.41935483870967744,0.11772727569854807
14,0.45161290322580644,0.10844607213972277
15,0.4838709677419355,0.09988325094702043
16,0.5161290322580645,0.09149760236192196
17,0.5483870967741935,0.0829807761861398
18,0.5806451612903226,0.07435889541351953
19,0.6129032258064516,0.06613182780931898
20,0.6451612903225807,0.05936140071544015
21,0.6774193548387097,0.0554650621158061
22,0.7096774193548387,0.055475865537268174
23,0.7419354838709677,0.06010700064016779
24,0.7741935483870968,0.0693417161361859
25,0.8064516129032259,0.08258578505646642
26,0.8387096774193549,0.09916184473260183
27,0.8709677419354839,0.1184392154043316
28,0.9032258064516129,0.13971171931605447
29,0.935483870967742,0.1622565869733688
30,0.967741935483871,0.18554760917013768
31,1.0,0.20846552422450665
