,Phase,diffMag
0,0.0,0.11725065419736413
1,0.03225806451612903,0.12386904849258787
2,0.06451612903225806,0.12667408900032454
3,0.0967741935483871,0.1252028494303826
4,0.12903225806451613,0.11970266980997427
5,0.16129032258064518,0.11095991888539558
6,0.1935483870967742,0.09992929949567798
7,0.22580645161290322,0.08783973134343921
8,0.25806451612903225,0.07634227417519703
9,0.2903225806451613,0.06712174727210297
10,0.32258064516129037,0.060897827270504974
11,0.3548387096774194,0.05714933696705041
12,0.3870967741935484,0.055028692846114245
13,0.41935483870967744,0.05358465038904639
14,0.45161290322580644,0.05192352524888697
15,0.4838709677419355,0.049527607012995384
16,0.5161290322580645,0.046272060086760235
17,0.5483870967741935,0.04229760992594045
18,0.5806451612903226,0.037948581656324976
19,0.6129032258064516,0.033744170003411185
20,0.6451612903225807,0.030485632423286523
21,0.6774193548387097,0.029004791824771545
22,0.7096774193548387,0.029971216048271385
23,0.7419354838709677,0.03377429679864558
24,0.7741935483870968,0.04021866490185844
25,0.8064516129032259,0.04885282480686401
26,0.8387096774193549,0.05926997704580694
27,0.8709677419354839,0.0709968501829805
28,0.9032258064516129,0.08351918872813771
29,0.935483870967742,0.09607203865347476
30,0.967741935483871,0.10766414791969289
31,1.0,0.11725065419736413
