,Phase,diffMag
0,0.0,0.2613679952161731
1,0.03225806451612903,0.30840886056922523
2,0.06451612903225806,0.3582226192568786
3,0.0967741935483871,0.38366835366152124
4,0.12903225806451613,0.36549317521591823
5,0.16129032258064518,0.32237714739885415
6,0.1935483870967742,0.28374237998330326
7,0.22580645161290322,0.26463357334624477
8,0.25806451612903225,0.2557680420325371
9,0.2903225806451613,0.23469420609980013
10,0.32258064516129037,0.20359273011513465
11,0.3548387096774194,0.1783911065046135
12,0.3870967741935484,0.16282131169926187
13,0.41935483870967744,0.15254298567510607
14,0.45161290322580644,0.14251633471338385
15,0.4838709677419355,0.13058404554203815
16,0.5161290322580645,0.1169018728677198
17,0.5483870967741935,0.10218117716741973
18,0.5806451612903226,0.08707980252030852
19,0.6129032258064516,0.07216556438206803
20,0.6451612903225807,0.058109689617828045
21,0.6774193548387097,0.04597561403698902
22,0.7096774193548387,0.03773085470651068
23,0.7419354838709677,0.036605915282695106
24,0.7741935483870968,0.04444495119623177
25,0.8064516129032259,0.060728322470132344
26,0.8387096774193549,0.08384528543160703
27,0.8709677419354839,0.112748445037661
28,0.9032258064516129,0.14658827720877302
29,0.935483870967742,0.18378617176333312
30,0.967741935483871,0.22201120478705805
31,1.0,0.2613679952161731
