,Phase,diffMag
0,0.0,0.24113504015956594
1,0.03225806451612903,0.23813887100395945
2,0.06451612903225806,0.22938504946090746
3,0.0967741935483871,0.21559510261085885
4,0.12903225806451613,0.1980093058166187
5,0.16129032258064518,0.1783152648222221
6,0.1935483870967742,0.1583402644322848
7,0.22580645161290322,0.13961680467813364
8,0.25806451612903225,0.12310858472080137
9,0.2903225806451613,0.10921679590408002
10,0.32258064516129037,0.097951153195475
11,0.3548387096774194,0.0891165587651585
12,0.3870967741935484,0.08244825421719575
13,0.41935483870967744,0.07769085347728087
14,0.45161290322580644,0.07463759669484658
15,0.4838709677419355,0.07314670342210655
16,0.5161290322580645,0.07314670342210655
17,0.5483870967741935,0.0746375966948466
18,0.5806451612903226,0.07769085347728089
19,0.6129032258064516,0.08244825421719569
20,0.6451612903225807,0.08911655876515855
21,0.6774193548387097,0.09795115319547501
22,0.7096774193548387,0.10921679590408001
23,0.7419354838709677,0.12310858472080131
24,0.7741935483870968,0.13961680467813356
25,0.8064516129032259,0.15834026443228486
26,0.8387096774193549,0.17831526482222199
27,0.8709677419354839,0.19800930581661866
28,0.9032258064516129,0.21559510261085862
29,0.935483870967742,0.22938504946090735
30,0.967741935483871,0.2381388710039594
31,1.0,0.24113504015956594
