,Phase,diffMag
0,0.0,0.2967462835798896
1,0.03225806451612903,0.29625452180471146
2,0.06451612903225806,0.2950526279765897
3,0.0967741935483871,0.2939108884667014
4,0.12903225806451613,0.29354436306258314
5,0.16129032258064518,0.2941430876557487
6,0.1935483870967742,0.2953832009639768
7,0.22580645161290322,0.2964643528865686
8,0.25806451612903225,0.2967143020084206
9,0.2903225806451613,0.2959973514232879
10,0.32258064516129037,0.2947261348225882
11,0.3548387096774194,0.29373023490193284
12,0.3870967741935484,0.29360687923449863
13,0.41935483870967744,0.29441850786574414
14,0.45161290322580644,0.29570281364109596
15,0.4838709677419355,0.2966193308704893
16,0.5161290322580645,0.2966193308704894
17,0.5483870967741935,0.29570281364109596
18,0.5806451612903226,0.2944185078657442
19,0.6129032258064516,0.29360687923449863
20,0.6451612903225807,0.29373023490193284
21,0.6774193548387097,0.2947261348225879
22,0.7096774193548387,0.2959973514232879
23,0.7419354838709677,0.29671430200842036
24,0.7741935483870968,0.29646435288656836
25,0.8064516129032259,0.2953832009639767
26,0.8387096774193549,0.2941430876557488
27,0.8709677419354839,0.2935443630625831
28,0.9032258064516129,0.29391088846670116
29,0.935483870967742,0.2950526279765896
30,0.967741935483871,0.2962545218047115
31,1.0,0.2967462835798894
