,Phase,diffMag
0,0.0,0.3038907944363658
1,0.03225806451612903,0.3043703530280405
2,0.06451612903225806,0.30550009317672217
3,0.0967741935483871,0.3065674250155487
4,0.12903225806451613,0.30692018411392297
5,0.16129032258064518,0.3063475324474569
6,0.1935483870967742,0.3051929289504709
7,0.22580645161290322,0.304167464110253
8,0.25806451612903225,0.30392243556669046
9,0.2903225806451613,0.30461602871743343
10,0.32258064516129037,0.3058029832209237
11,0.3548387096774194,0.30674031426193116
12,0.3870967741935484,0.30685944358308553
13,0.41935483870967744,0.3060892967033428
14,0.45161290322580644,0.30489410602227923
15,0.4838709677419355,0.30401599794414225
16,0.5161290322580645,0.3040159979441423
17,0.5483870967741935,0.3048941060222793
18,0.5806451612903226,0.306089296703343
19,0.6129032258064516,0.3068594435830857
20,0.6451612903225807,0.30674031426193143
21,0.6774193548387097,0.30580298322092353
22,0.7096774193548387,0.3046160287174335
23,0.7419354838709677,0.30392243556669046
24,0.7741935483870968,0.30416746411025297
25,0.8064516129032259,0.305192928950471
26,0.8387096774193549,0.3063475324474569
27,0.8709677419354839,0.30692018411392274
28,0.9032258064516129,0.30656742501554857
29,0.935483870967742,0.30550009317672217
30,0.967741935483871,0.30437035302804066
31,1.0,0.3038907944363658
