,Phase,diffMag
0,0.0,0.23091058021641503
1,0.03225806451612903,0.22832936540723628
2,0.06451612903225806,0.22045762632302532
3,0.0967741935483871,0.20733945124721814
4,0.12903225806451613,0.18999208705021475
5,0.16129032258064518,0.17049093360396378
6,0.1935483870967742,0.1510923571736152
7,0.22580645161290322,0.13339022918340224
8,0.25806451612903225,0.11813884013833503
9,0.2903225806451613,0.10549752691285776
10,0.32258064516129037,0.09532134320156728
11,0.3548387096774194,0.08735453502565776
12,0.3870967741935484,0.08133133123361594
13,0.41935483870967744,0.0770212345951195
14,0.45161290322580644,0.0742468023568696
15,0.4838709677419355,0.07288922499658579
16,0.5161290322580645,0.07288922499658582
17,0.5483870967741935,0.0742468023568696
18,0.5806451612903226,0.0770212345951195
19,0.6129032258064516,0.0813313312336159
20,0.6451612903225807,0.0873545350256578
21,0.6774193548387097,0.09532134320156727
22,0.7096774193548387,0.10549752691285776
23,0.7419354838709677,0.11813884013833492
24,0.7741935483870968,0.13339022918340218
25,0.8064516129032259,0.15109235717361513
26,0.8387096774193549,0.1704909336039638
27,0.8709677419354839,0.18999208705021475
28,0.9032258064516129,0.20733945124721812
29,0.935483870967742,0.22045762632302524
30,0.967741935483871,0.22832936540723614
31,1.0,0.23091058021641492
