,Phase,diffMag
0,0.0,0.24597639353124856
1,0.03225806451612903,0.243056938346091
2,0.06451612903225806,0.2345559438728655
3,0.0967741935483871,0.2212318545815415
4,0.12903225806451613,0.20425729787414806
5,0.16129032258064518,0.1850218752780192
6,0.1935483870967742,0.1649028765976216
7,0.22580645161290322,0.14511996351458156
8,0.25806451612903225,0.12667810044148067
9,0.2903225806451613,0.11035271661906496
10,0.32258064516129037,0.09663989440321513
11,0.3548387096774194,0.08571385474829155
12,0.3870967741935484,0.07745005792323434
13,0.41935483870967744,0.07159968136723467
14,0.45161290322580644,0.06790091438518127
15,0.4838709677419355,0.06612121834647243
16,0.5161290322580645,0.0661212183464724
17,0.5483870967741935,0.06790091438518128
18,0.5806451612903226,0.07159968136723469
19,0.6129032258064516,0.0774500579232343
20,0.6451612903225807,0.08571385474829153
21,0.6774193548387097,0.09663989440321506
22,0.7096774193548387,0.11035271661906491
23,0.7419354838709677,0.12667810044148065
24,0.7741935483870968,0.14511996351458134
25,0.8064516129032259,0.16490287659762154
26,0.8387096774193549,0.18502187527801914
27,0.8709677419354839,0.20425729787414804
28,0.9032258064516129,0.22123185458154151
29,0.935483870967742,0.23455594387286546
30,0.967741935483871,0.243056938346091
31,1.0,0.24597639353124862
