,Phase,diffMag
0,0.0,0.21616323114436467
1,0.03225806451612903,0.21510519907396783
2,0.06451612903225806,0.2126158181027582
3,0.0967741935483871,0.21074901236989912
4,0.12903225806451613,0.2103995994837788
5,0.16129032258064518,0.21105012571485052
6,0.1935483870967742,0.21327497427653774
7,0.22580645161290322,0.21555567042423468
8,0.25806451612903225,0.2160942193441338
9,0.2903225806451613,0.21455647466953295
10,0.32258064516129037,0.2120010065875928
11,0.3548387096774194,0.21055550960324107
12,0.3870967741935484,0.21044680910246769
13,0.41935483870967744,0.21147008979619958
14,0.45161290322580644,0.2139352403129052
15,0.4838709677419355,0.2158894084043578
16,0.5161290322580645,0.2158894084043579
17,0.5483870967741935,0.21393524031290503
18,0.5806451612903226,0.21147008979619955
19,0.6129032258064516,0.21044680910246777
20,0.6451612903225807,0.2105555096032413
21,0.6774193548387097,0.21200100658759258
22,0.7096774193548387,0.21455647466953298
23,0.7419354838709677,0.21609421934413373
24,0.7741935483870968,0.21555567042423449
25,0.8064516129032259,0.21327497427653763
26,0.8387096774193549,0.2110501257148507
27,0.8709677419354839,0.2103995994837785
28,0.9032258064516129,0.21074901236989904
29,0.935483870967742,0.2126158181027582
30,0.967741935483871,0.21510519907396786
31,1.0,0.21616323114436467
