,Phase,diffMag
0,0.0,0.37363828992403963
1,0.03225806451612903,0.3656258698046472
2,0.06451612903225806,0.34256156092059076
3,0.0967741935483871,0.3075035613431577
4,0.12903225806451613,0.2669567004463288
5,0.16129032258064518,0.22819294025943085
6,0.1935483870967742,0.19180529549589134
7,0.22580645161290322,0.15944372762777687
8,0.25806451612903225,0.13346781791391757
9,0.2903225806451613,0.11554272337444269
10,0.32258064516129037,0.1055201413403503
11,0.3548387096774194,0.10159075605985239
12,0.3870967741935484,0.10130273690064862
13,0.41935483870967744,0.10247413058214272
14,0.45161290322580644,0.10379770957448493
15,0.4838709677419355,0.10460416967666814
16,0.5161290322580645,0.10460416967666808
17,0.5483870967741935,0.10379770957448495
18,0.5806451612903226,0.10247413058214279
19,0.6129032258064516,0.10130273690064857
20,0.6451612903225807,0.10159075605985239
21,0.6774193548387097,0.10552014134035027
22,0.7096774193548387,0.1155427233744428
23,0.7419354838709677,0.13346781791391746
24,0.7741935483870968,0.15944372762777675
25,0.8064516129032259,0.1918052954958914
26,0.8387096774193549,0.2281929402594308
27,0.8709677419354839,0.26695670044632874
28,0.9032258064516129,0.3075035613431576
29,0.935483870967742,0.34256156092059054
30,0.967741935483871,0.3656258698046472
31,1.0,0.3736382899240397
