,Phase,diffMag
0,0.0,0.33096501243074344
1,0.03225806451612903,0.32854287994591047
2,0.06451612903225806,0.3205405485352077
3,0.0967741935483871,0.3053159360928839
4,0.12903225806451613,0.2818304817974757
5,0.16129032258064518,0.2511150507537042
6,0.1935483870967742,0.21651784447409603
7,0.22580645161290322,0.18246762307282408
8,0.25806451612903225,0.15253375502412134
9,0.2903225806451613,0.12832069887602066
10,0.32258064516129037,0.10977855244981781
11,0.3548387096774194,0.09608197904008407
12,0.3870967741935484,0.08627921763491073
13,0.41935483870967744,0.07957539155711703
14,0.45161290322580644,0.07540071072824903
15,0.4838709677419355,0.07339841689110017
16,0.5161290322580645,0.07339841689110013
17,0.5483870967741935,0.07540071072824901
18,0.5806451612903226,0.079575391557117
19,0.6129032258064516,0.08627921763491075
20,0.6451612903225807,0.09608197904008411
21,0.6774193548387097,0.10977855244981781
22,0.7096774193548387,0.12832069887602068
23,0.7419354838709677,0.1525337550241212
24,0.7741935483870968,0.18246762307282394
25,0.8064516129032259,0.21651784447409608
26,0.8387096774193549,0.2511150507537043
27,0.8709677419354839,0.28183048179747566
28,0.9032258064516129,0.3053159360928839
29,0.935483870967742,0.3205405485352073
30,0.967741935483871,0.32854287994591064
31,1.0,0.33096501243074333
