,Phase,diffMag
0,0.0,0.36182387285548934
1,0.03225806451612903,0.3540146744210992
2,0.06451612903225806,0.33182664040777266
3,0.0967741935483871,0.2987914024478868
4,0.12903225806451613,0.2597135843408729
5,0.16129032258064518,0.21940061756949097
6,0.1935483870967742,0.1817355982057922
7,0.22580645161290322,0.14929507522671057
8,0.25806451612903225,0.12385843903971792
9,0.2903225806451613,0.10643785828920584
10,0.32258064516129037,0.09663416725542932
11,0.3548387096774194,0.09269881260423653
12,0.3870967741935484,0.09232867842565816
13,0.41935483870967744,0.09344547044708551
14,0.45161290322580644,0.09474016398021329
15,0.4838709677419355,0.09553378100164371
16,0.5161290322580645,0.09553378100164374
17,0.5483870967741935,0.09474016398021329
18,0.5806451612903226,0.09344547044708551
19,0.6129032258064516,0.09232867842565814
20,0.6451612903225807,0.09269881260423657
21,0.6774193548387097,0.09663416725542925
22,0.7096774193548387,0.10643785828920584
23,0.7419354838709677,0.12385843903971779
24,0.7741935483870968,0.14929507522671054
25,0.8064516129032259,0.1817355982057922
26,0.8387096774193549,0.21940061756949084
27,0.8709677419354839,0.2597135843408729
28,0.9032258064516129,0.2987914024478868
29,0.935483870967742,0.33182664040777243
30,0.967741935483871,0.3540146744210991
31,1.0,0.36182387285548934
