,Phase,diffMag
0,0.0,0.16463875222486218
1,0.03225806451612903,0.1637837643870343
2,0.06451612903225806,0.16128064943390508
3,0.0967741935483871,0.15730831415834642
4,0.12903225806451613,0.15214418569101223
5,0.16129032258064518,0.1461357716083953
6,0.1935483870967742,0.1396633903961084
7,0.22580645161290322,0.13309802092793893
8,0.25806451612903225,0.12676380898309608
9,0.2903225806451613,0.12091520208713999
10,0.32258064516129037,0.11573204893292056
11,0.3548387096774194,0.11132868573893394
12,0.3870967741935484,0.10776999177062443
13,0.41935483870967744,0.10508824537044387
14,0.45161290322580644,0.10329704204720778
15,0.4838709677419355,0.10240091581513656
16,0.5161290322580645,0.10240091581513654
17,0.5483870967741935,0.10329704204720778
18,0.5806451612903226,0.10508824537044383
19,0.6129032258064516,0.10776999177062441
20,0.6451612903225807,0.11132868573893397
21,0.6774193548387097,0.11573204893292055
22,0.7096774193548387,0.12091520208713996
23,0.7419354838709677,0.12676380898309605
24,0.7741935483870968,0.13309802092793885
25,0.8064516129032259,0.1396633903961084
26,0.8387096774193549,0.14613577160839528
27,0.8709677419354839,0.1521441856910122
28,0.9032258064516129,0.15730831415834642
29,0.935483870967742,0.1612806494339052
30,0.967741935483871,0.16378376438703424
31,1.0,0.16463875222486218
