,Phase,diffMag
0,0.0,0.42654367767166534
1,0.03225806451612903,0.4160343291840038
2,0.06451612903225806,0.3862038677964073
3,0.0967741935483871,0.3420064652334444
4,0.12903225806451613,0.28997055536525074
5,0.16129032258064518,0.23750929194884246
6,0.1935483870967742,0.19306918163040473
7,0.22580645161290322,0.1635294364671252
8,0.25806451612903225,0.15104958382036857
9,0.2903225806451613,0.1524354832263845
10,0.32258064516129037,0.16101393512863937
11,0.3548387096774194,0.17200352328247165
12,0.3870967741935484,0.18257434088181163
13,0.41935483870967744,0.1910924394385107
14,0.45161290322580644,0.19687163110083347
15,0.4838709677419355,0.19975407584589164
16,0.5161290322580645,0.19975407584589172
17,0.5483870967741935,0.19687163110083358
18,0.5806451612903226,0.19109243943851073
19,0.6129032258064516,0.18257434088181165
20,0.6451612903225807,0.17200352328247176
21,0.6774193548387097,0.16101393512863926
22,0.7096774193548387,0.1524354832263846
23,0.7419354838709677,0.15104958382036845
24,0.7741935483870968,0.1635294364671253
25,0.8064516129032259,0.19306918163040473
26,0.8387096774193549,0.2375092919488425
27,0.8709677419354839,0.2899705553652507
28,0.9032258064516129,0.34200646523344413
29,0.935483870967742,0.38620386779640703
30,0.967741935483871,0.41603432918400374
31,1.0,0.42654367767166534
