,Phase,diffMag
0,0.0,0.35741807371089424
1,0.03225806451612903,0.35818266124146464
2,0.06451612903225806,0.3599909213346918
3,0.0967741935483871,0.36170706491255944
4,0.12903225806451613,0.3622755783765874
5,0.16129032258064518,0.36135298019594797
6,0.1935483870967742,0.359498356002449
7,0.22580645161290322,0.3578589536113902
8,0.25806451612903225,0.35746846232673846
9,0.2903225806451613,0.3585750746728946
10,0.32258064516129037,0.36047724652822105
11,0.3548387096774194,0.361985627025024
12,0.3870967741935484,0.3621776488029482
13,0.41935483870967744,0.3609374785972035
14,0.45161290322580644,0.35901980593868676
15,0.4838709677419355,0.35761750980048024
16,0.5161290322580645,0.35761750980048024
17,0.5483870967741935,0.35901980593868693
18,0.5806451612903226,0.36093747859720376
19,0.6129032258064516,0.36217764880294845
20,0.6451612903225807,0.3619856270250241
21,0.6774193548387097,0.36047724652822055
22,0.7096774193548387,0.35857507467289446
23,0.7419354838709677,0.3574684623267383
24,0.7741935483870968,0.35785895361139014
25,0.8064516129032259,0.35949835600244906
26,0.8387096774193549,0.36135298019594797
27,0.8709677419354839,0.3622755783765872
28,0.9032258064516129,0.3617070649125593
29,0.935483870967742,0.3599909213346917
30,0.967741935483871,0.35818266124146464
31,1.0,0.35741807371089424
