,Phase,diffMag
0,0.0,0.24895441633355128
1,0.03225806451612903,0.2458632380686482
2,0.06451612903225806,0.23686380272037966
3,0.0967741935483871,0.2227394432720107
4,0.12903225806451613,0.2047180802404545
5,0.16129032258064518,0.18440349939620407
6,0.1935483870967742,0.16357910054197447
7,0.22580645161290322,0.14384730851334185
8,0.25806451612903225,0.12631357969755302
9,0.2903225806451613,0.11150577198661268
10,0.32258064516129037,0.09949868366406574
11,0.3548387096774194,0.09010593182000058
12,0.3870967741935484,0.08304089728619764
13,0.41935483870967744,0.07801780655719749
14,0.45161290322580644,0.07480301564787487
15,0.4838709677419355,0.07323604281718629
16,0.5161290322580645,0.07323604281718629
17,0.5483870967741935,0.07480301564787487
18,0.5806451612903226,0.07801780655719748
19,0.6129032258064516,0.08304089728619757
20,0.6451612903225807,0.09010593182000061
21,0.6774193548387097,0.0994986836640657
22,0.7096774193548387,0.11150577198661261
23,0.7419354838709677,0.12631357969755289
24,0.7741935483870968,0.14384730851334174
25,0.8064516129032259,0.16357910054197447
26,0.8387096774193549,0.18440349939620398
27,0.8709677419354839,0.20471808024045443
28,0.9032258064516129,0.2227394432720107
29,0.935483870967742,0.23686380272037966
30,0.967741935483871,0.24586323806864824
31,1.0,0.24895441633355134
