,Phase,diffMag
0,0.0,0.39211871006131566
1,0.03225806451612903,0.3871485436402732
2,0.06451612903225806,0.37257873587019785
3,0.0967741935483871,0.34967108077964454
4,0.12903225806451613,0.32204515752683716
5,0.16129032258064518,0.29396242226142544
6,0.1935483870967742,0.26481947085952917
7,0.22580645161290322,0.23553168528788637
8,0.25806451612903225,0.20774168707793073
9,0.2903225806451613,0.18235237551508734
10,0.32258064516129037,0.15972354075835604
11,0.3548387096774194,0.14065134804670346
12,0.3870967741935484,0.12811906649279667
13,0.41935483870967744,0.12263304841273424
14,0.45161290322580644,0.1201413195634318
15,0.4838709677419355,0.11904329018207109
16,0.5161290322580645,0.11904329018207106
17,0.5483870967741935,0.12014131956343181
18,0.5806451612903226,0.12263304841273424
19,0.6129032258064516,0.1281190664927966
20,0.6451612903225807,0.14065134804670348
21,0.6774193548387097,0.15972354075835588
22,0.7096774193548387,0.18235237551508732
23,0.7419354838709677,0.2077416870779307
24,0.7741935483870968,0.23553168528788615
25,0.8064516129032259,0.26481947085952906
26,0.8387096774193549,0.2939624222614256
27,0.8709677419354839,0.32204515752683704
28,0.9032258064516129,0.3496710807796443
29,0.935483870967742,0.3725787358701977
30,0.967741935483871,0.3871485436402732
31,1.0,0.3921187100613157
