,Phase,diffMag
0,0.0,0.36343626538027185
1,0.03225806451612903,0.369876553041544
2,0.06451612903225806,0.3601261877922983
3,0.0967741935483871,0.33613246504195277
4,0.12903225806451613,0.30203360590419553
5,0.16129032258064518,0.26303001503793283
6,0.1935483870967742,0.22395549254400637
7,0.22580645161290322,0.1884963264206093
8,0.25806451612903225,0.1587683389339103
9,0.2903225806451613,0.1359325355896906
10,0.32258064516129037,0.12030943792363001
11,0.3548387096774194,0.11089778948702621
12,0.3870967741935484,0.10568199024947378
13,0.41935483870967744,0.10251506925066528
14,0.45161290322580644,0.09992844172010107
15,0.4838709677419355,0.0971254122091222
16,0.5161290322580645,0.09375098345998582
17,0.5483870967741935,0.08976784914532333
18,0.5806451612903226,0.08542292830502807
19,0.6129032258064516,0.08129904418812281
20,0.6451612903225807,0.07852340079748303
21,0.6774193548387097,0.07892955276484574
22,0.7096774193548387,0.08466154177760289
23,0.7419354838709677,0.0976291024865815
24,0.7741935483870968,0.11881107040050493
25,0.8064516129032259,0.1478824458876572
26,0.8387096774193549,0.18352024649043172
27,0.8709677419354839,0.22396713130874
28,0.9032258064516129,0.2666704737758803
29,0.935483870967742,0.3075331132167916
30,0.967741935483871,0.3414917149248565
31,1.0,0.36343626538027185
