,Phase,diffMag
0,0.0,0.38922101723960795
1,0.03225806451612903,0.39230955561859915
2,0.06451612903225806,0.37599540219345584
3,0.0967741935483871,0.3439056305046039
4,0.12903225806451613,0.30194667087648064
5,0.16129032258064518,0.25734072161959676
6,0.1935483870967742,0.21795530014333256
7,0.22580645161290322,0.1912674396061794
8,0.25806451612903225,0.17974996715629527
9,0.2903225806451613,0.17996346278601255
10,0.32258064516129037,0.18543696626441442
11,0.3548387096774194,0.19210703887046404
12,0.3870967741935484,0.19770630074047638
13,0.41935483870967744,0.2008554113945184
14,0.45161290322580644,0.20098537687820442
15,0.4838709677419355,0.19810079450935292
16,0.5161290322580645,0.19245303355424334
17,0.5483870967741935,0.18428578117300817
18,0.5806451612903226,0.17374574775492493
19,0.6129032258064516,0.16097788740988553
20,0.6451612903225807,0.14642710107057075
21,0.6774193548387097,0.13129160944619844
22,0.7096774193548387,0.117885531702304
23,0.7419354838709677,0.11046178687740474
24,0.7741935483870968,0.11565799167270263
25,0.8064516129032259,0.1375669961229397
26,0.8387096774193549,0.17522672404124418
27,0.8709677419354839,0.22373170111564236
28,0.9032258064516129,0.2767128361168817
29,0.935483870967742,0.3266652762053163
30,0.967741935483871,0.3662368537638723
31,1.0,0.38922101723960795
