,Phase,diffMag
0,0.0,0.24242693056129316
1,0.03225806451612903,0.24944632285758384
2,0.06451612903225806,0.2500193610586005
3,0.0967741935483871,0.24410239342789425
4,0.12903225806451613,0.2321562752308165
5,0.16129032258064518,0.21519021984399833
6,0.1935483870967742,0.19480678779652813
7,0.22580645161290322,0.17303897032715596
8,0.25806451612903225,0.15187512190330835
9,0.2903225806451613,0.1327628075751772
10,0.32258064516129037,0.11643570848838025
11,0.3548387096774194,0.10305507111046648
12,0.3870967741935484,0.09245093059028606
13,0.41935483870967744,0.08431844668424271
14,0.45161290322580644,0.078337700533706
15,0.4838709677419355,0.07423419881761319
16,0.5161290322580645,0.07180402743824615
17,0.5483870967741935,0.07092153664966176
18,0.5806451612903226,0.07154032700841213
19,0.6129032258064516,0.0736929734827074
20,0.6451612903225807,0.07749125371047394
21,0.6774193548387097,0.0831256544198768
22,0.7096774193548387,0.09085945815401898
23,0.7419354838709677,0.10100771894185855
24,0.7741935483870968,0.11388455902793064
25,0.8064516129032259,0.12969550118669626
26,0.8387096774193549,0.1483544577929046
27,0.8709677419354839,0.1692437412183497
28,0.9032258064516129,0.19103927420719793
29,0.935483870967742,0.21181771979824332
30,0.967741935483871,0.22951332697076854
31,1.0,0.24242693056129316
