,Phase,diffMag
0,0.0,0.15040652343258232
1,0.03225806451612903,0.15176750712310824
2,0.06451612903225806,0.14970851385632056
3,0.0967741935483871,0.14532385507724493
4,0.12903225806451613,0.14008241356200024
5,0.16129032258064518,0.13561789150273146
6,0.1935483870967742,0.13354419485848368
7,0.22580645161290322,0.1347103745241142
8,0.25806451612903225,0.13836682036381232
9,0.2903225806451613,0.14327483308021244
10,0.32258064516129037,0.14852889484606066
11,0.3548387096774194,0.1534503252121188
12,0.3870967741935484,0.1574389349292586
13,0.41935483870967744,0.15993089812674446
14,0.45161290322580644,0.16060311746592498
15,0.4838709677419355,0.15942018926238563
16,0.5161290322580645,0.15653002619580572
17,0.5483870967741935,0.152128875121637
18,0.5806451612903226,0.1463819355521495
19,0.6129032258064516,0.13943605805034137
20,0.6451612903225807,0.13153643286634745
21,0.6774193548387097,0.12317294551201975
22,0.7096774193548387,0.11506798258847585
23,0.7419354838709677,0.10819563847916126
24,0.7741935483870968,0.10384122409368755
25,0.8064516129032259,0.1034271767780657
26,0.8387096774193549,0.10770297561821175
27,0.8709677419354839,0.11583194725770775
28,0.9032258064516129,0.1261246695551097
29,0.935483870967742,0.1365760539132147
30,0.967741935483871,0.14517425095476796
31,1.0,0.15040652343258237
