,Phase,diffMag
0,0.0,0.2732830473503836
1,0.03225806451612903,0.2769680821403119
2,0.06451612903225806,0.26398901348547626
3,0.0967741935483871,0.2377296604407535
4,0.12903225806451613,0.20552770498248868
5,0.16129032258064518,0.1743592656170959
6,0.1935483870967742,0.14894066714569187
7,0.22580645161290322,0.134580452272035
8,0.25806451612903225,0.1332693472731013
9,0.2903225806451613,0.1412780910608321
10,0.32258064516129037,0.15218248006855808
11,0.3548387096774194,0.1623576857055804
12,0.3870967741935484,0.16999823964306573
13,0.41935483870967744,0.17431772867778253
14,0.45161290322580644,0.17530069603160378
15,0.4838709677419355,0.1733157954960304
16,0.5161290322580645,0.16875801706218566
17,0.5483870967741935,0.16189034648633835
18,0.5806451612903226,0.15281858507087207
19,0.6129032258064516,0.14155676776939807
20,0.6451612903225807,0.12822974421578592
21,0.6774193548387097,0.11347387543393611
22,0.7096774193548387,0.09883984476243758
23,0.7419354838709677,0.08743370556111962
24,0.7741935483870968,0.08507395330767153
25,0.8064516129032259,0.09613899486201202
26,0.8387096774193549,0.1202123725531536
27,0.8709677419354839,0.15283248431906477
28,0.9032258064516129,0.18872099654477426
29,0.935483870967742,0.2234696654532513
30,0.967741935483871,0.25368363289611157
31,1.0,0.2732830473503836
