,Phase,diffMag
0,0.0,0.381591913791673
1,0.03225806451612903,0.38516261244562494
2,0.06451612903225806,0.3688054338604483
3,0.0967741935483871,0.33526129837315616
4,0.12903225806451613,0.29001657793491065
5,0.16129032258064518,0.2401611954966569
6,0.1935483870967742,0.19334186013428026
7,0.22580645161290322,0.15670084951404073
8,0.25806451612903225,0.13542019771615513
9,0.2903225806451613,0.12976632601098542
10,0.32258064516129037,0.13464175570904696
11,0.3548387096774194,0.1429325373928683
12,0.3870967741935484,0.15057689372689131
13,0.41935483870967744,0.15568963712133785
14,0.45161290322580644,0.15758280928990048
15,0.4838709677419355,0.15623880250379837
16,0.5161290322580645,0.1518694333190828
17,0.5483870967741935,0.144712398852942
18,0.5806451612903226,0.13498252779139452
19,0.6129032258064516,0.12299016877292121
20,0.6451612903225807,0.10945085144848465
21,0.6774193548387097,0.09599263050404225
22,0.7096774193548387,0.08602900334776996
23,0.7419354838709677,0.0856306102448531
24,0.7741935483870968,0.09966789919429576
25,0.8064516129032259,0.12880348541466718
26,0.8387096774193549,0.16995754727426662
27,0.8709677419354839,0.21889013155174267
28,0.9032258064516129,0.27068635328827917
29,0.935483870967742,0.3194692372123545
30,0.967741935483871,0.35847553946482424
31,1.0,0.38159191379167295
