,Phase,diffMag
0,0.0,0.20993960909406276
1,0.03225806451612903,0.21370375520361476
2,0.06451612903225806,0.21747578969342773
3,0.0967741935483871,0.2211938092307433
4,0.12903225806451613,0.22437993472845352
5,0.16129032258064518,0.22642664074312413
6,0.1935483870967742,0.22684262514850226
7,0.22580645161290322,0.22548880579602745
8,0.25806451612903225,0.2227636603173051
9,0.2903225806451613,0.21945173409639968
10,0.32258064516129037,0.2162394733775592
11,0.3548387096774194,0.2133629431740142
12,0.3870967741935484,0.21064592190291886
13,0.41935483870967744,0.20775086869776022
14,0.45161290322580644,0.20446029290762419
15,0.4838709677419355,0.2008149561649082
16,0.5161290322580645,0.19703573829449803
17,0.5483870967741935,0.193348184637584
18,0.5806451612903226,0.18985946263873646
19,0.6129032258064516,0.18655718547795538
20,0.6451612903225807,0.18341337838194177
21,0.6774193548387097,0.18052305904594595
22,0.7096774193548387,0.17818873044619016
23,0.7419354838709677,0.1769088535131933
24,0.7741935483870968,0.17722014690771357
25,0.8064516129032259,0.17946006256776054
26,0.8387096774193549,0.18358425671978687
27,0.8709677419354839,0.18909608011930448
28,0.9032258064516129,0.19515102953147098
29,0.935483870967742,0.20088827051246455
30,0.967741935483871,0.20580837211565625
31,1.0,0.2099396090940627
