,Phase,diffMag
0,0.0,0.25026910225466814
1,0.03225806451612903,0.25749895399904965
2,0.06451612903225806,0.25809103764347063
3,0.0967741935483871,0.25199129441442236
4,0.12903225806451613,0.23974716673350502
5,0.16129032258064518,0.22242577327381408
6,0.1935483870967742,0.2015576612318294
7,0.22580645161290322,0.17905491377271265
8,0.25806451612903225,0.15689636895658632
9,0.2903225806451613,0.13666308098344734
10,0.32258064516129037,0.11926390513152192
11,0.3548387096774194,0.10497911327996802
12,0.3870967741935484,0.09367825380307249
13,0.41935483870967744,0.08504262192259487
14,0.45161290322580644,0.07871759674636171
15,0.4838709677419355,0.07439352120482473
16,0.5161290322580645,0.071839498139927
17,0.5483870967741935,0.07091336179372286
18,0.5806451612903226,0.07156267994575027
19,0.6129032258064516,0.0738242583288914
20,0.6451612903225807,0.07782453496805523
21,0.6774193548387097,0.08377920983617623
22,0.7096774193548387,0.09198567342958724
23,0.7419354838709677,0.10279483890893953
24,0.7741935483870968,0.11654043062173855
25,0.8064516129032259,0.13340031034330954
26,0.8387096774193549,0.15318362075524936
27,0.8709677419354839,0.17510215186052486
28,0.9032258064516129,0.19768204197403547
29,0.935483870967742,0.21898161025954377
30,0.967741935483871,0.23704647864348488
31,1.0,0.25026910225466803
