,Phase,diffMag
0,0.0,0.3027523892391953
1,0.03225806451612903,0.3093447253682076
2,0.06451612903225806,0.3098601734468206
3,0.0967741935483871,0.30437120974818865
4,0.12903225806451613,0.2922668564660443
5,0.16129032258064518,0.273145225291975
6,0.1935483870967742,0.24776957639717495
7,0.22580645161290322,0.2181645518762803
8,0.25806451612903225,0.18728754463355338
9,0.2903225806451613,0.1583431789633446
10,0.32258064516129037,0.13361599600656401
11,0.3548387096774194,0.11389571759785735
12,0.3870967741935484,0.09887730052875077
13,0.41935483870967744,0.08782122856702666
14,0.45161290322580644,0.0799747714685819
15,0.4838709677419355,0.07473722970563638
16,0.5161290322580645,0.07169258804974254
17,0.5483870967741935,0.07059755099163229
18,0.5806451612903226,0.07136478359519369
19,0.6129032258064516,0.07405545869998932
20,0.6451612903225807,0.07888455058408267
21,0.6774193548387097,0.0862365532986958
22,0.7096774193548387,0.09668015075165971
23,0.7419354838709677,0.11094809722958175
24,0.7741935483870968,0.12980396524685137
25,0.8064516129032259,0.1536726066384071
26,0.8387096774193549,0.18200280503476535
27,0.8709677419354839,0.21276221513749283
28,0.9032258064516129,0.24282301460988154
29,0.935483870967742,0.26911542508302344
30,0.967741935483871,0.28942514176157486
31,1.0,0.3027523892391953
