,Phase,diffMag
0,0.0,0.28435139462728015
1,0.03225806451612903,0.2840759249894965
2,0.06451612903225806,0.2840504819808203
3,0.0967741935483871,0.2842915368291592
4,0.12903225806451613,0.284644549526913
5,0.16129032258064518,0.28488966296110624
6,0.1935483870967742,0.2848791154634022
7,0.22580645161290322,0.2846191780571559
8,0.25806451612903225,0.28426687238991777
9,0.2903225806451613,0.2840421785547528
10,0.32258064516129037,0.2840893659862517
11,0.3548387096774194,0.2843778935655345
12,0.3870967741935484,0.28472386396288785
13,0.41935483870967744,0.28491366464164763
14,0.45161290322580644,0.284833564187118
15,0.4838709677419355,0.28453124817804604
16,0.5161290322580645,0.28419072122364275
17,0.5483870967741935,0.28402636852181845
18,0.5806451612903226,0.2841441580752889
19,0.6129032258064516,0.2844679851167869
20,0.6451612903225807,0.28479287884366694
21,0.6774193548387097,0.2849199534239741
22,0.7096774193548387,0.2847734026573686
23,0.7419354838709677,0.2844407526704809
24,0.7741935483870968,0.28412615622680076
25,0.8064516129032259,0.28402917672752565
26,0.8387096774193549,0.28421251587895313
27,0.8709677419354839,0.2845580952354727
28,0.9032258064516129,0.28484887402330716
29,0.935483870967742,0.2849082873553016
30,0.967741935483871,0.2847009862637422
31,1.0,0.28435139462728015
