,Phase,diffMag
0,0.0,0.4343613091927365
1,0.03225806451612903,0.43711420441058046
2,0.06451612903225806,0.437303007261722
3,0.0967741935483871,0.43509188604637095
4,0.12903225806451613,0.4289041761023541
5,0.16129032258064518,0.41643610310193213
6,0.1935483870967742,0.39639720952208735
7,0.22580645161290322,0.36973858631993045
8,0.25806451612903225,0.3396225230861091
9,0.2903225806451613,0.3101238703026616
10,0.32258064516129037,0.28447734330722724
11,0.3548387096774194,0.2640909269289956
12,0.3870967741935484,0.24845160919844436
13,0.41935483870967744,0.23580157903622848
14,0.45161290322580644,0.22464971208152495
15,0.4838709677419355,0.2150463319166153
16,0.5161290322580645,0.20826482646233435
17,0.5483870967741935,0.20556729555178452
18,0.5806451612903226,0.2074723990415799
19,0.6129032258064516,0.2136143769615058
20,0.6451612903225807,0.22283135404984156
21,0.6774193548387097,0.23376443530788543
22,0.7096774193548387,0.2460789359285223
23,0.7419354838709677,0.2610531656392519
24,0.7741935483870968,0.2805232486701685
25,0.8064516129032259,0.30529440240035344
26,0.8387096774193549,0.3343077298691504
27,0.8709677419354839,0.36460673374272007
28,0.9032258064516129,0.39214704076406204
29,0.935483870967742,0.4134828244789787
30,0.967741935483871,0.4272359445897031
31,1.0,0.4343613091927365
