,Phase,diffMag
0,0.0,0.22816204369202683
1,0.03225806451612903,0.23354263499129896
2,0.06451612903225806,0.2339541147026899
3,0.0967741935483871,0.22950040671362426
4,0.12903225806451613,0.21934362039618438
5,0.16129032258064518,0.20321498767272392
6,0.1935483870967742,0.18287785307356572
7,0.22580645161290322,0.1614290692584242
8,0.25806451612903225,0.14143837936398929
9,0.2903225806451613,0.12415928592390411
10,0.32258064516129037,0.10985890009702991
11,0.3548387096774194,0.09834085599803451
12,0.3870967741935484,0.08926724740534132
13,0.41935483870967744,0.08230031825599173
14,0.45161290322580644,0.0771528399851966
15,0.4838709677419355,0.07360177798239441
16,0.5161290322580645,0.07148926261576538
17,0.5483870967741935,0.07072013543453634
18,0.5806451612903226,0.0712595527965711
19,0.6129032258064516,0.07313196228288706
20,0.6451612903225807,0.07642182864758873
21,0.6774193548387097,0.0812758500751149
22,0.7096774193548387,0.08790556467068229
23,0.7419354838709677,0.09658740795413441
24,0.7741935483870968,0.10765241207439125
25,0.8064516129032259,0.12144509368577021
26,0.8387096774193549,0.13820348570174634
27,0.8709677419354839,0.1577750731430303
28,0.9032258064516129,0.17911838009505796
29,0.935483870967742,0.19988036887887464
30,0.967741935483871,0.21693282883542112
31,1.0,0.2281620436920268
