,Phase,diffMag
0,0.0,0.4203749334531215
1,0.03225806451612903,0.4248681949527951
2,0.06451612903225806,0.4062854164426431
3,0.0967741935483871,0.3684901493175768
4,0.12903225806451613,0.31946546512670737
5,0.16129032258064518,0.2672037152132551
6,0.1935483870967742,0.21901371320838486
7,0.22580645161290322,0.1828934602613749
8,0.25806451612903225,0.1623951265420395
9,0.2903225806451613,0.1564700955603577
10,0.32258064516129037,0.16003157801052686
11,0.3548387096774194,0.16648809715164617
12,0.3870967741935484,0.17241721648721064
13,0.41935483870967744,0.17615204978866525
14,0.45161290322580644,0.17699177790365087
15,0.4838709677419355,0.17480181560592775
16,0.5161290322580645,0.16969396140844906
17,0.5483870967741935,0.1618601316039403
18,0.5806451612903226,0.15150139435960397
19,0.6129032258064516,0.138918368642351
20,0.6451612903225807,0.12478810162221406
21,0.6774193548387097,0.1106921990724692
22,0.7096774193548387,0.10004923722355673
23,0.7419354838709677,0.09928897868798647
24,0.7741935483870968,0.11368879369772966
25,0.8064516129032259,0.14381592376483213
26,0.8387096774193549,0.18637095463305373
27,0.8709677419354839,0.23818770149688334
28,0.9032258064516129,0.2949123460718664
29,0.935483870967742,0.34887513322725916
30,0.967741935483871,0.3932314019731958
31,1.0,0.4203749334531213
