,Phase,diffMag
0,0.0,0.1643232130891545
1,0.03225806451612903,0.16628826243134723
2,0.06451612903225806,0.16644861614237863
3,0.0967741935483871,0.1647924464725166
4,0.12903225806451613,0.16144125593522782
5,0.16129032258064518,0.1566367333845136
6,0.1935483870967742,0.15071590574843333
7,0.22580645161290322,0.14407604517753755
8,0.25806451612903225,0.13713019031947737
9,0.2903225806451613,0.13026028144882537
10,0.32258064516129037,0.12378097702831235
11,0.3548387096774194,0.11792359591205842
12,0.3870967741935484,0.11283968888144941
13,0.41935483870967744,0.10861687463431292
14,0.45161290322580644,0.10529865393266187
15,0.4838709677419355,0.10290234969479997
16,0.5161290322580645,0.10143239837193686
17,0.5483870967741935,0.10088862802509439
18,0.5806451612903226,0.10127048246071901
19,0.6129032258064516,0.10257837858233973
20,0.6451612903225807,0.10481276571296164
21,0.6774193548387097,0.10797047982107401
22,0.7096774193548387,0.11203726356873903
23,0.7419354838709677,0.11697537770916018
24,0.7741935483870968,0.12270635449841509
25,0.8064516129032259,0.12909117845259996
26,0.8387096774193549,0.13591320112364158
27,0.8709677419354839,0.14287179844840772
28,0.9032258064516129,0.14959468603019246
29,0.935483870967742,0.15567100623605218
30,0.967741935483871,0.16069731164735926
31,1.0,0.1643232130891545
