,Phase,diffMag
0,0.0,0.43195983949942596
1,0.03225806451612903,0.4286369577281281
2,0.06451612903225806,0.4280646993233084
3,0.0967741935483871,0.4306516817034096
4,0.12903225806451613,0.4348074210290393
5,0.16129032258064518,0.4378786416055832
6,0.1935483870967742,0.4379482329089576
7,0.22580645161290322,0.4350474862786333
8,0.25806451612903225,0.43096565723374397
9,0.2903225806451613,0.42818491565081207
10,0.32258064516129037,0.42844576030384957
11,0.3548387096774194,0.4316415793596491
12,0.3870967741935484,0.4357785448855708
13,0.41935483870967744,0.43821259325778217
14,0.45161290322580644,0.43745547418404224
15,0.4838709677419355,0.4340421960233726
16,0.5161290322580645,0.4300566245672028
17,0.5483870967741935,0.42793273763172923
18,0.5806451612903226,0.42902036741320093
19,0.6129032258064516,0.43269400560059196
20,0.6451612903225807,0.4366368017443885
21,0.6774193548387097,0.43833621902518277
22,0.7096774193548387,0.43678877351095224
23,0.7419354838709677,0.43299918223554673
24,0.7741935483870968,0.4292696322238137
25,0.8064516129032259,0.42789172517147467
26,0.8387096774193549,0.42976575238215714
27,0.8709677419354839,0.4337644580566619
28,0.9032258064516129,0.4373464484355888
29,0.935483870967742,0.4382462998903623
30,0.967741935483871,0.4359752710315288
31,1.0,0.43195983949942596
