,Phase,diffMag
0,0.0,0.3317527039145918
1,0.03225806451612903,0.3499884939591425
2,0.06451612903225806,0.34640575041376054
3,0.0967741935483871,0.32337219867097144
4,0.12903225806451613,0.28772198897393936
5,0.16129032258064518,0.24715267663004947
6,0.1935483870967742,0.2060752693317396
7,0.22580645161290322,0.16838198637464175
8,0.25806451612903225,0.1405691371331966
9,0.2903225806451613,0.1267432723224018
10,0.32258064516129037,0.12458382476454548
11,0.3548387096774194,0.1277317167203494
12,0.3870967741935484,0.13151963613457934
13,0.41935483870967744,0.13339260917594054
14,0.45161290322580644,0.1322989018617944
15,0.4838709677419355,0.12823499731518584
16,0.5161290322580645,0.12158918910817189
17,0.5483870967741935,0.11277800052634304
18,0.5806451612903226,0.10215525226194078
19,0.6129032258064516,0.09011652435566414
20,0.6451612903225807,0.07734581347834203
21,0.6774193548387097,0.06520188279250481
22,0.7096774193548387,0.05640697762046368
23,0.7419354838709677,0.0556597340420248
24,0.7741935483870968,0.06661195468023497
25,0.8064516129032259,0.08975635468833541
26,0.8387096774193549,0.12304538566541484
27,0.8709677419354839,0.16373018383507956
28,0.9032258064516129,0.20853536637149545
29,0.935483870967742,0.25387734657201877
30,0.967741935483871,0.2967162403636451
31,1.0,0.3317527039145917
