,Phase,diffMag
0,0.0,0.2543637057654403
1,0.03225806451612903,0.2729599571426437
2,0.06451612903225806,0.2844966895382199
3,0.0967741935483871,0.2879036799943082
4,0.12903225806451613,0.2828341477924749
5,0.16129032258064518,0.2697979303115468
6,0.1935483870967742,0.2499779512182762
7,0.22580645161290322,0.22508558179496235
8,0.25806451612903225,0.19747228645871587
9,0.2903225806451613,0.1699080352201617
10,0.32258064516129037,0.14477205956690284
11,0.3548387096774194,0.1234167934910573
12,0.3870967741935484,0.10618264615221752
13,0.41935483870967744,0.09278075627416422
14,0.45161290322580644,0.08267122218032995
15,0.4838709677419355,0.07529829821437231
16,0.5161290322580645,0.0701973645545954
17,0.5483870967741935,0.06702743580148574
18,0.5806451612903226,0.06557175442903798
19,0.6129032258064516,0.06573008641768731
20,0.6451612903225807,0.06751334724555882
21,0.6774193548387097,0.07104423845592757
22,0.7096774193548387,0.07656353233440637
23,0.7419354838709677,0.08443728637396525
24,0.7741935483870968,0.0951523508786311
25,0.8064516129032259,0.10927313466700056
26,0.8387096774193549,0.127313403301094
27,0.8709677419354839,0.14947111430796203
28,0.9032258064516129,0.17523097003634092
29,0.935483870967742,0.20301896445293952
30,0.967741935483871,0.23030980828797942
31,1.0,0.2543637057654403
