,Phase,diffMag
0,0.0,0.18137108820302392
1,0.03225806451612903,0.19787581886360683
2,0.06451612903225806,0.20543705902480544
3,0.0967741935483871,0.20528717196754961
4,0.12903225806451613,0.20140721825898075
5,0.16129032258064518,0.19774930710621164
6,0.1935483870967742,0.19505193187558992
7,0.22580645161290322,0.19149050194252193
8,0.25806451612903225,0.18622460113452494
9,0.2903225806451613,0.18021772711886389
10,0.32258064516129037,0.17444832055456552
11,0.3548387096774194,0.16902672762515797
12,0.3870967741935484,0.16351901927159518
13,0.41935483870967744,0.15752039189785136
14,0.45161290322580644,0.15090838792900585
15,0.4838709677419355,0.14379207850838907
16,0.5161290322580645,0.13635727568582698
17,0.5483870967741935,0.128755966692878
18,0.5806451612903226,0.12107205725183964
19,0.6129032258064516,0.11333972239631264
20,0.6451612903225807,0.1055987769632372
21,0.6774193548387097,0.09798265177114668
22,0.7096774193548387,0.09080864090133281
23,0.7419354838709677,0.08465169682647239
24,0.7741935483870968,0.08060821277818471
25,0.8064516129032259,0.08042791804983827
26,0.8387096774193549,0.08589317318660164
27,0.8709677419354839,0.09761002181039431
28,0.9032258064516129,0.11490161989644243
29,0.935483870967742,0.1360891525211736
30,0.967741935483871,0.15918064313335337
31,1.0,0.18137108820302386
