,Phase,diffMag
0,0.0,0.22093276553403593
1,0.03225806451612903,0.22136720097474868
2,0.06451612903225806,0.22129561034785297
3,0.0967741935483871,0.22067617019409164
4,0.12903225806451613,0.21992702445694537
5,0.16129032258064518,0.21963620413136292
6,0.1935483870967742,0.2199597315413948
7,0.22580645161290322,0.220503981800304
8,0.25806451612903225,0.22106841147441234
9,0.2903225806451613,0.22140757012006373
10,0.32258064516129037,0.2211821065811375
11,0.3548387096774194,0.22047775281413196
12,0.3870967741935484,0.21979207813457619
13,0.41935483870967744,0.21967128357955723
14,0.45161290322580644,0.22008916692808575
15,0.4838709677419355,0.22064678293436155
16,0.5161290322580645,0.2211909694627474
17,0.5483870967741935,0.22140994330395097
18,0.5806451612903226,0.2210366002238426
19,0.6129032258064516,0.22027987240415844
20,0.6451612903225807,0.21969589412992876
21,0.6774193548387097,0.21974255355843134
22,0.7096774193548387,0.22022458956618765
23,0.7419354838709677,0.22079061399393823
24,0.7741935483870968,0.22129298258103425
25,0.8064516129032259,0.22137245825409885
26,0.8387096774193549,0.22086539429109528
27,0.8709677419354839,0.22009283893054368
28,0.9032258064516129,0.21964350344431394
29,0.935483870967742,0.21984164583036742
30,0.967741935483871,0.22036316837559766
31,1.0,0.22093276553403593
