,Phase,diffMag
0,0.0,0.19428941038696063
1,0.03225806451612903,0.19898060165904422
2,0.06451612903225806,0.1989878817420307
3,0.0967741935483871,0.1942659594984914
4,0.12903225806451613,0.1851561671089482
5,0.16129032258064518,0.1723661904898749
6,0.1935483870967742,0.15694164418083612
7,0.22580645161290322,0.1401143174136284
8,0.25806451612903225,0.12307488847895166
9,0.2903225806451613,0.1068462318097331
10,0.32258064516129037,0.09226453221637675
11,0.3548387096774194,0.07990845237865747
12,0.3870967741935484,0.0700076981970907
13,0.41935483870967744,0.06247226249032614
14,0.45161290322580644,0.057079155284137706
15,0.4838709677419355,0.053589427490772466
16,0.5161290322580645,0.05180307440525612
17,0.5483870967741935,0.05160513185657937
18,0.5806451612903226,0.052973293088351664
19,0.6129032258064516,0.05595776304909825
20,0.6451612903225807,0.06065848580936251
21,0.6774193548387097,0.06720129310762685
22,0.7096774193548387,0.07565161921522699
23,0.7419354838709677,0.08600914690690575
24,0.7741935483870968,0.09820978129127664
25,0.8064516129032259,0.11207453083419966
26,0.8387096774193549,0.12722574774577755
27,0.8709677419354839,0.14305073032412527
28,0.9032258064516129,0.15870294687880876
29,0.935483870967742,0.17317846200100548
30,0.967741935483871,0.1853969188045509
31,1.0,0.1942894103869606
