,Phase,diffMag
0,0.0,0.16478016054898595
1,0.03225806451612903,0.16838626164662066
2,0.06451612903225806,0.16608686350223756
3,0.0967741935483871,0.1583807589827943
4,0.12903225806451613,0.14627457453853615
5,0.16129032258064518,0.1310824410384839
6,0.1935483870967742,0.1145360376927294
7,0.22580645161290322,0.0986495668344415
8,0.25806451612903225,0.08522486161727393
9,0.2903225806451613,0.07550369033483215
10,0.32258064516129037,0.0697547164131471
11,0.3548387096774194,0.06730862106148923
12,0.3870967741935484,0.06707205770981822
13,0.41935483870967744,0.06748425874214052
14,0.45161290322580644,0.06739981603105324
15,0.4838709677419355,0.06625035693127777
16,0.5161290322580645,0.06388161648578418
17,0.5483870967741935,0.06040969824105152
18,0.5806451612903226,0.05614512950086995
19,0.6129032258064516,0.05166682709764742
20,0.6451612903225807,0.04791123578042757
21,0.6774193548387097,0.04619345257888239
22,0.7096774193548387,0.04754384208479692
23,0.7419354838709677,0.052797531903616274
24,0.7741935483870968,0.062125994209717185
25,0.8064516129032259,0.07502034816080679
26,0.8387096774193549,0.09063868290073959
27,0.8709677419354839,0.10790098919473555
28,0.9032258064516129,0.1254718560129648
29,0.935483870967742,0.14190921664935233
30,0.967741935483871,0.15555864193894808
31,1.0,0.16478016054898595
