,Phase,diffMag
0,0.0,0.11462755786040961
1,0.03225806451612903,0.11969432142221656
2,0.06451612903225806,0.12524587095211906
3,0.0967741935483871,0.13104234506464724
4,0.12903225806451613,0.13674580902202335
5,0.16129032258064518,0.14197441537835123
6,0.1935483870967742,0.14636405690828896
7,0.22580645161290322,0.1496196050102548
8,0.25806451612903225,0.1515780762752559
9,0.2903225806451613,0.1522485981686336
10,0.32258064516129037,0.15176856082858314
11,0.3548387096774194,0.15029942493044576
12,0.3870967741935484,0.14797745537078763
13,0.41935483870967744,0.14494918365663878
14,0.45161290322580644,0.1413913553062935
15,0.4838709677419355,0.13748766849668764
16,0.5161290322580645,0.1334009269199762
17,0.5483870967741935,0.12925931302860125
18,0.5806451612903226,0.12515523801685172
19,0.6129032258064516,0.12115197681075963
20,0.6451612903225807,0.11729574559717985
21,0.6774193548387097,0.1136336194855642
22,0.7096774193548387,0.11023730526100019
23,0.7419354838709677,0.10722334178699977
24,0.7741935483870968,0.10475321593545842
25,0.8064516129032259,0.10301940682311662
26,0.8387096774193549,0.10221762462351928
27,0.8709677419354839,0.10250744884232607
28,0.9032258064516129,0.10397492240263198
29,0.935483870967742,0.10659131601901006
30,0.967741935483871,0.11020655109856206
31,1.0,0.11462755786040961
