,Phase,diffMag
0,0.0,0.3193771491778505
1,0.03225806451612903,0.33727822868813256
2,0.06451612903225806,0.34646250922270844
3,0.0967741935483871,0.34884521874636365
4,0.12903225806451613,0.34524352524939483
5,0.16129032258064518,0.3344813956735642
6,0.1935483870967742,0.31470854586781066
7,0.22580645161290322,0.2858322352462953
8,0.25806451612903225,0.24997543995798233
9,0.2903225806451613,0.2108011555524223
10,0.32258064516129037,0.17323677606024937
11,0.3548387096774194,0.1413697294031935
12,0.3870967741935484,0.11662083979283247
13,0.41935483870967744,0.09835758947714561
14,0.45161290322580644,0.08526117336255157
15,0.4838709677419355,0.07610168481106902
16,0.5161290322580645,0.0699604765603335
17,0.5483870967741935,0.06622433297713533
18,0.5806451612903226,0.06452908193861226
19,0.6129032258064516,0.06471285085254842
20,0.6451612903225807,0.06679307018248562
21,0.6774193548387097,0.0709690024634788
22,0.7096774193548387,0.07764972495853668
23,0.7419354838709677,0.08750466702560249
24,0.7741935483870968,0.1015172404592878
25,0.8064516129032259,0.12096487170122423
26,0.8387096774193549,0.14711540928638905
27,0.8709677419354839,0.18031090996979504
28,0.9032258064516129,0.2185857878320283
29,0.935483870967742,0.2574710755778073
30,0.967741935483871,0.2921884683365092
31,1.0,0.3193771491778504
