,Phase,diffMag
0,0.0,0.20357697355516632
1,0.03225806451612903,0.21033612249128242
2,0.06451612903225806,0.21448833051766403
3,0.0967741935483871,0.215707969761407
4,0.12903225806451613,0.2138920318890825
5,0.16129032258064518,0.2091924811804347
6,0.1935483870967742,0.2019707295170364
7,0.22580645161290322,0.1927410174412996
8,0.25806451612903225,0.1821608528745684
9,0.2903225806451613,0.17099081279246534
10,0.32258064516129037,0.15996376219512212
11,0.3548387096774194,0.14965627044832502
12,0.3870967741935484,0.1404454475159043
13,0.41935483870967744,0.13253387388142968
14,0.45161290322580644,0.12600030382157215
15,0.4838709677419355,0.12085094924597979
16,0.5161290322580645,0.11705982352187509
17,0.5483870967741935,0.11459498922655077
18,0.5806451612903226,0.11343220212824923
19,0.6129032258064516,0.11355966645311155
20,0.6451612903225807,0.11497867551214166
21,0.6774193548387097,0.11770360152459271
22,0.7096774193548387,0.12176080368185865
23,0.7419354838709677,0.12718248161695064
24,0.7741935483870968,0.1339907791609672
25,0.8064516129032259,0.14216876814282395
26,0.8387096774193549,0.1516174788479723
27,0.8709677419354839,0.16210348438413028
28,0.9032258064516129,0.17321072049002828
29,0.935483870967742,0.18432534443466328
30,0.967741935483871,0.19469685351854682
31,1.0,0.20357697355516632
