,Phase,diffMag
0,0.0,0.4529481421613059
1,0.03225806451612903,0.44895890562971047
2,0.06451612903225806,0.44010661000404183
3,0.0967741935483871,0.4320990285702128
4,0.12903225806451613,0.4287547034057084
5,0.16129032258064518,0.427593991804623
6,0.1935483870967742,0.43671301181392896
7,0.22580645161290322,0.44931921537497815
8,0.25806451612903225,0.452738016974844
9,0.2903225806451613,0.4470108309308127
10,0.32258064516129037,0.4377420180414043
11,0.3548387096774194,0.4309028145434362
12,0.3870967741935484,0.42826972955123094
13,0.41935483870967744,0.4284481772757064
14,0.45161290322580644,0.4402708777480711
15,0.4838709677419355,0.4512447312392392
16,0.5161290322580645,0.45192257576597483
17,0.5483870967741935,0.4448406549549883
18,0.5806451612903226,0.4355491863490272
19,0.6129032258064516,0.4300004158829546
20,0.6451612903225807,0.42783813638471196
21,0.6774193548387097,0.4304034821362899
22,0.7096774193548387,0.4436908376070602
23,0.7419354838709677,0.45246218573167224
24,0.7741935483870968,0.45062426548332113
25,0.8064516129032259,0.44251089048519465
26,0.8387096774193549,0.4336463906045293
27,0.8709677419354839,0.42931112661159926
28,0.9032258064516129,0.42753249354336764
29,0.935483870967742,0.4332982363186791
30,0.967741935483871,0.4467611650880616
31,1.0,0.4529481421613059
