,Phase,diffMag
0,0.0,0.2617166892592858
1,0.03225806451612903,0.2939604348301082
2,0.06451612903225806,0.31879636226325075
3,0.0967741935483871,0.334281819789861
4,0.12903225806451613,0.3386893334930694
5,0.16129032258064518,0.3313908594038582
6,0.1935483870967742,0.31338998036070437
7,0.22580645161290322,0.28651059557832154
8,0.25806451612903225,0.25278928393996714
9,0.2903225806451613,0.2154371966158009
10,0.32258064516129037,0.17894780513525133
11,0.3548387096774194,0.14702728707835272
12,0.3870967741935484,0.12123424967046846
13,0.41935483870967744,0.10141740226286247
14,0.45161290322580644,0.08665812184584436
15,0.4838709677419355,0.07591165017345118
16,0.5161290322580645,0.06828855801694173
17,0.5483870967741935,0.06312568839317671
18,0.5806451612903226,0.059972171266890105
19,0.6129032258064516,0.05855590084608957
20,0.6451612903225807,0.05875611083328057
21,0.6774193548387097,0.06058980835075057
22,0.7096774193548387,0.06421373034600088
23,0.7419354838709677,0.06994165172230417
24,0.7741935483870968,0.07827448412185199
25,0.8064516129032259,0.08993242282522884
26,0.8387096774193549,0.10585597124845889
27,0.8709677419354839,0.12709653133772017
28,0.9032258064516129,0.15445718442295986
29,0.935483870967742,0.18775252202738363
30,0.967741935483871,0.22487544054742928
31,1.0,0.2617166892592858
