,Phase,diffMag
0,0.0,0.2594573450569341
1,0.03225806451612903,0.27494565597124815
2,0.06451612903225806,0.2863961964704237
3,0.0967741935483871,0.29335418388726564
4,0.12903225806451613,0.29531186762499545
5,0.16129032258064518,0.2920648407794365
6,0.1935483870967742,0.28393562376520526
7,0.22580645161290322,0.2714334707160779
8,0.25806451612903225,0.25502792719970907
9,0.2903225806451613,0.23570614313946825
10,0.32258064516129037,0.21529662689959111
11,0.3548387096774194,0.195731907951701
12,0.3870967741935484,0.17828532076364959
13,0.41935483870967744,0.16346724950789562
14,0.45161290322580644,0.15130415006836298
15,0.4838709677419355,0.14163668070993934
16,0.5161290322580645,0.13427002480565672
17,0.5483870967741935,0.12900394409197338
18,0.5806451612903226,0.12565836473309547
19,0.6129032258064516,0.12411770647130994
20,0.6451612903225807,0.12433710667232122
21,0.6774193548387097,0.12632238281003097
22,0.7096774193548387,0.13013420375343632
23,0.7419354838709677,0.13590693254448247
24,0.7741935483870968,0.14383010798643775
25,0.8064516129032259,0.15410357215410023
26,0.8387096774193549,0.16691884071180832
27,0.8709677419354839,0.18240953807909674
28,0.9032258064516129,0.20045992504288385
29,0.935483870967742,0.2203875722479974
30,0.967741935483871,0.24071992098859044
31,1.0,0.2594573450569341
