,Phase,diffMag
0,0.0,0.186698358289336
1,0.03225806451612903,0.19937658624528598
2,0.06451612903225806,0.21082406430772455
3,0.0967741935483871,0.22174594778195933
4,0.12903225806451613,0.23220050080707957
5,0.16129032258064518,0.24140417414542542
6,0.1935483870967742,0.2481604787750511
7,0.22580645161290322,0.2512347394927947
8,0.25806451612903225,0.24961481713621284
9,0.2903225806451613,0.24317320894318467
10,0.32258064516129037,0.23329013369817006
11,0.3548387096774194,0.22215101334114068
12,0.3870967741935484,0.21131913239056246
13,0.41935483870967744,0.20118042272467018
14,0.45161290322580644,0.1914666203000844
15,0.4838709677419355,0.18195824542767125
16,0.5161290322580645,0.17270008185458413
17,0.5483870967741935,0.1639100685390739
18,0.5806451612903226,0.15582430669682612
19,0.6129032258064516,0.14858363874860145
20,0.6451612903225807,0.14223031911276948
21,0.6774193548387097,0.13677465219709056
22,0.7096774193548387,0.13226243474338736
23,0.7419354838709677,0.12884513318628943
24,0.7741935483870968,0.12687720915609008
25,0.8064516129032259,0.12693060541994852
26,0.8387096774193549,0.12969961922473294
27,0.8709677419354839,0.13581665203120882
28,0.9032258064516129,0.1455328879739609
29,0.935483870967742,0.15829145859535187
30,0.967741935483871,0.17262293622175565
31,1.0,0.18669835828933595
