,Phase,diffMag
0,0.0,0.16389645303275213
1,0.03225806451612903,0.17131652060695388
2,0.06451612903225806,0.17239562315300852
3,0.0967741935483871,0.16752865761361574
4,0.12903225806451613,0.15771199745799144
5,0.16129032258064518,0.14398340422599995
6,0.1935483870967742,0.1277615722318241
7,0.22580645161290322,0.11135333266587745
8,0.25806451612903225,0.09705761148844157
9,0.2903225806451613,0.0860594926504889
10,0.32258064516129037,0.07849793384146303
11,0.3548387096774194,0.07394960350303896
12,0.3870967741935484,0.07167067048162293
13,0.41935483870967744,0.07029358331735988
14,0.45161290322580644,0.06866847114965623
15,0.4838709677419355,0.06618188930065369
16,0.5161290322580645,0.06266152140269851
17,0.5483870967741935,0.05823274540686364
18,0.5806451612903226,0.05321367235383745
19,0.6129032258064516,0.048168736902675195
20,0.6451612903225807,0.04396530881425052
21,0.6774193548387097,0.04179761464501391
22,0.7096774193548387,0.042581378456203384
23,0.7419354838709677,0.04706445043935666
24,0.7741935483870968,0.05542804133253871
25,0.8064516129032259,0.06731680873541387
26,0.8387096774193549,0.08215473733977492
27,0.8709677419354839,0.09916075045908963
28,0.9032258064516129,0.11722733679037417
29,0.935483870967742,0.13505824117758497
30,0.967741935483871,0.15117044111608707
31,1.0,0.16389645303275213
