,Phase,diffMag
0,0.0,0.19216670881433157
1,0.03225806451612903,0.20052458361952502
2,0.06451612903225806,0.20408160513405696
3,0.0967741935483871,0.2024804802226182
4,0.12903225806451613,0.1958581525338672
5,0.16129032258064518,0.18468687475801052
6,0.1935483870967742,0.16982762186435413
7,0.22580645161290322,0.15257615344482942
8,0.25806451612903225,0.1343902279225806
9,0.2903225806451613,0.11649848569372494
10,0.32258064516129037,0.09991254319491909
11,0.3548387096774194,0.08547941616488391
12,0.3870967741935484,0.07368435880681849
13,0.41935483870967744,0.0645654515863677
14,0.45161290322580644,0.057902958629621956
15,0.4838709677419355,0.05339203355268776
16,0.5161290322580645,0.050742652685370454
17,0.5483870967741935,0.04975726149901713
18,0.5806451612903226,0.05034943754726363
19,0.6129032258064516,0.052522222568967894
20,0.6451612903225807,0.05633767725521005
21,0.6774193548387097,0.06189497282325538
22,0.7096774193548387,0.06925549388812179
23,0.7419354838709677,0.07845264817124771
24,0.7741935483870968,0.08950784423189756
25,0.8064516129032259,0.1023904421283303
26,0.8387096774193549,0.11692863605440387
27,0.8709677419354839,0.13273655075854068
28,0.9032258064516129,0.14914912319576185
29,0.935483870967742,0.16525461562847352
30,0.967741935483871,0.17998810552661088
31,1.0,0.1921667088143315
