,Phase,diffMag
0,0.0,0.36004815567882803
1,0.03225806451612903,0.38368943443114245
2,0.06451612903225806,0.39412552967262215
3,0.0967741935483871,0.3908130814505203
4,0.12903225806451613,0.3765938127557076
5,0.16129032258064518,0.35533629788474264
6,0.1935483870967742,0.33089977423174594
7,0.22580645161290322,0.3043018357993289
8,0.25806451612903225,0.2757709336557442
9,0.2903225806451613,0.245252490076439
10,0.32258064516129037,0.2123237387533018
11,0.3548387096774194,0.1796017664614412
12,0.3870967741935484,0.1508630993395468
13,0.41935483870967744,0.12783527461102365
14,0.45161290322580644,0.11087622560761165
15,0.4838709677419355,0.10060775809028184
16,0.5161290322580645,0.09547767079367069
17,0.5483870967741935,0.09261768004346838
18,0.5806451612903226,0.09099795789519492
19,0.6129032258064516,0.0911140862162809
20,0.6451612903225807,0.09366760786665869
21,0.6774193548387097,0.09917981210557764
22,0.7096774193548387,0.10895926786255815
23,0.7419354838709677,0.1247409438278237
24,0.7741935483870968,0.14534545527862058
25,0.8064516129032259,0.16872993379106851
26,0.8387096774193549,0.19433203761835263
27,0.8709677419354839,0.2225746117426423
28,0.9032258064516129,0.25432682213352065
29,0.935483870967742,0.2902725728629525
30,0.967741935483871,0.32734451712477025
31,1.0,0.36004815567882786
