,Phase,diffMag
0,0.0,0.19921946231872845
1,0.03225806451612903,0.2306481588364326
2,0.06451612903225806,0.2532912073685718
3,0.0967741935483871,0.2633032625547204
4,0.12903225806451613,0.2635444272867647
5,0.16129032258064518,0.259786309142265
6,0.1935483870967742,0.25766112505297895
7,0.22580645161290322,0.25539071965889704
8,0.25806451612903225,0.24698801567349588
9,0.2903225806451613,0.23203937204119926
10,0.32258064516129037,0.2148670378143811
11,0.3548387096774194,0.19881918124325484
12,0.3870967741935484,0.18461381020839884
13,0.41935483870967744,0.17161645192844355
14,0.45161290322580644,0.1592091428213423
15,0.4838709677419355,0.14720197854380926
16,0.5161290322580645,0.13566195342677215
17,0.5483870967741935,0.12468472438338957
18,0.5806451612903226,0.1143025586723911
19,0.6129032258064516,0.10449444629357021
20,0.6451612903225807,0.09524823194751032
21,0.6774193548387097,0.08664842314710422
22,0.7096774193548387,0.07893846090965573
23,0.7419354838709677,0.07263939961501058
24,0.7741935483870968,0.06883913127810559
25,0.8064516129032259,0.06927022300701964
26,0.8387096774193549,0.07573473937239593
27,0.8709677419354839,0.08922749772817658
28,0.9032258064516129,0.10982159622285548
29,0.935483870967742,0.13637251655881502
30,0.967741935483871,0.16671274325674734
31,1.0,0.19921946231872845
