,Phase,diffMag
0,0.0,0.38738464964061914
1,0.03225806451612903,0.41470513541134557
2,0.06451612903225806,0.41879633336299543
3,0.0967741935483871,0.40317481195610444
4,0.12903225806451613,0.3759905537851854
5,0.16129032258064518,0.34944416410134205
6,0.1935483870967742,0.3321634979843555
7,0.22580645161290322,0.31309414993129875
8,0.25806451612903225,0.30014740864503014
9,0.2903225806451613,0.2837176691063745
10,0.32258064516129037,0.25988471772742805
11,0.3548387096774194,0.23246930275090993
12,0.3870967741935484,0.20836220059165234
13,0.41935483870967744,0.1906648031461623
14,0.45161290322580644,0.18000440911135812
15,0.4838709677419355,0.17396907223021735
16,0.5161290322580645,0.1666624723860485
17,0.5483870967741935,0.1542569201772575
18,0.5806451612903226,0.13853254913993857
19,0.6129032258064516,0.12363437249956426
20,0.6451612903225807,0.11272714808841466
21,0.6774193548387097,0.10865301442812429
22,0.7096774193548387,0.11385363958816906
23,0.7419354838709677,0.12731387616457127
24,0.7741935483870968,0.1446275485456317
25,0.8064516129032259,0.1633773000501249
26,0.8387096774193549,0.1853912583879356
27,0.8709677419354839,0.21247076825430816
28,0.9032258064516129,0.24652197256557004
29,0.935483870967742,0.2967878207975566
30,0.967741935483871,0.3445658301412201
31,1.0,0.38738464964061914
