,Phase,diffMag
0,0.0,0.22325112947133566
1,0.03225806451612903,0.23579490150797236
2,0.06451612903225806,0.23885230554553935
3,0.0967741935483871,0.23330983480455839
4,0.12903225806451613,0.2210335445321433
5,0.16129032258064518,0.20373661667467663
6,0.1935483870967742,0.18375036450039817
7,0.22580645161290322,0.16411942795234336
8,0.25806451612903225,0.14720944770051506
9,0.2903225806451613,0.13337838315439537
10,0.32258064516129037,0.12191216523004703
11,0.3548387096774194,0.11284390530581093
12,0.3870967741935484,0.10640430316477557
13,0.41935483870967744,0.10169535159880366
14,0.45161290322580644,0.09753779649371995
15,0.4838709677419355,0.0930323690965387
16,0.5161290322580645,0.08767601256804787
17,0.5483870967741935,0.08139077756519343
18,0.5806451612903226,0.0744872847486208
19,0.6129032258064516,0.06766368061148509
20,0.6451612903225807,0.061974723420720815
21,0.6774193548387097,0.05891034664586207
22,0.7096774193548387,0.0596651781263236
23,0.7419354838709677,0.06512540471571347
24,0.7741935483870968,0.0755307891004233
25,0.8064516129032259,0.09049348937313141
26,0.8387096774193549,0.10935429837707178
27,0.8709677419354839,0.13119242024775385
28,0.9032258064516129,0.15488130931188093
29,0.935483870967742,0.1794972902956294
30,0.967741935483871,0.20327866251685117
31,1.0,0.22325112947133566
