,Phase,diffMag
0,0.0,0.16724319400763973
1,0.03225806451612903,0.18523035362253198
2,0.06451612903225806,0.19440122982600322
3,0.0967741935483871,0.19819022268217845
4,0.12903225806451613,0.20117557804844163
5,0.16129032258064518,0.20464022351112485
6,0.1935483870967742,0.2084686766260531
7,0.22580645161290322,0.2134802950214417
8,0.25806451612903225,0.21896294011662867
9,0.2903225806451613,0.2201756218785758
10,0.32258064516129037,0.21372802163757745
11,0.3548387096774194,0.2020009348106788
12,0.3870967741935484,0.18966885415781917
13,0.41935483870967744,0.17884927730579442
14,0.45161290322580644,0.16896456840107318
15,0.4838709677419355,0.15891649066552974
16,0.5161290322580645,0.14819412052431347
17,0.5483870967741935,0.13683925972092895
18,0.5806451612903226,0.1252330404858106
19,0.6129032258064516,0.11387357852407852
20,0.6451612903225807,0.10314342836128314
21,0.6774193548387097,0.09332123534875307
22,0.7096774193548387,0.0846900135211988
23,0.7419354838709677,0.07760718107647134
24,0.7741935483870968,0.0728179533872744
25,0.8064516129032259,0.07164814729890967
26,0.8387096774193549,0.07557488519178625
27,0.8709677419354839,0.08521383453976308
28,0.9032258064516129,0.10046002761281786
29,0.935483870967742,0.12052125055080663
30,0.967741935483871,0.14377251390635096
31,1.0,0.16724319400763973
