,Phase,diffMag
0,0.0,0.3502626276193894
1,0.03225806451612903,0.4119111061075477
2,0.06451612903225806,0.4529827404456512
3,0.0967741935483871,0.4680060276457048
4,0.12903225806451613,0.4618911484879728
5,0.16129032258064518,0.4387526886649284
6,0.1935483870967742,0.40068408686250445
7,0.22580645161290322,0.35103325498636456
8,0.25806451612903225,0.29415992336715424
9,0.2903225806451613,0.23624116863867448
10,0.32258064516129037,0.18502892273713206
11,0.3548387096774194,0.14577726180966225
12,0.3870967741935484,0.11820464528552703
13,0.41935483870967744,0.09900425346152454
14,0.45161290322580644,0.08492115475251204
15,0.4838709677419355,0.07378545877109983
16,0.5161290322580645,0.06440354842509727
17,0.5483870967741935,0.05622751243889005
18,0.5806451612903226,0.04911379113521049
19,0.6129032258064516,0.043246245973007545
20,0.6451612903225807,0.039204581936225454
21,0.6774193548387097,0.03789799565518944
22,0.7096774193548387,0.040383190627473475
23,0.7419354838709677,0.04756817006923733
24,0.7741935483870968,0.06017432563197442
25,0.8064516129032259,0.07869522092137131
26,0.8387096774193549,0.10377793941892446
27,0.8709677419354839,0.13612822118492346
28,0.9032258064516129,0.17633664720859302
29,0.935483870967742,0.22521540954982755
30,0.967741935483871,0.2839777751961958
31,1.0,0.35026262761938937
