,Phase,diffMag
0,0.0,0.6587643200559233
1,0.03225806451612903,0.673143249701265
2,0.06451612903225806,0.6486121864875605
3,0.0967741935483871,0.584950284613042
4,0.12903225806451613,0.5233047454777752
5,0.16129032258064518,0.5031914914873559
6,0.1935483870967742,0.5407440906461374
7,0.22580645161290322,0.616039902193952
8,0.25806451612903225,0.6665489274150113
9,0.2903225806451613,0.6707652456966988
10,0.32258064516129037,0.6355979427266484
11,0.3548387096774194,0.5672284250228053
12,0.3870967741935484,0.5134639680071783
13,0.41935483870967744,0.5070540448966115
14,0.45161290322580644,0.5581073426394217
15,0.4838709677419355,0.6332277938016593
16,0.5161290322580645,0.6712695982384281
17,0.5483870967741935,0.6660744526324731
18,0.5806451612903226,0.620116253350211
19,0.6129032258064516,0.5506232384612485
20,0.6451612903225807,0.5066249968194665
21,0.6774193548387097,0.5147288732835179
22,0.7096774193548387,0.5772444224404417
23,0.7419354838709677,0.6476363251761966
24,0.7741935483870968,0.6733510850459103
25,0.8064516129032259,0.6587734136687181
26,0.8387096774193549,0.6029121152185392
27,0.8709677419354839,0.535816534224162
28,0.9032258064516129,0.5031077744715978
29,0.935483870967742,0.5260767924480906
30,0.967741935483871,0.5969822623312504
31,1.0,0.6587643200559232
