,Phase,diffMag
0,0.0,0.09925765559115034
1,0.03225806451612903,0.10786581487212556
2,0.06451612903225806,0.11718843771631458
3,0.0967741935483871,0.12688404758697192
4,0.12903225806451613,0.13632633244999243
5,0.16129032258064518,0.1447153764973139
6,0.1935483870967742,0.15141939589153103
7,0.22580645161290322,0.15602472126097375
8,0.25806451612903225,0.15819025037738318
9,0.2903225806451613,0.1577064246274286
10,0.32258064516129037,0.1548102141525684
11,0.3548387096774194,0.15013280010937305
12,0.3870967741935484,0.14425969139842065
13,0.41935483870967744,0.13761610633306728
14,0.45161290322580644,0.13058450449030307
15,0.4838709677419355,0.1235084493163996
16,0.5161290322580645,0.11664932214335379
17,0.5483870967741935,0.11017756220603861
18,0.5806451612903226,0.10419139728222931
19,0.6129032258064516,0.09874200815767324
20,0.6451612903225807,0.09385470220638904
21,0.6774193548387097,0.08954480461122245
22,0.7096774193548387,0.08583204529936193
23,0.7419354838709677,0.08275788887012261
24,0.7741935483870968,0.0804034643113495
25,0.8064516129032259,0.07890064288713089
26,0.8387096774193549,0.07843843657675155
27,0.8709677419354839,0.07925783204548116
28,0.9032258064516129,0.0816272067003337
29,0.935483870967742,0.08577301197738361
30,0.967741935483871,0.09173862808262494
31,1.0,0.09925765559115034
