,Phase,diffMag
0,0.0,0.3084407376932021
1,0.03225806451612903,0.33700840700544105
2,0.06451612903225806,0.35755739350786925
3,0.0967741935483871,0.37069379437671807
4,0.12903225806451613,0.37750973384408143
5,0.16129032258064518,0.37799458891613064
6,0.1935483870967742,0.37210943458207396
7,0.22580645161290322,0.3599681372577145
8,0.25806451612903225,0.3406149123566483
9,0.2903225806451613,0.31319700654071975
10,0.32258064516129037,0.2793990594412315
11,0.3548387096774194,0.24410606644109775
12,0.3870967741935484,0.2126837497961965
13,0.41935483870967744,0.18740311719896657
14,0.45161290322580644,0.16771862285255024
15,0.4838709677419355,0.15244748776953393
16,0.5161290322580645,0.14091043685503718
17,0.5483870967741935,0.1327841934243699
18,0.5806451612903226,0.12747430400202647
19,0.6129032258064516,0.1243634085676788
20,0.6451612903225807,0.12323122563869587
21,0.6774193548387097,0.12406807565767777
22,0.7096774193548387,0.1268767503994522
23,0.7419354838709677,0.13182540961946915
24,0.7741935483870968,0.1394822786102709
25,0.8064516129032259,0.1504848963368462
26,0.8387096774193549,0.16516779003262647
27,0.8709677419354839,0.1841203526275471
28,0.9032258064516129,0.2084876879722989
29,0.935483870967742,0.23904023170757738
30,0.967741935483871,0.27404587778983186
31,1.0,0.3084407376932021
