,Phase,diffMag
0,0.0,0.24417641629941045
1,0.03225806451612903,0.24582541133816838
2,0.06451612903225806,0.24166094258802706
3,0.0967741935483871,0.23164329146837567
4,0.12903225806451613,0.22160349035557284
5,0.16129032258064518,0.2192284363698947
6,0.1935483870967742,0.2268327858417065
7,0.22580645161290322,0.23847054581665247
8,0.25806451612903225,0.2451664705539191
9,0.2903225806451613,0.2453563733609846
10,0.32258064516129037,0.23960771085603236
11,0.3548387096774194,0.22878606736588744
12,0.3870967741935484,0.22007987176088864
13,0.41935483870967744,0.22027551773541906
14,0.45161290322580644,0.2297643776653723
15,0.4838709677419355,0.24082331937338777
16,0.5161290322580645,0.2457449669226369
17,0.5483870967741935,0.24452614518206298
18,0.5806451612903226,0.237188461986845
19,0.6129032258064516,0.22606961663785402
20,0.6451612903225807,0.21914346622036193
21,0.6774193548387097,0.22195176578127257
22,0.7096774193548387,0.23279733418037854
23,0.7419354838709677,0.2427340698375149
24,0.7741935483870968,0.2459554535124444
25,0.8064516129032259,0.24330212173654991
26,0.8387096774193549,0.23449228181077986
27,0.8709677419354839,0.2236342755746857
28,0.9032258064516129,0.21885010009247913
29,0.935483870967742,0.22417741320259177
30,0.967741935483871,0.23575325139801798
31,1.0,0.24417641629941045
