,Phase,diffMag
0,0.0,0.16724319400763996
1,0.03225806451612903,0.18523035362253223
2,0.06451612903225806,0.19440122982600344
3,0.0967741935483871,0.19819022268217867
4,0.12903225806451613,0.20117557804844183
5,0.16129032258064518,0.20464022351112496
6,0.1935483870967742,0.20846867662605328
7,0.22580645161290322,0.21348029502144183
8,0.25806451612903225,0.2189629401166289
9,0.2903225806451613,0.220175621878576
10,0.32258064516129037,0.21372802163757765
11,0.3548387096774194,0.20200093481067896
12,0.3870967741935484,0.1896688541578193
13,0.41935483870967744,0.17884927730579447
14,0.45161290322580644,0.1689645684010732
15,0.4838709677419355,0.1589164906655298
16,0.5161290322580645,0.1481941205243135
17,0.5483870967741935,0.13683925972092895
18,0.5806451612903226,0.1252330404858106
19,0.6129032258064516,0.11387357852407852
20,0.6451612903225807,0.10314342836128312
21,0.6774193548387097,0.09332123534875308
22,0.7096774193548387,0.08469001352119881
23,0.7419354838709677,0.07760718107647135
24,0.7741935483870968,0.07281795338727441
25,0.8064516129032259,0.07164814729890968
26,0.8387096774193549,0.07557488519178625
27,0.8709677419354839,0.08521383453976313
28,0.9032258064516129,0.10046002761281794
29,0.935483870967742,0.12052125055080679
30,0.967741935483871,0.14377251390635112
31,1.0,0.16724319400763993
