,Phase,diffMag
0,0.0,0.08044621789788023
1,0.03225806451612903,0.08789460402339686
2,0.06451612903225806,0.0930185267037889
3,0.0967741935483871,0.0965453407713723
4,0.12903225806451613,0.09956714599818514
5,0.16129032258064518,0.10270409122429483
6,0.1935483870967742,0.10669407681685786
7,0.22580645161290322,0.11215653237573156
8,0.25806451612903225,0.11821453586532091
9,0.2903225806451613,0.12315184385937285
10,0.32258064516129037,0.12576645162756386
11,0.3548387096774194,0.1261203305847911
12,0.3870967741935484,0.12477895957020502
13,0.41935483870967744,0.1218802797762452
14,0.45161290322580644,0.11742029966009317
15,0.4838709677419355,0.11164942397940131
16,0.5161290322580645,0.1049560254355445
17,0.5483870967741935,0.09768971621830404
18,0.5806451612903226,0.09008925088838839
19,0.6129032258064516,0.0822948134998773
20,0.6451612903225807,0.07440999249803457
21,0.6774193548387097,0.066602452864822
22,0.7096774193548387,0.05918600847208576
23,0.7419354838709677,0.0525394158288946
24,0.7741935483870968,0.047261691386351466
25,0.8064516129032259,0.04425377649873681
26,0.8387096774193549,0.04444798672556138
27,0.8709677419354839,0.047904426265477994
28,0.9032258064516129,0.05410903508132709
29,0.935483870967742,0.062246374802298186
30,0.967741935483871,0.07141046554164138
31,1.0,0.08044621789788023
