,Phase,diffMag
0,0.0,0.20567481774962681
1,0.03225806451612903,0.25705465687091206
2,0.06451612903225806,0.3040648401447352
3,0.0967741935483871,0.3308189736237705
4,0.12903225806451613,0.3388933843783464
5,0.16129032258064518,0.3378743732668877
6,0.1935483870967742,0.33750355418298184
7,0.22580645161290322,0.3412982696410076
8,0.25806451612903225,0.33331843096595787
9,0.2903225806451613,0.3042283185480409
10,0.32258064516129037,0.26587222379997993
11,0.3548387096774194,0.23124175088350546
12,0.3870967741935484,0.20396886486100507
13,0.41935483870967744,0.18215234834699623
14,0.45161290322580644,0.1634520347139144
15,0.4838709677419355,0.14672286447159733
16,0.5161290322580645,0.1316248887652485
17,0.5483870967741935,0.11803876587219862
18,0.5806451612903226,0.10583029328943755
19,0.6129032258064516,0.09483052452826633
20,0.6451612903225807,0.08489016876675082
21,0.6774193548387097,0.07595682577995912
22,0.7096774193548387,0.06812287652982157
23,0.7419354838709677,0.06172268386805415
24,0.7741935483870968,0.05761542324367292
25,0.8064516129032259,0.05731086921611716
26,0.8387096774193549,0.06257857963315076
27,0.8709677419354839,0.07480938086592098
28,0.9032258064516129,0.09509686980417414
29,0.935483870967742,0.12403309371020682
30,0.967741935483871,0.16121699875233209
31,1.0,0.20567481774962673
