,Phase,diffMag
0,0.0,0.27304373592149817
1,0.03225806451612903,0.3239331986315735
2,0.06451612903225806,0.3658139465748342
3,0.0967741935483871,0.3972658199622376
4,0.12903225806451613,0.4156289710830747
5,0.16129032258064518,0.4169833147972341
6,0.1935483870967742,0.4009666679612222
7,0.22580645161290322,0.3712274440911977
8,0.25806451612903225,0.33086498767954636
9,0.2903225806451613,0.2810789017964605
10,0.32258064516129037,0.22737872035496962
11,0.3548387096774194,0.1786682885404262
12,0.3870967741935484,0.1398872901663736
13,0.41935483870967744,0.11117064691703211
14,0.45161290322580644,0.09063148311586484
15,0.4838709677419355,0.07616547597008722
16,0.5161290322580645,0.06608419927637747
17,0.5483870967741935,0.05919678744558727
18,0.5806451612903226,0.0547182326385212
19,0.6129032258064516,0.05216200367614614
20,0.6451612903225807,0.05126155438657369
21,0.6774193548387097,0.05192518910783135
22,0.7096774193548387,0.054220372248405785
23,0.7419354838709677,0.058385277075748324
24,0.7741935483870968,0.06486923481165452
25,0.8064516129032259,0.07440608895629439
26,0.8387096774193549,0.08811851446840362
27,0.8709677419354839,0.10761822897097763
28,0.9032258064516129,0.13496788899610074
29,0.935483870967742,0.17216600018290143
30,0.967741935483871,0.2195559698105947
31,1.0,0.273043735921498
