,Phase,diffMag
0,0.0,0.44184236084676615
1,0.03225806451612903,0.44168040744514686
2,0.06451612903225806,0.43772723400646846
3,0.0967741935483871,0.4212223465582376
4,0.12903225806451613,0.3855287078571576
5,0.16129032258064518,0.33157721648729127
6,0.1935483870967742,0.26726748154864954
7,0.22580645161290322,0.20574111583979884
8,0.25806451612903225,0.1568542605327868
9,0.2903225806451613,0.12211811178030485
10,0.32258064516129037,0.09853294338984403
11,0.3548387096774194,0.08269545534451374
12,0.3870967741935484,0.0721209751918402
13,0.41935483870967744,0.06522743908598475
14,0.45161290322580644,0.06106520070106116
15,0.4838709677419355,0.059103034326134736
16,0.5161290322580645,0.059103034326134694
17,0.5483870967741935,0.06106520070106116
18,0.5806451612903226,0.06522743908598475
19,0.6129032258064516,0.07212097519184012
20,0.6451612903225807,0.0826954553445138
21,0.6774193548387097,0.09853294338984399
22,0.7096774193548387,0.1221181117803049
23,0.7419354838709677,0.1568542605327866
24,0.7741935483870968,0.20574111583979865
25,0.8064516129032259,0.26726748154864954
26,0.8387096774193549,0.3315772164872913
27,0.8709677419354839,0.3855287078571576
28,0.9032258064516129,0.42122234655823754
29,0.935483870967742,0.4377272340064683
30,0.967741935483871,0.44168040744514686
31,1.0,0.44184236084676615
