,Phase,diffMag
0,0.0,0.44855907167890946
1,0.03225806451612903,0.45232967851317474
2,0.06451612903225806,0.460824717186392
3,0.0967741935483871,0.46583719488448627
4,0.12903225806451613,0.4572979915830649
5,0.16129032258064518,0.43132107925252133
6,0.1935483870967742,0.3940236166886549
7,0.22580645161290322,0.35594362225513837
8,0.25806451612903225,0.3257659746682179
9,0.2903225806451613,0.3085724288495876
10,0.32258064516129037,0.30414070200689175
11,0.3548387096774194,0.3047769437942564
12,0.3870967741935484,0.29928795410577347
13,0.41935483870967744,0.2846930195916369
14,0.45161290322580644,0.26866397886016113
15,0.4838709677419355,0.25909777616503826
16,0.5161290322580645,0.25909777616503826
17,0.5483870967741935,0.2686639788601613
18,0.5806451612903226,0.28469301959163706
19,0.6129032258064516,0.2992879541057738
20,0.6451612903225807,0.3047769437942567
21,0.6774193548387097,0.30414070200689164
22,0.7096774193548387,0.3085724288495878
23,0.7419354838709677,0.3257659746682176
24,0.7741935483870968,0.355943622255138
25,0.8064516129032259,0.3940236166886547
26,0.8387096774193549,0.43132107925252167
27,0.8709677419354839,0.45729799158306483
28,0.9032258064516129,0.4658371948844865
29,0.935483870967742,0.46082471718639223
30,0.967741935483871,0.4523296785131747
31,1.0,0.4485590716789095
