,Phase,diffMag
0,0.0,0.5383034078762525
1,0.03225806451612903,0.5452178030781094
2,0.06451612903225806,0.5616003954381844
3,0.0967741935483871,0.576678836941915
4,0.12903225806451613,0.5814469399538639
5,0.16129032258064518,0.5736402949805812
6,0.1935483870967742,0.5571575589051546
7,0.22580645161290322,0.5422845133493649
8,0.25806451612903225,0.5387573968564174
9,0.2903225806451613,0.5487803476753684
10,0.32258064516129037,0.565950262631512
11,0.3548387096774194,0.5790335837316872
12,0.3870967741935484,0.5806363924107244
13,0.41935483870967744,0.5700189641660551
14,0.45161290322580644,0.5528195633238212
15,0.4838709677419355,0.5401019119243671
16,0.5161290322580645,0.5401019119243673
17,0.5483870967741935,0.5528195633238213
18,0.5806451612903226,0.570018964166056
19,0.6129032258064516,0.5806363924107245
20,0.6451612903225807,0.5790335837316879
21,0.6774193548387097,0.5659502626315108
22,0.7096774193548387,0.5487803476753684
23,0.7419354838709677,0.538757396856417
24,0.7741935483870968,0.5422845133493648
25,0.8064516129032259,0.5571575589051548
26,0.8387096774193549,0.5736402949805814
27,0.8709677419354839,0.5814469399538637
28,0.9032258064516129,0.5766788369419154
29,0.935483870967742,0.5616003954381845
30,0.967741935483871,0.5452178030781099
31,1.0,0.5383034078762525
