,Phase,diffMag
0,0.0,0.35477669598093836
1,0.03225806451612903,0.3507147027485962
2,0.06451612903225806,0.33799597202385395
3,0.0967741935483871,0.3157096131325254
4,0.12903225806451613,0.28444975654466165
5,0.16129032258064518,0.24677153469782087
6,0.1935483870967742,0.20641432629284207
7,0.22580645161290322,0.16823406490613388
8,0.25806451612903225,0.13622023288683058
9,0.2903225806451613,0.11160676758902366
10,0.32258064516129037,0.0935756632005612
11,0.3548387096774194,0.08069878365084653
12,0.3870967741935484,0.07169989142770926
13,0.41935483870967744,0.06564410625534198
14,0.45161290322580644,0.061911536631024715
15,0.4838709677419355,0.06013149991881152
16,0.5161290322580645,0.0601314999188115
17,0.5483870967741935,0.06191153663102471
18,0.5806451612903226,0.06564410625534198
19,0.6129032258064516,0.07169989142770929
20,0.6451612903225807,0.08069878365084658
21,0.6774193548387097,0.09357566320056118
22,0.7096774193548387,0.1116067675890237
23,0.7419354838709677,0.13622023288683047
24,0.7741935483870968,0.16823406490613382
25,0.8064516129032259,0.2064143262928421
26,0.8387096774193549,0.2467715346978209
27,0.8709677419354839,0.2844497565446617
28,0.9032258064516129,0.31570961313252527
29,0.935483870967742,0.3379959720238537
30,0.967741935483871,0.3507147027485963
31,1.0,0.3547766959809385
