,Phase,diffMag
0,0.0,0.37379986981172403
1,0.03225806451612903,0.3636784827913486
2,0.06451612903225806,0.3344705632545915
3,0.0967741935483871,0.2906933219189729
4,0.12903225806451613,0.2407428558843496
5,0.16129032258064518,0.19329071146942473
6,0.1935483870967742,0.15500575048989304
7,0.22580645161290322,0.13164495272772533
8,0.25806451612903225,0.12461062076642125
9,0.2903225806451613,0.12897228065760014
10,0.32258064516129037,0.13762571906144894
11,0.3548387096774194,0.14671096216012627
12,0.3870967741935484,0.1543469047753505
13,0.41935483870967744,0.1598682377275671
14,0.45161290322580644,0.1633227936055658
15,0.4838709677419355,0.16496298710016732
16,0.5161290322580645,0.16496298710016732
17,0.5483870967741935,0.16332279360556579
18,0.5806451612903226,0.15986823772756717
19,0.6129032258064516,0.15434690477535054
20,0.6451612903225807,0.14671096216012638
21,0.6774193548387097,0.13762571906144885
22,0.7096774193548387,0.12897228065760014
23,0.7419354838709677,0.12461062076642117
24,0.7741935483870968,0.13164495272772536
25,0.8064516129032259,0.155005750489893
26,0.8387096774193549,0.19329071146942475
27,0.8709677419354839,0.24074285588434943
28,0.9032258064516129,0.29069332191897274
29,0.935483870967742,0.3344705632545915
30,0.967741935483871,0.3636784827913485
31,1.0,0.3737998698117241
