,Phase,diffMag
0,0.0,0.3479671140569152
1,0.03225806451612903,0.3486013941471786
2,0.06451612903225806,0.3501867577333688
3,0.0967741935483871,0.3490540850793059
4,0.12903225806451613,0.3464968055896936
5,0.16129032258064518,0.349712751361638
6,0.1935483870967742,0.3499067312698305
7,0.22580645161290322,0.3482848885731651
8,0.25806451612903225,0.34799478358741737
9,0.2903225806451613,0.34902510064261133
10,0.32258064516129037,0.3502694601374937
11,0.3548387096774194,0.34817823557649635
12,0.3870967741935484,0.3472152831744038
13,0.41935483870967744,0.3501177166796437
14,0.45161290322580644,0.3494909322722418
15,0.4838709677419355,0.34809056666462096
16,0.5161290322580645,0.3480905666646209
17,0.5483870967741935,0.34949093227224226
18,0.5806451612903226,0.35011771667964403
19,0.6129032258064516,0.34721528317440364
20,0.6451612903225807,0.3481782355764964
21,0.6774193548387097,0.35026946013749327
22,0.7096774193548387,0.3490251006426116
23,0.7419354838709677,0.3479947835874171
24,0.7741935483870968,0.34828488857316475
25,0.8064516129032259,0.34990673126983046
26,0.8387096774193549,0.3497127513616378
27,0.8709677419354839,0.34649680558969337
28,0.9032258064516129,0.3490540850793058
29,0.935483870967742,0.3501867577333686
30,0.967741935483871,0.3486013941471789
31,1.0,0.3479671140569152
