,Phase,diffMag
0,0.0,0.4841382670872146
1,0.03225806451612903,0.47616476294267607
2,0.06451612903225806,0.4557284836519816
3,0.0967741935483871,0.4144048129793951
4,0.12903225806451613,0.36025057641583125
5,0.16129032258064518,0.3066864897993098
6,0.1935483870967742,0.2500132776170567
7,0.22580645161290322,0.19492673333005905
8,0.25806451612903225,0.15081046413022298
9,0.2903225806451613,0.12181844744414916
10,0.32258064516129037,0.1061201688208895
11,0.3548387096774194,0.09940693159885475
12,0.3870967741935484,0.09748942332358382
13,0.41935483870967744,0.0974968037076492
14,0.45161290322580644,0.09801723748503569
15,0.4838709677419355,0.09840209466994355
16,0.5161290322580645,0.09840209466994365
17,0.5483870967741935,0.0980172374850357
18,0.5806451612903226,0.09749680370764918
19,0.6129032258064516,0.09748942332358385
20,0.6451612903225807,0.09940693159885483
21,0.6774193548387097,0.10612016882088947
22,0.7096774193548387,0.12181844744414914
23,0.7419354838709677,0.15081046413022278
24,0.7741935483870968,0.19492673333005892
25,0.8064516129032259,0.2500132776170567
26,0.8387096774193549,0.30668648979931
27,0.8709677419354839,0.36025057641583136
28,0.9032258064516129,0.4144048129793949
29,0.935483870967742,0.4557284836519816
30,0.967741935483871,0.47616476294267585
31,1.0,0.4841382670872146
