,Phase,diffMag
0,0.0,0.13100145157626733
1,0.03225806451612903,0.13097342465017417
2,0.06451612903225806,0.1308892034757394
3,0.0967741935483871,0.13072273112439584
4,0.12903225806451613,0.13040760873217136
5,0.16129032258064518,0.12991737573578857
6,0.1935483870967742,0.12934891386791128
7,0.22580645161290322,0.12886249562926053
8,0.25806451612903225,0.12855204625081795
9,0.2903225806451613,0.1283998593451322
10,0.32258064516129037,0.1283201232827386
11,0.3548387096774194,0.1282292053920786
12,0.3870967741935484,0.12809587275582965
13,0.41935483870967744,0.12793929921813993
14,0.45161290322580644,0.1278010040658549
15,0.4838709677419355,0.12772041718795596
16,0.5161290322580645,0.12772041718795596
17,0.5483870967741935,0.12780100406585487
18,0.5806451612903226,0.12793929921813996
19,0.6129032258064516,0.12809587275582962
20,0.6451612903225807,0.12822920539207863
21,0.6774193548387097,0.1283201232827385
22,0.7096774193548387,0.12839985934513218
23,0.7419354838709677,0.1285520462508179
24,0.7741935483870968,0.1288624956292605
25,0.8064516129032259,0.12934891386791136
26,0.8387096774193549,0.12991737573578863
27,0.8709677419354839,0.13040760873217142
28,0.9032258064516129,0.1307227311243958
29,0.935483870967742,0.13088920347573935
30,0.967741935483871,0.13097342465017417
31,1.0,0.13100145157626733
