,Phase,diffMag
0,0.0,0.31800676100675773
1,0.03225806451612903,0.31283058367299654
2,0.06451612903225806,0.297926890452901
3,0.0967741935483871,0.2747674929720008
4,0.12903225806451613,0.24524399722171078
5,0.16129032258064518,0.21210847833626298
6,0.1935483870967742,0.1790408940715974
7,0.22580645161290322,0.14930984913228004
8,0.25806451612903225,0.12461574958579988
9,0.2903225806451613,0.10517920840316235
10,0.32258064516129037,0.09041175423787769
11,0.3548387096774194,0.07948243015677604
12,0.3870967741935484,0.0716177493078587
13,0.41935483870967744,0.06620901561739782
14,0.45161290322580644,0.06282593069108594
15,0.4838709677419355,0.06119888506273313
16,0.5161290322580645,0.0611988850627331
17,0.5483870967741935,0.06282593069108591
18,0.5806451612903226,0.06620901561739782
19,0.6129032258064516,0.07161774930785868
20,0.6451612903225807,0.07948243015677611
21,0.6774193548387097,0.09041175423787767
22,0.7096774193548387,0.10517920840316236
23,0.7419354838709677,0.12461574958579984
24,0.7741935483870968,0.14930984913227993
25,0.8064516129032259,0.1790408940715974
26,0.8387096774193549,0.2121084783362631
27,0.8709677419354839,0.24524399722171059
28,0.9032258064516129,0.27476749297200065
29,0.935483870967742,0.2979268904529008
30,0.967741935483871,0.31283058367299654
31,1.0,0.31800676100675784
