,Phase,diffMag
0,0.0,0.5057845534738828
1,0.03225806451612903,0.5029127862206334
2,0.06451612903225806,0.49183893136420725
3,0.0967741935483871,0.4656042311736007
4,0.12903225806451613,0.41722201095998296
5,0.16129032258064518,0.34894607846202313
6,0.1935483870967742,0.27515927211694075
7,0.22580645161290322,0.2127557562278301
8,0.25806451612903225,0.17006510236659092
9,0.2903225806451613,0.14545103032021617
10,0.32258064516129037,0.1331606253609885
11,0.3548387096774194,0.12794478489111852
12,0.3870967741935484,0.12621020013163625
13,0.41935483870967744,0.12595712231308706
14,0.45161290322580644,0.12616707086138867
15,0.4838709677419355,0.1263605632775945
16,0.5161290322580645,0.1263605632775945
17,0.5483870967741935,0.1261670708613887
18,0.5806451612903226,0.1259571223130871
19,0.6129032258064516,0.1262102001316362
20,0.6451612903225807,0.12794478489111857
21,0.6774193548387097,0.13316062536098847
22,0.7096774193548387,0.14545103032021614
23,0.7419354838709677,0.17006510236659061
24,0.7741935483870968,0.21275575622783002
25,0.8064516129032259,0.27515927211694086
26,0.8387096774193549,0.3489460784620235
27,0.8709677419354839,0.41722201095998324
28,0.9032258064516129,0.465604231173601
29,0.935483870967742,0.4918389313642075
30,0.967741935483871,0.5029127862206334
31,1.0,0.505784553473883
