,Phase,diffMag
0,0.0,0.3139271658601245
1,0.03225806451612903,0.3155532882635694
2,0.06451612903225806,0.319308703542801
3,0.0967741935483871,0.32271738474424433
4,0.12903225806451613,0.3238044932325714
5,0.16129032258064518,0.3220289325192745
6,0.1935483870967742,0.3183001942130137
7,0.22580645161290322,0.3148671961870476
8,0.25806451612903225,0.31403491187497307
9,0.2903225806451613,0.3163799206039931
10,0.32258064516129037,0.3202921900266211
11,0.3548387096774194,0.323252956105122
12,0.3870967741935484,0.32361890771175583
13,0.41935483870967744,0.3212107052978784
14,0.45161290322580644,0.31730945483996115
15,0.4838709677419355,0.31435316223852855
16,0.5161290322580645,0.3143531622385284
17,0.5483870967741935,0.31730945483996115
18,0.5806451612903226,0.32121070529787854
19,0.6129032258064516,0.32361890771175594
20,0.6451612903225807,0.32325295610512195
21,0.6774193548387097,0.320292190026621
22,0.7096774193548387,0.316379920603993
23,0.7419354838709677,0.31403491187497284
24,0.7741935483870968,0.31486719618704734
25,0.8064516129032259,0.31830019421301375
26,0.8387096774193549,0.32202893251927434
27,0.8709677419354839,0.3238044932325714
28,0.9032258064516129,0.322717384744244
29,0.935483870967742,0.3193087035428013
30,0.967741935483871,0.3155532882635695
31,1.0,0.3139271658601244
