,Phase,diffMag
0,0.0,0.3804398461398461
1,0.03225806451612903,0.3747857480848598
2,0.06451612903225806,0.3583168347402643
3,0.0967741935483871,0.3335538577349301
4,0.12903225806451613,0.3034168679319348
5,0.16129032258064518,0.2700700292822097
6,0.1935483870967742,0.23666222376615662
7,0.22580645161290322,0.20442810829975408
8,0.25806451612903225,0.17460238490672172
9,0.2903225806451613,0.14855668532958996
10,0.32258064516129037,0.12672482047409314
11,0.3548387096774194,0.10942028324355203
12,0.3870967741935484,0.09778376673788547
13,0.41935483870967744,0.09152116241944445
14,0.45161290322580644,0.08826435370268496
15,0.4838709677419355,0.08674145425122098
16,0.5161290322580645,0.08674145425122097
17,0.5483870967741935,0.08826435370268503
18,0.5806451612903226,0.09152116241944437
19,0.6129032258064516,0.09778376673788536
20,0.6451612903225807,0.10942028324355206
21,0.6774193548387097,0.12672482047409311
22,0.7096774193548387,0.14855668532959
23,0.7419354838709677,0.17460238490672164
24,0.7741935483870968,0.2044281082997539
25,0.8064516129032259,0.2366622237661566
26,0.8387096774193549,0.27007002928220963
27,0.8709677419354839,0.3034168679319346
28,0.9032258064516129,0.33355385773493007
29,0.935483870967742,0.35831683474026427
30,0.967741935483871,0.3747857480848596
31,1.0,0.38043984613984605
