,Phase,diffMag
0,0.0,0.4099363622707791
1,0.03225806451612903,0.40019872891267433
2,0.06451612903225806,0.3722340809370703
3,0.0967741935483871,0.33000502831628736
4,0.12903225806451613,0.27924364526181206
5,0.16129032258064518,0.22643996408596676
6,0.1935483870967742,0.1780162428771519
7,0.22580645161290322,0.13767598447544047
8,0.25806451612903225,0.1070603282190642
9,0.2903225806451613,0.08644959793347615
10,0.32258064516129037,0.07457002865269713
11,0.3548387096774194,0.06909602286009094
12,0.3870967741935484,0.06746087566498779
13,0.41935483870967744,0.06757643499420866
14,0.45161290322580644,0.06816384454484245
15,0.4838709677419355,0.06858424181958353
16,0.5161290322580645,0.06858424181958352
17,0.5483870967741935,0.06816384454484245
18,0.5806451612903226,0.06757643499420869
19,0.6129032258064516,0.06746087566498779
20,0.6451612903225807,0.06909602286009092
21,0.6774193548387097,0.07457002865269712
22,0.7096774193548387,0.08644959793347612
23,0.7419354838709677,0.10706032821906411
24,0.7741935483870968,0.13767598447544044
25,0.8064516129032259,0.1780162428771519
26,0.8387096774193549,0.2264399640859668
27,0.8709677419354839,0.279243645261812
28,0.9032258064516129,0.3300050283162872
29,0.935483870967742,0.37223408093707017
30,0.967741935483871,0.4001987289126744
31,1.0,0.4099363622707791
