,Phase,diffMag
0,0.0,0.3349164295964409
1,0.03225806451612903,0.32971055406076843
2,0.06451612903225806,0.31476461202192707
3,0.0967741935483871,0.29272812887763927
4,0.12903225806451613,0.2660274211105493
5,0.16129032258064518,0.2362760610576665
6,0.1935483870967742,0.20678285299667534
7,0.22580645161290322,0.1786056483322996
8,0.25806451612903225,0.15245977494276614
9,0.2903225806451613,0.1296982407902707
10,0.32258064516129037,0.11107734494458545
11,0.3548387096774194,0.096719204991828
12,0.3870967741935484,0.08648520639579299
13,0.41935483870967744,0.07987139309449837
14,0.45161290322580644,0.07601888515538993
15,0.4838709677419355,0.07424168717449343
16,0.5161290322580645,0.07424168717449342
17,0.5483870967741935,0.07601888515538995
18,0.5806451612903226,0.07987139309449831
19,0.6129032258064516,0.08648520639579295
20,0.6451612903225807,0.09671920499182803
21,0.6774193548387097,0.1110773449445854
22,0.7096774193548387,0.12969824079027062
23,0.7419354838709677,0.15245977494276602
24,0.7741935483870968,0.17860564833229933
25,0.8064516129032259,0.20678285299667531
26,0.8387096774193549,0.23627606105766655
27,0.8709677419354839,0.2660274211105491
28,0.9032258064516129,0.29272812887763905
29,0.935483870967742,0.31476461202192707
30,0.967741935483871,0.3297105540607683
31,1.0,0.3349164295964409
