,Phase,diffMag
0,0.0,0.13521368612350756
1,0.03225806451612903,0.13365979898181113
2,0.06451612903225806,0.12916423769699778
3,0.0967741935483871,0.12241622212519657
4,0.12903225806451613,0.11493360045256462
5,0.16129032258064518,0.10863130117233984
6,0.1935483870967742,0.10505234036794146
7,0.22580645161290322,0.10490009428103227
8,0.25806451612903225,0.10751178993737684
9,0.2903225806451613,0.11189576636272189
10,0.32258064516129037,0.11706973109272119
11,0.3548387096774194,0.12219797040677492
12,0.3870967741935484,0.12658126163726058
13,0.41935483870967744,0.129829811536489
14,0.45161290322580644,0.1318841101571251
15,0.4838709677419355,0.13285610359770372
16,0.5161290322580645,0.13285610359770378
17,0.5483870967741935,0.1318841101571251
18,0.5806451612903226,0.12982981153648912
19,0.6129032258064516,0.1265812616372606
20,0.6451612903225807,0.12219797040677498
21,0.6774193548387097,0.11706973109272115
22,0.7096774193548387,0.11189576636272189
23,0.7419354838709677,0.10751178993737681
24,0.7741935483870968,0.10490009428103222
25,0.8064516129032259,0.10505234036794142
26,0.8387096774193549,0.10863130117233985
27,0.8709677419354839,0.11493360045256458
28,0.9032258064516129,0.12241622212519646
29,0.935483870967742,0.12916423769699775
30,0.967741935483871,0.13365979898181116
31,1.0,0.13521368612350756
