,Phase,diffMag
0,0.0,0.2335476712624981
1,0.03225806451612903,0.23386353213420077
2,0.06451612903225806,0.22612105896235682
3,0.0967741935483871,0.21111138638512858
4,0.12903225806451613,0.19057151057708435
5,0.16129032258064518,0.16742370141643223
6,0.1935483870967742,0.1446311128502998
7,0.22580645161290322,0.12405322786704887
8,0.25806451612903225,0.10690287266072314
9,0.2903225806451613,0.09454224852919443
10,0.32258064516129037,0.08754814708862056
11,0.3548387096774194,0.08514215561228389
12,0.3870967741935484,0.0854637360059805
13,0.41935483870967744,0.08649536457098703
14,0.45161290322580644,0.08707050217943804
15,0.4838709677419355,0.08659604064802606
16,0.5161290322580645,0.08489436743825088
17,0.5483870967741935,0.08207122076678579
18,0.5806451612903226,0.07842260936722559
19,0.6129032258064516,0.07444200464542747
20,0.6451612903225807,0.07101073980659144
21,0.6774193548387097,0.0697640140833422
22,0.7096774193548387,0.0724574596638081
23,0.7419354838709677,0.08042146443183015
24,0.7741935483870968,0.09419907857772543
25,0.8064516129032259,0.11307677318286553
26,0.8387096774193549,0.13553677149646665
27,0.8709677419354839,0.16008027941857567
28,0.9032258064516129,0.1849636983536505
29,0.935483870967742,0.20759129786520783
30,0.967741935483871,0.22465116200026214
31,1.0,0.23354767126249806
