,Phase,diffMag
0,0.0,0.32030017066235034
1,0.03225806451612903,0.32806471533391185
2,0.06451612903225806,0.32484115785571743
3,0.0967741935483871,0.31105680158058757
4,0.12903225806451613,0.28821517792837237
5,0.16129032258064518,0.2581794592277777
6,0.1935483870967742,0.22356534869601694
7,0.22580645161290322,0.18825565986393955
8,0.25806451612903225,0.1560875434156343
9,0.2903225806451613,0.12923855250811928
10,0.32258064516129037,0.10811270946812261
11,0.3548387096774194,0.092101073635011
12,0.3870967741935484,0.08027448502300354
13,0.41935483870967744,0.0717553390124998
14,0.45161290322580644,0.06585031243951067
15,0.4838709677419355,0.06206649021917071
16,0.5161290322580645,0.06008871256176231
17,0.5483870967741935,0.05975373732398991
18,0.5806451612903226,0.06103406423291254
19,0.6129032258064516,0.06403504722197999
20,0.6451612903225807,0.06900570951403634
21,0.6774193548387097,0.07636136875562037
22,0.7096774193548387,0.08671022923608593
23,0.7419354838709677,0.10086003661294064
24,0.7741935483870968,0.11974683112932664
25,0.8064516129032259,0.14417897616490685
26,0.8387096774193549,0.17427684353168518
27,0.8709677419354839,0.208668427376648
28,0.9032258064516129,0.24409013035434854
29,0.935483870967742,0.2764332223462941
30,0.967741935483871,0.30252343378939844
31,1.0,0.3203001706623502
