,Phase,diffMag
0,0.0,0.3972655095240506
1,0.03225806451612903,0.3878719306762222
2,0.06451612903225806,0.38026470826904046
3,0.0967741935483871,0.3766188900340507
4,0.12903225806451613,0.3906360589337184
5,0.16129032258064518,0.4013472303975356
6,0.1935483870967742,0.401800788031849
7,0.22580645161290322,0.4022589497152211
8,0.25806451612903225,0.39501840240637937
9,0.2903225806451613,0.3856550272213371
10,0.32258064516129037,0.3788166308362165
11,0.3548387096774194,0.37821726429255476
12,0.3870967741935484,0.39490674333337555
13,0.41935483870967744,0.4012704656717189
14,0.45161290322580644,0.40260133240111323
15,0.4838709677419355,0.40099792140095464
16,0.5161290322580645,0.39264399581723397
17,0.5483870967741935,0.3836447759870361
18,0.5806451612903226,0.3775332804576915
19,0.6129032258064516,0.3815484197614687
20,0.6451612903225807,0.398279141228062
21,0.6774193548387097,0.40092964698712397
22,0.7096774193548387,0.4030625968845202
23,0.7419354838709677,0.3992937084840171
24,0.7741935483870968,0.390231111053985
25,0.8064516129032259,0.3818586821970236
26,0.8387096774193549,0.3766234327591264
27,0.8709677419354839,0.3859605477073008
28,0.9032258064516129,0.4004467629423908
29,0.935483870967742,0.40108512365661364
30,0.967741935483871,0.40296605724444273
31,1.0,0.39726550952405065
