,Phase,diffMag
0,0.0,0.4117186766338367
1,0.03225806451612903,0.41726057421543283
2,0.06451612903225806,0.4029206420451059
3,0.0967741935483871,0.3707668704460564
4,0.12903225806451613,0.3255874047043377
5,0.16129032258064518,0.2734233255319113
6,0.1935483870967742,0.22067372369815036
7,0.22580645161290322,0.1736019260843561
8,0.25806451612903225,0.135776362127381
9,0.2903225806451613,0.10839057657149269
10,0.32258064516129037,0.09083507499696063
11,0.3548387096774194,0.08095085784681635
12,0.3870967741935484,0.07590098871598497
13,0.41935483870967744,0.07322196913664435
14,0.45161290322580644,0.07135897749761327
15,0.4838709677419355,0.06952409968633788
16,0.5161290322580645,0.06739578467671843
17,0.5483870967741935,0.06493649753394871
18,0.5806451612903226,0.062349169059985984
19,0.6129032258064516,0.06016519744676634
20,0.6451612903225807,0.05945141528486786
21,0.6774193548387097,0.06196486399032502
22,0.7096774193548387,0.06991553440198615
23,0.7419354838709677,0.08548975183776737
24,0.7741935483870968,0.11027468798229338
25,0.8064516129032259,0.14472436382248327
26,0.8387096774193549,0.18819103425550626
27,0.8709677419354839,0.239270606496255
28,0.9032258064516129,0.2940912600163666
29,0.935483870967742,0.3455675312883458
30,0.967741935483871,0.3867073485480646
31,1.0,0.41171867663383666
