,Phase,diffMag
0,0.0,0.18213887573342238
1,0.03225806451612903,0.18284800950994481
2,0.06451612903225806,0.17889493657837027
3,0.0967741935483871,0.1705808535304365
4,0.12903225806451613,0.15859323329445743
5,0.16129032258064518,0.14398182835642528
6,0.1935483870967742,0.1279772112658862
7,0.22580645161290322,0.11175097795797267
8,0.25806451612903225,0.09631093560274781
9,0.2903225806451613,0.08243372394335761
10,0.32258064516129037,0.07061214914980098
11,0.3548387096774194,0.06105302259337899
12,0.3870967741935484,0.05370953262074612
13,0.41935483870967744,0.04835828415189627
14,0.45161290322580644,0.044752957575164565
15,0.4838709677419355,0.04269692017556509
16,0.5161290322580645,0.04206019524815261
17,0.5483870967741935,0.042797538368940506
18,0.5806451612903226,0.04494570100766798
19,0.6129032258064516,0.04860496801791186
20,0.6451612903225807,0.053930920924866385
21,0.6774193548387097,0.061104193149835034
22,0.7096774193548387,0.07023845696487249
23,0.7419354838709677,0.08135554457687715
24,0.7741935483870968,0.09435181909943273
25,0.8064516129032259,0.10891603172819707
26,0.8387096774193549,0.12445487299381716
27,0.8709677419354839,0.14010747283755412
28,0.9032258064516129,0.15481903365656788
29,0.935483870967742,0.16743967107521385
30,0.967741935483871,0.176842060120591
31,1.0,0.18213887573342238
