,Phase,diffMag
0,0.0,0.30729070961000793
1,0.03225806451612903,0.313422575519048
2,0.06451612903225806,0.31093058299413673
3,0.0967741935483871,0.29942347973234706
4,0.12903225806451613,0.27776077074271716
5,0.16129032258064518,0.24670418620926943
6,0.1935483870967742,0.2108725644291984
7,0.22580645161290322,0.17613653947511232
8,0.25806451612903225,0.14623853709036327
9,0.2903225806451613,0.1222421801811552
10,0.32258064516129037,0.10368030765651423
11,0.3548387096774194,0.08961532960280079
12,0.3870967741935484,0.0791340252841019
13,0.41935483870967744,0.07149371549905272
14,0.45161290322580644,0.06613780743426248
15,0.4838709677419355,0.06267515569318141
16,0.5161290322580645,0.06085472929738486
17,0.5483870967741935,0.06054565403074373
18,0.5806451612903226,0.06172580535249117
19,0.6129032258064516,0.06447981678217908
20,0.6451612903225807,0.0690066008845821
21,0.6774193548387097,0.07563593541620536
22,0.7096774193548387,0.08485221465050245
23,0.7419354838709677,0.09731910361834718
24,0.7741935483870968,0.11388555162847604
25,0.8064516129032259,0.13551253125823373
26,0.8387096774193549,0.1629582875143871
27,0.8709677419354839,0.1959590319954181
28,0.9032258064516129,0.2319733522928418
29,0.935483870967742,0.26575507024481365
30,0.967741935483871,0.2916568499005974
31,1.0,0.307290709610008
