,Phase,diffMag
0,0.0,0.2956728290262749
1,0.03225806451612903,0.2977484469428495
2,0.06451612903225806,0.2909171486679465
3,0.0967741935483871,0.27598172779921076
4,0.12903225806451613,0.2550320159353605
5,0.16129032258064518,0.23023217175054528
6,0.1935483870967742,0.20342687409249768
7,0.22580645161290322,0.17675684830968943
8,0.25806451612903225,0.15140809222926602
9,0.2903225806451613,0.12846473782387768
10,0.32258064516129037,0.10906652607627706
11,0.3548387096774194,0.0936712350787831
12,0.3870967741935484,0.08210135014361476
13,0.41935483870967744,0.07391139822068792
14,0.45161290322580644,0.06852727789408361
15,0.4838709677419355,0.06538232897349755
16,0.5161290322580645,0.06410857918172752
17,0.5483870967741935,0.06461568272291777
18,0.5806451612903226,0.06704108143325603
19,0.6129032258064516,0.07168016049095131
20,0.6451612903225807,0.07893473447535329
21,0.6774193548387097,0.08925879952296234
22,0.7096774193548387,0.10305984467351273
23,0.7419354838709677,0.1205384324689198
24,0.7741935483870968,0.14151649241554265
25,0.8064516129032259,0.16532842091907754
26,0.8387096774193549,0.19096121707917668
27,0.8709677419354839,0.21758906895390356
28,0.9032258064516129,0.2437971302257278
29,0.935483870967742,0.26694757932233887
30,0.967741935483871,0.2849212725094996
31,1.0,0.2956728290262749
