,Phase,diffMag
0,0.0,0.379607964549134
1,0.03225806451612903,0.3794176932767245
2,0.06451612903225806,0.36847256079342183
3,0.0967741935483871,0.3467626584503342
4,0.12903225806451613,0.31007493788047097
5,0.16129032258064518,0.25826602225942297
6,0.1935483870967742,0.20117097102741932
7,0.22580645161290322,0.1501066416361131
8,0.25806451612903225,0.11032116810865589
9,0.2903225806451613,0.08250929591910773
10,0.32258064516129037,0.0650439691798773
11,0.3548387096774194,0.05519006337398826
12,0.3870967741935484,0.050210668989567164
13,0.41935483870967744,0.04779703948413834
14,0.45161290322580644,0.04640528449044112
15,0.4838709677419355,0.04522157223426298
16,0.5161290322580645,0.04391538247767747
17,0.5483870967741935,0.042464215972041426
18,0.5806451612903226,0.04111272838050744
19,0.6129032258064516,0.04045276264458983
20,0.6451612903225807,0.041562813333713554
21,0.6774193548387097,0.04597117755635796
22,0.7096774193548387,0.055380303259585754
23,0.7419354838709677,0.07147809299951217
24,0.7741935483870968,0.09543211823838486
25,0.8064516129032259,0.12789957827200735
26,0.8387096774193549,0.1691879318184303
27,0.8709677419354839,0.21870856047542203
28,0.9032258064516129,0.27370618605541897
29,0.935483870967742,0.32613142944245826
30,0.967741935483871,0.36345487337337523
31,1.0,0.379607964549134
