,Phase,diffMag
0,0.0,0.11406445826202283
1,0.03225806451612903,0.11638175578619314
2,0.06451612903225806,0.1187627092959498
3,0.0967741935483871,0.12104961235556876
4,0.12903225806451613,0.12307167649365686
5,0.16129032258064518,0.12464974955094371
6,0.1935483870967742,0.1256589236485226
7,0.22580645161290322,0.12609250732062963
8,0.25806451612903225,0.12603482098147745
9,0.2903225806451613,0.12557675087931577
10,0.32258064516129037,0.12476759652728132
11,0.3548387096774194,0.12363910225095415
12,0.3870967741935484,0.12224820328028321
13,0.41935483870967744,0.12067978240011777
14,0.45161290322580644,0.11902497728669396
15,0.4838709677419355,0.11736307007570444
16,0.5161290322580645,0.11575293341811024
17,0.5483870967741935,0.11423096491004749
18,0.5806451612903226,0.1128126897879177
19,0.6129032258064516,0.1114971190177163
20,0.6451612903225807,0.11027457757377354
21,0.6774193548387097,0.10913966699722966
22,0.7096774193548387,0.1081101863414017
23,0.7419354838709677,0.10724606167044654
24,0.7741935483870968,0.10664971906358285
25,0.8064516129032259,0.10643728731196148
26,0.8387096774193549,0.1066940706560977
27,0.8709677419354839,0.10743267759296152
28,0.9032258064516129,0.10859541783960386
29,0.935483870967742,0.11011262206711157
30,0.967741935483871,0.11194707384022
31,1.0,0.11406445826202283
