,Phase,diffMag
0,0.0,0.3980911023253538
1,0.03225806451612903,0.4014681876669421
2,0.06451612903225806,0.4001805946042325
3,0.0967741935483871,0.3928183514662765
4,0.12903225806451613,0.37442436327586104
5,0.16129032258064518,0.3422868505980173
6,0.1935483870967742,0.2987421360563496
7,0.22580645161290322,0.24771618161749315
8,0.25806451612903225,0.1964906725023706
9,0.2903225806451613,0.15324972869305045
10,0.32258064516129037,0.12100170202065766
11,0.3548387096774194,0.09834278989970498
12,0.3870967741935484,0.08275003957360835
13,0.41935483870967744,0.07213249718275899
14,0.45161290322580644,0.06506842599975154
15,0.4838709677419355,0.06066528495026945
16,0.5161290322580645,0.058401190506207734
17,0.5483870967741935,0.05802022726568426
18,0.5806451612903226,0.05948023140916244
19,0.6129032258064516,0.06294421135576157
20,0.6451612903225807,0.0688135744924658
21,0.6774193548387097,0.07780968928755636
22,0.7096774193548387,0.091111867506029
23,0.7419354838709677,0.11052490595137907
24,0.7741935483870968,0.13847636995143084
25,0.8064516129032259,0.17715876692611815
26,0.8387096774193549,0.2258213415844171
27,0.8709677419354839,0.27804234679633255
28,0.9032258064516129,0.3253038510120726
29,0.935483870967742,0.36262020135935785
30,0.967741935483871,0.3867721219911304
31,1.0,0.3980911023253538
