,Phase,diffMag
0,0.0,0.4367858926090377
1,0.03225806451612903,0.439134458629121
2,0.06451612903225806,0.4178610246398182
3,0.0967741935483871,0.37602014885007906
4,0.12903225806451613,0.3199956813197881
5,0.16129032258064518,0.259550283770829
6,0.1935483870967742,0.2046434898532002
7,0.22580645161290322,0.16218170243598506
8,0.25806451612903225,0.13641147306424112
9,0.2903225806451613,0.1271034414776764
10,0.32258064516129037,0.12855295762283286
11,0.3548387096774194,0.1335187564073045
12,0.3870967741935484,0.13825432012441827
13,0.41935483870967744,0.1411135771112907
14,0.45161290322580644,0.14165759873860748
15,0.4838709677419355,0.1399811964554756
16,0.5161290322580645,0.13630348445687046
17,0.5483870967741935,0.13076925906760495
18,0.5806451612903226,0.1234086528343372
19,0.6129032258064516,0.11425051742419653
20,0.6451612903225807,0.10360316834543762
21,0.6774193548387097,0.09260363909313644
22,0.7096774193548387,0.08420428093728548
23,0.7419354838709677,0.08470949131967588
24,0.7741935483870968,0.10021700520197781
25,0.8064516129032259,0.1326296137165543
26,0.8387096774193549,0.1795652087317135
27,0.8709677419354839,0.23719428568551465
28,0.9032258064516129,0.30043154064356503
29,0.935483870967742,0.3616278301746952
30,0.967741935483871,0.4100023412085861
31,1.0,0.43678589260903766
