,Phase,diffMag
0,0.0,0.3835335806163191
1,0.03225806451612903,0.3836489734455917
2,0.06451612903225806,0.36361202231415096
3,0.0967741935483871,0.32755140910073594
4,0.12903225806451613,0.28117606796850103
5,0.16129032258064518,0.22878018985331164
6,0.1935483870967742,0.1762694639686321
7,0.22580645161290322,0.13294149265353356
8,0.25806451612903225,0.1063044805617938
9,0.2903225806451613,0.09692820504524619
10,0.32258064516129037,0.09897640246051463
11,0.3548387096774194,0.10498687502367941
12,0.3870967741935484,0.11080754045985779
13,0.41935483870967744,0.11467694075631443
14,0.45161290322580644,0.11614519866419482
15,0.4838709677419355,0.1153394722741036
16,0.5161290322580645,0.112495284565702
17,0.5483870967741935,0.10776452219706174
18,0.5806451612903226,0.10119429911129153
19,0.6129032258064516,0.09284955553558653
20,0.6451612903225807,0.08309770042180896
21,0.6774193548387097,0.07311005236360114
22,0.7096774193548387,0.06575135700102404
23,0.7419354838709677,0.0666478256635327
24,0.7741935483870968,0.08101448559252197
25,0.8064516129032259,0.11057734433567447
26,0.8387096774193549,0.15323004984088887
27,0.8709677419354839,0.20480374287126432
28,0.9032258064516129,0.2603472497306006
29,0.935483870967742,0.3149526692052258
30,0.967741935483871,0.3597886122367995
31,1.0,0.38353358061631904
