,Phase,diffMag
0,0.0,0.41801467676624793
1,0.03225806451612903,0.41993584506588194
2,0.06451612903225806,0.39975894435200454
3,0.0967741935483871,0.36023590714199305
4,0.12903225806451613,0.30665065132584507
5,0.16129032258064518,0.24792700301227505
6,0.1935483870967742,0.19367439461275082
7,0.22580645161290322,0.15094849584269046
8,0.25806451612903225,0.12498143017876383
9,0.2903225806451613,0.11594477799091539
10,0.32258064516129037,0.11798888027298662
11,0.3548387096774194,0.12364110104964099
12,0.3870967741935484,0.1289639460484908
13,0.41935483870967744,0.1322883008316209
14,0.45161290322580644,0.13320506574875643
15,0.4838709677419355,0.13184718401725573
16,0.5161290322580645,0.12845296742374812
17,0.5483870967741935,0.12317444814139984
18,0.5806451612903226,0.11604719623710011
19,0.6129032258064516,0.1071076799675598
20,0.6451612903225807,0.096679338635712
21,0.6774193548387097,0.08591451089717167
22,0.7096774193548387,0.07775331422254723
23,0.7419354838709677,0.07829606167934729
24,0.7741935483870968,0.09337836808367835
25,0.8064516129032259,0.12492994915611472
26,0.8387096774193549,0.17065566275684346
27,0.8709677419354839,0.22637159096490686
28,0.9032258064516129,0.2871802163459117
29,0.935483870967742,0.34625690795992387
30,0.967741935483871,0.3927370802741317
31,1.0,0.418014676766248
