,Phase,diffMag
0,0.0,0.38320341643961986
1,0.03225806451612903,0.3851030184532876
2,0.06451612903225806,0.37563779097716016
3,0.0967741935483871,0.3564116091173434
4,0.12903225806451613,0.33072010949027164
5,0.16129032258064518,0.30053623054148865
6,0.1935483870967742,0.2675708456957328
7,0.22580645161290322,0.2342797022080987
8,0.25806451612903225,0.2012697501105088
9,0.2903225806451613,0.17060164483149087
10,0.32258064516129037,0.1442254564377469
11,0.3548387096774194,0.12264493048288536
12,0.3870967741935484,0.10616531415496454
13,0.41935483870967744,0.09580317472734602
14,0.45161290322580644,0.09047789146795066
15,0.4838709677419355,0.08753450485132036
16,0.5161290322580645,0.08594046868365533
17,0.5483870967741935,0.0858231026701642
18,0.5806451612903226,0.0874723248722336
19,0.6129032258064516,0.09129667631201412
20,0.6451612903225807,0.09874879851935274
21,0.6774193548387097,0.11203119173075715
22,0.7096774193548387,0.13072366968699106
23,0.7419354838709677,0.1535035340190046
24,0.7741935483870968,0.18008758911644407
25,0.8064516129032259,0.2102554269312005
26,0.8387096774193549,0.24323321990305138
27,0.8709677419354839,0.2784711332591276
28,0.9032258064516129,0.31374491383099484
29,0.935483870967742,0.3448734890931377
30,0.967741935483871,0.3692445937177167
31,1.0,0.3832034164396198
