,Phase,diffMag
0,0.0,0.28212380039280416
1,0.03225806451612903,0.281560148545017
2,0.06451612903225806,0.28180409015897634
3,0.0967741935483871,0.2826901599709093
4,0.12903225806451613,0.28363997273189884
5,0.16129032258064518,0.2840792280424585
6,0.1935483870967742,0.2837608343786343
7,0.22580645161290322,0.2828626512365005
8,0.25806451612903225,0.2819201503914012
9,0.2903225806451613,0.28154194466281546
10,0.32258064516129037,0.28198377877785746
11,0.3548387096774194,0.28294748883413207
12,0.3870967741935484,0.28381431859771344
13,0.41935483870967744,0.28407101882089864
14,0.45161290322580644,0.28357457138472686
15,0.4838709677419355,0.28260541189210425
16,0.5161290322580645,0.2817536591199683
17,0.5483870967741935,0.28157803657210045
18,0.5806451612903226,0.28219779017574337
19,0.6129032258064516,0.28319809204356017
20,0.6451612903225807,0.28394857959859077
21,0.6774193548387097,0.2840135924659112
22,0.7096774193548387,0.2833570728503937
23,0.7419354838709677,0.28235558310197595
24,0.7741935483870968,0.28163181288030126
25,0.8064516129032259,0.2816667690840913
26,0.8387096774193549,0.2824366923081198
27,0.8709677419354839,0.2834319474095319
28,0.9032258064516129,0.28403793410873956
29,0.935483870967742,0.28390896036517466
30,0.967741935483871,0.2831166229734567
31,1.0,0.28212380039280416
