,Phase,diffMag
0,0.0,0.3761616633913158
1,0.03225806451612903,0.37836556615735
2,0.06451612903225806,0.360711458366825
3,0.0967741935483871,0.32617213362969316
4,0.12903225806451613,0.2809665243478186
5,0.16129032258064518,0.23455884107431127
6,0.1935483870967742,0.19551684007918313
7,0.22580645161290322,0.16931010089172424
8,0.25806451612903225,0.15767692492455615
9,0.2903225806451613,0.1569992301924674
10,0.32258064516129037,0.16087852307746592
11,0.3548387096774194,0.1656111386652821
12,0.3870967741935484,0.1691094376159194
13,0.41935483870967744,0.17043265077929312
14,0.45161290322580644,0.1695371997501925
15,0.4838709677419355,0.16676390607855915
16,0.5161290322580645,0.1624376554847425
17,0.5483870967741935,0.15671146040022177
18,0.5806451612903226,0.14955064776948063
19,0.6129032258064516,0.14080104043989863
20,0.6451612903225807,0.13039553255787076
21,0.6774193548387097,0.11880121622991145
22,0.7096774193548387,0.1075744851567756
23,0.7419354838709677,0.10016516405959153
24,0.7741935483870968,0.10340618552648356
25,0.8064516129032259,0.12302622256269763
26,0.8387096774193549,0.15916929897076934
27,0.8709677419354839,0.2068143912914183
28,0.9032258064516129,0.2599252172779285
29,0.935483870967742,0.3118005233681237
30,0.967741935483871,0.3531605707087333
31,1.0,0.3761616633913157
