,Phase,diffMag
0,0.0,0.1089749523237452
1,0.03225806451612903,0.11002767858466468
2,0.06451612903225806,0.10868010721367108
3,0.0967741935483871,0.10559751168049486
4,0.12903225806451613,0.10184781974734071
5,0.16129032258064518,0.09890770859348345
6,0.1935483870967742,0.09815959815042666
7,0.22580645161290322,0.0999458967004712
8,0.25806451612903225,0.10334399732551769
9,0.2903225806451613,0.10752167125287826
10,0.32258064516129037,0.1118299324567452
11,0.3548387096774194,0.11571232675025375
12,0.3870967741935484,0.11862739597423021
13,0.41935483870967744,0.12024926375867143
14,0.45161290322580644,0.12054872444422347
15,0.4838709677419355,0.11967000084732457
16,0.5161290322580645,0.1177897788114738
17,0.5483870967741935,0.11501863631346564
18,0.5806451612903226,0.11137068829911638
19,0.6129032258064516,0.10681129255824212
20,0.6451612903225807,0.10136132829046246
21,0.6774193548387097,0.09523786798952182
22,0.7096774193548387,0.08894148271167772
23,0.7419354838709677,0.08316028409436338
24,0.7741935483870968,0.07883912526090864
25,0.8064516129032259,0.07715291320269042
26,0.8387096774193549,0.07912118228684527
27,0.8709677419354839,0.08436766442198104
28,0.9032258064516129,0.09157451883110937
29,0.935483870967742,0.09908216816022997
30,0.967741935483871,0.10523529295432943
31,1.0,0.10897495232374517
