,Phase,diffMag
0,0.0,0.3111723280226772
1,0.03225806451612903,0.3185589183332378
2,0.06451612903225806,0.31550523780426126
3,0.0967741935483871,0.30224513033880573
4,0.12903225806451613,0.2796938489606749
5,0.16129032258064518,0.2495698258397646
6,0.1935483870967742,0.21512414196094073
7,0.22580645161290322,0.1808082283207503
8,0.25806451612903225,0.15031270118243764
9,0.2903225806451613,0.12526998923213808
10,0.32258064516129037,0.10566723607836744
11,0.3548387096774194,0.09076481217188591
12,0.3870967741935484,0.0796803723975755
13,0.41935483870967744,0.07163367676572197
14,0.45161290322580644,0.06601795258344735
15,0.4838709677419355,0.06240084987001089
16,0.5161290322580645,0.06050398255283979
17,0.5483870967741935,0.0601822722059154
18,0.5806451612903226,0.06141120905895097
19,0.6129032258064516,0.06428457916680747
20,0.6451612903225807,0.06902297620714812
21,0.6774193548387097,0.07599170450311502
22,0.7096774193548387,0.08572291160387005
23,0.7419354838709677,0.0989274813279795
24,0.7741935483870968,0.11646173305453802
25,0.8064516129032259,0.13917232076230868
26,0.8387096774193549,0.1674742041275879
27,0.8709677419354839,0.2005337729223978
28,0.9032258064516129,0.2354732255157093
29,0.935483870967742,0.2678968189351883
30,0.967741935483871,0.29388976244320486
31,1.0,0.3111723280226772
