,Phase,diffMag
0,0.0,0.29447340964228486
1,0.03225806451612903,0.30016550965598165
2,0.06451612903225806,0.2937538099454349
3,0.0967741935483871,0.27720967026683246
4,0.12903225806451613,0.2547556787652537
5,0.16129032258064518,0.2304680337768537
6,0.1935483870967742,0.20663458576428434
7,0.22580645161290322,0.1854792272174611
8,0.25806451612903225,0.1689378825257521
9,0.2903225806451613,0.15743944378664887
10,0.32258064516129037,0.15009097878160435
11,0.3548387096774194,0.14533037359148573
12,0.3870967741935484,0.1418012019854795
13,0.41935483870967744,0.13861185851976598
14,0.45161290322580644,0.13536625113254172
15,0.4838709677419355,0.13197815258331766
16,0.5161290322580645,0.1284688359907003
17,0.5483870967741935,0.12485809558457873
18,0.5806451612903226,0.12114323343720378
19,0.6129032258064516,0.11734521337788996
20,0.6451612903225807,0.11361625568098718
21,0.6774193548387097,0.11037838763887577
22,0.7096774193548387,0.10846751931604787
23,0.7419354838709677,0.10945368254097658
24,0.7741935483870968,0.11569884964912926
25,0.8064516129032259,0.12991592050036405
26,0.8387096774193549,0.1532117209103506
27,0.8709677419354839,0.1837512734223859
28,0.9032258064516129,0.21750407642015354
29,0.935483870967742,0.2498917444553425
30,0.967741935483871,0.2768678146530977
31,1.0,0.29447340964228486
