,Phase,diffMag
0,0.0,0.2682466350475155
1,0.03225806451612903,0.26709657778384494
2,0.06451612903225806,0.26784468156093133
3,0.0967741935483871,0.2699992326490749
4,0.12903225806451613,0.2721306879642081
5,0.16129032258064518,0.27294507284029484
6,0.1935483870967742,0.2720386948698219
7,0.22580645161290322,0.26991072988539877
8,0.25806451612903225,0.2678056620854802
9,0.2903225806451613,0.2671018408493109
10,0.32258064516129037,0.2682982103200054
11,0.3548387096774194,0.2705960937073195
12,0.3870967741935484,0.27249050874437925
13,0.41935483870967744,0.2728746306480131
14,0.45161290322580644,0.2715834466369958
15,0.4838709677419355,0.2693228157643864
16,0.5161290322580645,0.2674570722292902
17,0.5483870967741935,0.267232912760395
18,0.5806451612903226,0.2688244902928612
19,0.6129032258064516,0.27116526572125654
20,0.6451612903225807,0.272750829841711
21,0.6774193548387097,0.27269538308606805
22,0.7096774193548387,0.271063840558743
23,0.7419354838709677,0.26875997161286014
24,0.7741935483870968,0.26721694991831263
25,0.8064516129032259,0.26748422050653037
26,0.8387096774193549,0.2693999971605955
27,0.8709677419354839,0.2716835060952262
28,0.9032258064516129,0.2729036868576205
29,0.935483870967742,0.2724135830170375
30,0.967741935483871,0.2704989967319363
31,1.0,0.26824663504751545
