,Phase,diffMag
0,0.0,0.49983185318987455
1,0.03225806451612903,0.47884590700328306
2,0.06451612903225806,0.4655615362196248
3,0.0967741935483871,0.46931891607520604
4,0.12903225806451613,0.48791153947850463
5,0.16129032258064518,0.508317851268407
6,0.1935483870967742,0.517049550564621
7,0.22580645161290322,0.5118410386405594
8,0.25806451612903225,0.49470411872919
9,0.2903225806451613,0.47425443811777757
10,0.32258064516129037,0.464787768209959
11,0.3548387096774194,0.4729232232957747
12,0.3870967741935484,0.49350747722826294
13,0.41935483870967744,0.5118682057770392
14,0.45161290322580644,0.5169873401178195
15,0.4838709677419355,0.5085332062845205
16,0.5161290322580645,0.48932780339483406
17,0.5483870967741935,0.4703997425904546
18,0.5806451612903226,0.4651713753382407
19,0.6129032258064516,0.47736283656721307
20,0.6451612903225807,0.49894467512918794
21,0.6774193548387097,0.514517141555974
22,0.7096774193548387,0.5160856839372435
23,0.7419354838709677,0.5044956216698094
24,0.7741935483870968,0.48395405081038845
25,0.8064516129032259,0.4674590533312203
26,0.8387096774193549,0.4667006613332059
27,0.8709677419354839,0.48243934767100316
28,0.9032258064516129,0.5039562539005414
29,0.935483870967742,0.5162383446947912
30,0.967741935483871,0.5143658628805075
31,1.0,0.49983185318987455
