,Phase,diffMag
0,0.0,0.33045174288013407
1,0.03225806451612903,0.338347301776259
2,0.06451612903225806,0.3372115562792589
3,0.0967741935483871,0.33779001416960575
4,0.12903225806451613,0.33716299178559783
5,0.16129032258064518,0.3200048804056434
6,0.1935483870967742,0.2770906676240266
7,0.22580645161290322,0.2238851344711408
8,0.25806451612903225,0.17781699740192458
9,0.2903225806451613,0.14315299000393733
10,0.32258064516129037,0.11790183821874733
11,0.3548387096774194,0.09945434703940721
12,0.3870967741935484,0.08588330015807497
13,0.41935483870967744,0.07590012923169367
14,0.45161290322580644,0.06864714707384535
15,0.4838709677419355,0.06354818192675621
16,0.5161290322580645,0.06022020859307284
17,0.5483870967741935,0.05842258535625205
18,0.5806451612903226,0.05802835146171229
19,0.6129032258064516,0.059009946913689354
20,0.6451612903225807,0.06143618221700684
21,0.6774193548387097,0.0654798491141484
22,0.7096774193548387,0.07143754552189417
23,0.7419354838709677,0.07976644809185933
24,0.7741935483870968,0.0911485750690504
25,0.8064516129032259,0.10660216470321338
26,0.8387096774193549,0.12766114761580521
27,0.8709677419354839,0.15656921431203172
28,0.9032258064516129,0.1959999521827281
29,0.935483870967742,0.24632449796045605
30,0.967741935483871,0.2979126765691724
31,1.0,0.3304517428801341
