,Phase,diffMag
0,0.0,0.32766900306879565
1,0.03225806451612903,0.3494813463660941
2,0.06451612903225806,0.3597761900362796
3,0.0967741935483871,0.35694924306329706
4,0.12903225806451613,0.3414854214777575
5,0.16129032258064518,0.3154643887130873
6,0.1935483870967742,0.2809239067193283
7,0.22580645161290322,0.24046551236078614
8,0.25806451612903225,0.19893547248914695
9,0.2903225806451613,0.16154084870875446
10,0.32258064516129037,0.13103050489734544
11,0.3548387096774194,0.10762543738992152
12,0.3870967741935484,0.09029509203387834
13,0.41935483870967744,0.07773589092207073
14,0.45161290322580644,0.06881299884816604
15,0.4838709677419355,0.06267573459448518
16,0.5161290322580645,0.0587399362845155
17,0.5483870967741935,0.056638733538286676
18,0.5806451612903226,0.056180325286364914
19,0.6129032258064516,0.0573233223362809
20,0.6451612903225807,0.06017123975509025
21,0.6774193548387097,0.06498615400972056
22,0.7096774193548387,0.07222127446262207
23,0.7419354838709677,0.08256844800519535
24,0.7741935483870968,0.09700138071085665
25,0.8064516129032259,0.11675422350867136
26,0.8387096774193549,0.1430960900324299
27,0.8709677419354839,0.17667894741170145
28,0.9032258064516129,0.21634264260999025
29,0.935483870967742,0.25811767800080876
30,0.967741935483871,0.29651711384761054
31,1.0,0.3276690030687957
