,Phase,diffMag
0,0.0,0.24681832267477855
1,0.03225806451612903,0.2577377335689528
2,0.06451612903225806,0.2561813775527911
3,0.0967741935483871,0.2537454557989069
4,0.12903225806451613,0.2541853117565881
5,0.16129032258064518,0.2515863265681527
6,0.1935483870967742,0.23513951454902396
7,0.22580645161290322,0.20905133665560885
8,0.25806451612903225,0.1855242380521621
9,0.2903225806451613,0.16906425150229326
10,0.32258064516129037,0.15816644092377044
11,0.3548387096774194,0.15024788476302744
12,0.3870967741935484,0.14349672122246981
13,0.41935483870967744,0.13706792893380004
14,0.45161290322580644,0.13075296567412104
15,0.4838709677419355,0.12460171316183404
16,0.5161290322580645,0.1186961068298627
17,0.5483870967741935,0.11307028345187012
18,0.5806451612903226,0.10770162968961607
19,0.6129032258064516,0.1025284423574071
20,0.6451612903225807,0.09748660152924885
21,0.6774193548387097,0.09257874363338339
22,0.7096774193548387,0.0879864674215024
23,0.7419354838709677,0.08419620884578141
24,0.7741935483870968,0.08219262089390876
25,0.8064516129032259,0.08390951487769048
26,0.8387096774193549,0.09220358766202419
27,0.8709677419354839,0.10941626255412015
28,0.9032258064516129,0.13676173036107422
29,0.935483870967742,0.1736796663086992
30,0.967741935483871,0.2151305395541417
31,1.0,0.2468183226747785
