,Phase,diffMag
0,0.0,0.6318953660624268
1,0.03225806451612903,0.6416000130207187
2,0.06451612903225806,0.6170177945193316
3,0.0967741935483871,0.5717218068934079
4,0.12903225806451613,0.5212975383214962
5,0.16129032258064518,0.4830909258155125
6,0.1935483870967742,0.4350469073209051
7,0.22580645161290322,0.3866890715580606
8,0.25806451612903225,0.3341701109379185
9,0.2903225806451613,0.27958265289049017
10,0.32258064516129037,0.23712175830952703
11,0.3548387096774194,0.21113139742287312
12,0.3870967741935484,0.19666771568595884
13,0.41935483870967744,0.18730146340627218
14,0.45161290322580644,0.17915391139872
15,0.4838709677419355,0.17054117211325834
16,0.5161290322580645,0.1610359133904305
17,0.5483870967741935,0.15063606024598764
18,0.5806451612903226,0.13934942668043196
19,0.6129032258064516,0.12716832347645501
20,0.6451612903225807,0.11427999632292005
21,0.6774193548387097,0.101511459563531
22,0.7096774193548387,0.09129486035394395
23,0.7419354838709677,0.09000277165811461
24,0.7741935483870968,0.10534020824724627
25,0.8064516129032259,0.1409873495018622
26,0.8387096774193549,0.19474880945338627
27,0.8709677419354839,0.2685597499294318
28,0.9032258064516129,0.37743368152128526
29,0.935483870967742,0.48569601222953074
30,0.967741935483871,0.5754765592407349
31,1.0,0.6318953660624267
