,Phase,diffMag
0,0.0,0.08770926268174806
1,0.03225806451612903,0.09062442662790099
2,0.06451612903225806,0.09156585263464144
3,0.0967741935483871,0.09109420252527034
4,0.12903225806451613,0.09004205794763186
5,0.16129032258064518,0.0895900855122993
6,0.1935483870967742,0.09097775398843297
7,0.22580645161290322,0.0943663909221443
8,0.25806451612903225,0.09855518102367718
9,0.2903225806451613,0.10266232978398009
10,0.32258064516129037,0.10624945521077162
11,0.3548387096774194,0.10902193520450132
12,0.3870967741935484,0.11062297686274483
13,0.41935483870967744,0.1108378815315279
14,0.45161290322580644,0.10971937499401303
15,0.4838709677419355,0.107469727417947
16,0.5161290322580645,0.10431166805247596
17,0.5483870967741935,0.1004113405803555
18,0.5806451612903226,0.0958516606558492
19,0.6129032258064516,0.09065589107797077
20,0.6451612903225807,0.08485002801399155
21,0.6774193548387097,0.07856215406374684
22,0.7096774193548387,0.07213391837476103
23,0.7419354838709677,0.06607869538224907
24,0.7741935483870968,0.06112202164242153
25,0.8064516129032259,0.05831009385479956
26,0.8387096774193549,0.05878023257570234
27,0.8709677419354839,0.06255457724248929
28,0.9032258064516129,0.06869770802478598
29,0.935483870967742,0.07588056260516658
30,0.967741935483871,0.08262312396256967
31,1.0,0.08770926268174804
