,Phase,diffMag
0,0.0,0.11032939325866019
1,0.03225806451612903,0.1139002537862723
2,0.06451612903225806,0.11497495814517959
3,0.0967741935483871,0.11421666959790233
4,0.12903225806451613,0.11244875619638856
5,0.16129032258064518,0.11092431991301026
6,0.1935483870967742,0.11113008254796283
7,0.22580645161290322,0.11334333388077963
8,0.25806451612903225,0.1162521795894226
9,0.2903225806451613,0.11905022476925292
10,0.32258064516129037,0.12151175459376076
11,0.3548387096774194,0.12345576532956459
12,0.3870967741935484,0.12448432818429529
13,0.41935483870967744,0.12422817092317022
14,0.45161290322580644,0.12262127266225527
15,0.4838709677419355,0.11983379432267939
16,0.5161290322580645,0.11611188201641452
17,0.5483870967741935,0.11165714978654566
18,0.5806451612903226,0.10656982999420807
19,0.6129032258064516,0.10087022279687755
20,0.6451612903225807,0.09458380100636253
21,0.6774193548387097,0.08787105679757691
22,0.7096774193548387,0.08114489844521483
23,0.7419354838709677,0.07501823437250307
24,0.7741935483870968,0.07039838811095318
25,0.8064516129032259,0.06852872685840883
26,0.8387096774193549,0.07061939004973426
27,0.8709677419354839,0.07654897880728474
28,0.9032258064516129,0.08516347230621989
29,0.935483870967742,0.09488251983921629
30,0.967741935483871,0.10382345340751352
31,1.0,0.11032939325866019
