,Phase,diffMag
0,0.0,0.5315927552415203
1,0.03225806451612903,0.5270527151420772
2,0.06451612903225806,0.506932749092905
3,0.0967741935483871,0.48133404278217445
4,0.12903225806451613,0.4592599501074971
5,0.16129032258064518,0.4492324072127158
6,0.1935483870967742,0.42744055134156733
7,0.22580645161290322,0.3995292608875148
8,0.25806451612903225,0.36154687825484005
9,0.2903225806451613,0.31626866830068506
10,0.32258064516129037,0.276133418785472
11,0.3548387096774194,0.2485683950005035
12,0.3870967741935484,0.2355003116571947
13,0.41935483870967744,0.23548007967653192
14,0.45161290322580644,0.23826932597817876
15,0.4838709677419355,0.2282982772931038
16,0.5161290322580645,0.20591460179264995
17,0.5483870967741935,0.18363364561688036
18,0.5806451612903226,0.1689936930909268
19,0.6129032258064516,0.16347804723061157
20,0.6451612903225807,0.1677756339467713
21,0.6774193548387097,0.1820289376912112
22,0.7096774193548387,0.19815461747843544
23,0.7419354838709677,0.2065530692415734
24,0.7741935483870968,0.21403788765353446
25,0.8064516129032259,0.23317472891766
26,0.8387096774193549,0.269215063688071
27,0.8709677419354839,0.3206773169659343
28,0.9032258064516129,0.3943835509653488
29,0.935483870967742,0.46033956362404393
30,0.967741935483871,0.5077647337571564
31,1.0,0.5315927552415203
