,Phase,diffMag
0,0.0,0.2825552047434152
1,0.03225806451612903,0.28118571275243737
2,0.06451612903225806,0.2803343690052822
3,0.0967741935483871,0.2805813692936683
4,0.12903225806451613,0.2817554714478943
5,0.16129032258064518,0.28307647725535784
6,0.1935483870967742,0.2837452057269012
7,0.22580645161290322,0.28339420383660363
8,0.25806451612903225,0.28221300452184755
9,0.2903225806451613,0.2808916496459777
10,0.32258064516129037,0.2802855861415355
11,0.3548387096774194,0.28081195111157226
12,0.3870967741935484,0.2821076502678608
13,0.41935483870967744,0.2833283760802878
14,0.45161290322580644,0.2837552789272121
15,0.4838709677419355,0.28315712383966635
16,0.5161290322580645,0.28186097271230515
17,0.5483870967741935,0.28064462630651843
18,0.5806451612903226,0.28031189487975394
19,0.6129032258064516,0.2810931994921287
20,0.6451612903225807,0.28245428416512836
21,0.6774193548387097,0.2835280785439667
22,0.7096774193548387,0.2836985011413419
23,0.7419354838709677,0.28287397717128354
24,0.7741935483870968,0.2815136114863505
25,0.8064516129032259,0.2804559473339547
26,0.8387096774193549,0.2804120561297777
27,0.8709677419354839,0.28141240666200923
28,0.9032258064516129,0.28278144705747443
29,0.935483870967742,0.2836686168589842
30,0.967741935483871,0.28357676908281865
31,1.0,0.28255520474341517
