,Phase,diffMag
0,0.0,0.5017578647950683
1,0.03225806451612903,0.5217642458818567
2,0.06451612903225806,0.5095724665445082
3,0.0967741935483871,0.47065899538910944
4,0.12903225806451613,0.4147894375331705
5,0.16129032258064518,0.359085671014699
6,0.1935483870967742,0.3004630572444432
7,0.22580645161290322,0.2565157417791435
8,0.25806451612903225,0.22681586651968916
9,0.2903225806451613,0.20490842873545972
10,0.32258064516129037,0.19002215384596507
11,0.3548387096774194,0.1806771128756393
12,0.3870967741935484,0.1747712396315341
13,0.41935483870967744,0.16967758450685427
14,0.45161290322580644,0.16382968904999998
15,0.4838709677419355,0.15667977415151219
16,0.5161290322580645,0.14823066694538575
17,0.5483870967741935,0.1386200458403258
18,0.5806451612903226,0.12790938360423332
19,0.6129032258064516,0.11612017179685553
20,0.6451612903225807,0.10345920914170945
21,0.6774193548387097,0.09077918111330063
22,0.7096774193548387,0.08052501221994071
23,0.7419354838709677,0.07859771555329745
24,0.7741935483870968,0.09136774231824177
25,0.8064516129032259,0.121265020649958
26,0.8387096774193549,0.16558770321734032
27,0.8709677419354839,0.22191216767720018
28,0.9032258064516129,0.29868334533187035
29,0.935483870967742,0.3768360210203551
30,0.967741935483871,0.4480194681051905
31,1.0,0.5017578647950683
