,Phase,diffMag
0,0.0,0.18090611586000135
1,0.03225806451612903,0.18468959112829703
2,0.06451612903225806,0.18363276369694004
3,0.0967741935483871,0.17780422850077088
4,0.12903225806451613,0.16763898558439677
5,0.16129032258064518,0.15397700970785017
6,0.1935483870967742,0.13804367695384523
7,0.22580645161290322,0.1211807519203415
8,0.25806451612903225,0.1045688591916664
9,0.2903225806451613,0.08918537043792739
10,0.32258064516129037,0.07577753667730075
11,0.3548387096774194,0.06476247091587392
12,0.3870967741935484,0.05619328419150435
13,0.41935483870967744,0.04984987353941573
14,0.45161290322580644,0.045437331966884154
15,0.4838709677419355,0.04269620496269897
16,0.5161290322580645,0.04143572167247618
17,0.5483870967741935,0.041559523045230314
18,0.5806451612903226,0.04306176164920922
19,0.6129032258064516,0.04600377466786401
20,0.6451612903225807,0.05050185063336911
21,0.6774193548387097,0.05670605090441243
22,0.7096774193548387,0.06472745417751632
23,0.7419354838709677,0.07463573422915677
24,0.7741935483870968,0.08644354702766284
25,0.8064516129032259,0.10002917817060836
26,0.8387096774193549,0.11503292931252326
27,0.8709677419354839,0.13080153143639595
28,0.9032258064516129,0.146404077224862
29,0.935483870967742,0.16074627578242998
30,0.967741935483871,0.17263904554434448
31,1.0,0.1809061158600014
