,Phase,diffMag
0,0.0,0.6002729838354077
1,0.03225806451612903,0.5918921047406395
2,0.06451612903225806,0.5549576412081596
3,0.0967741935483871,0.525706667780254
4,0.12903225806451613,0.5213221670548653
5,0.16129032258064518,0.5477809339880563
6,0.1935483870967742,0.5885009866521733
7,0.22580645161290322,0.6025721871411291
8,0.25806451612903225,0.5832708701753553
9,0.2903225806451613,0.527015878653176
10,0.32258064516129037,0.44784953205503286
11,0.3548387096774194,0.38065647547991055
12,0.3870967741935484,0.34202977196821477
13,0.41935483870967744,0.33478265815638614
14,0.45161290322580644,0.345537861730701
15,0.4838709677419355,0.34054536276363206
16,0.5161290322580645,0.30161295075214833
17,0.5483870967741935,0.25361659209836884
18,0.5806451612903226,0.2205269694999608
19,0.6129032258064516,0.2066050491481591
20,0.6451612903225807,0.21114764807808417
21,0.6774193548387097,0.23315555154618256
22,0.7096774193548387,0.2596505879205914
23,0.7419354838709677,0.2622319482312563
24,0.7741935483870968,0.2399591144301878
25,0.8064516129032259,0.2280153306758029
26,0.8387096774193549,0.2489038958162754
27,0.8709677419354839,0.30260284500686935
28,0.9032258064516129,0.3871974168815754
29,0.935483870967742,0.49052016375748564
30,0.967741935483871,0.5674345464969186
31,1.0,0.6002729838354076
