,Phase,diffMag
0,0.0,0.22566670374281403
1,0.03225806451612903,0.2383429694259197
2,0.06451612903225806,0.24959018148821924
3,0.0967741935483871,0.26007347051642865
4,0.12903225806451613,0.26870474422360596
5,0.16129032258064518,0.27427917533719265
6,0.1935483870967742,0.2757187620749627
7,0.22580645161290322,0.2713812776179499
8,0.25806451612903225,0.2599661444457608
9,0.2903225806451613,0.2432147831112621
10,0.32258064516129037,0.22550879838966956
11,0.3548387096774194,0.21010648284844233
12,0.3870967741935484,0.19753014049779852
13,0.41935483870967744,0.18683547050108407
14,0.45161290322580644,0.17714370934162113
15,0.4838709677419355,0.1681154159144886
16,0.5161290322580645,0.1598037396533946
17,0.5483870967741935,0.15241003785468824
18,0.5806451612903226,0.14607368067404616
19,0.6129032258064516,0.14081218999086947
20,0.6451612903225807,0.13656825559134006
21,0.6774193548387097,0.13326650518436242
22,0.7096774193548387,0.13091257782961457
23,0.7419354838709677,0.12975212474747802
24,0.7741935483870968,0.1303951953259833
25,0.8064516129032259,0.13376931085427654
26,0.8387096774193549,0.14097043446685772
27,0.8709677419354839,0.15299585830998735
28,0.9032258064516129,0.1699426819722062
29,0.935483870967742,0.1899486176427849
30,0.967741935483871,0.20951616383559843
31,1.0,0.22566670374281403
