,Phase,diffMag
0,0.0,0.4472950178749887
1,0.03225806451612903,0.49059450736240334
2,0.06451612903225806,0.47528836295222726
3,0.0967741935483871,0.44796356988020014
4,0.12903225806451613,0.4315542037563178
5,0.16129032258064518,0.42265198988865127
6,0.1935483870967742,0.3869202812984603
7,0.22580645161290322,0.30046286950253936
8,0.25806451612903225,0.2069067340247628
9,0.2903225806451613,0.14001116355969834
10,0.32258064516129037,0.09921832633951506
11,0.3548387096774194,0.07589274668483909
12,0.3870967741935484,0.0628493673481833
13,0.41935483870967744,0.05514426330314086
14,0.45161290322580644,0.04988481631929659
15,0.4838709677419355,0.045640022099844295
16,0.5161290322580645,0.04181130651824548
17,0.5483870967741935,0.038241238363841204
18,0.5806451612903226,0.035055490349845904
19,0.6129032258064516,0.032663211413751905
20,0.6451612903225807,0.031834124104657115
21,0.6774193548387097,0.03363914525394992
22,0.7096774193548387,0.03922246225466852
23,0.7419354838709677,0.049714368154461376
24,0.7741935483870968,0.06594494449091377
25,0.8064516129032259,0.08865406884910522
26,0.8387096774193549,0.11884666730207032
27,0.8709677419354839,0.15773372410078076
28,0.9032258064516129,0.2072834930799717
29,0.935483870967742,0.2717871780851216
30,0.967741935483871,0.3567615469315729
31,1.0,0.44729501787498854
