,Phase,diffMag
0,0.0,0.17142377535175743
1,0.03225806451612903,0.17852168194728796
2,0.06451612903225806,0.17860480041601481
3,0.0967741935483871,0.1728088854786009
4,0.12903225806451613,0.16171792988755218
5,0.16129032258064518,0.14582381875845632
6,0.1935483870967742,0.12733728865498134
7,0.22580645161290322,0.10984581106617286
8,0.25806451612903225,0.0948914936135243
9,0.2903225806451613,0.08281590828443212
10,0.32258064516129037,0.07433691306425255
11,0.3548387096774194,0.06954511945069453
12,0.3870967741935484,0.06744504610267658
13,0.41935483870967744,0.0662965944877978
14,0.45161290322580644,0.06490981661417128
15,0.4838709677419355,0.06270802579597035
16,0.5161290322580645,0.059544679272472006
17,0.5483870967741935,0.055542767108758925
18,0.5806451612903226,0.05099640176652973
19,0.6129032258064516,0.04635191770075597
20,0.6451612903225807,0.042293409912759566
21,0.6774193548387097,0.03995402705226107
22,0.7096774193548387,0.04038555155370333
23,0.7419354838709677,0.044481234885496185
24,0.7741935483870968,0.052694883611687476
25,0.8064516129032259,0.06492896514608232
26,0.8387096774193549,0.08072389519435375
27,0.8709677419354839,0.09922170883194154
28,0.9032258064516129,0.11904575844096658
29,0.935483870967742,0.13877625478859287
30,0.967741935483871,0.1571812212524778
31,1.0,0.17142377535175743
