,Phase,diffMag
0,0.0,0.43134731402685617
1,0.03225806451612903,0.4717104453091838
2,0.06451612903225806,0.4795457741481142
3,0.0967741935483871,0.4686722399189788
4,0.12903225806451613,0.4463762953483735
5,0.16129032258064518,0.411561757012531
6,0.1935483870967742,0.3576629599745821
7,0.22580645161290322,0.2860146237813253
8,0.25806451612903225,0.21395624615052247
9,0.2903225806451613,0.1563996445588749
10,0.32258064516129037,0.11711888816811175
11,0.3548387096774194,0.09291239098010509
12,0.3870967741935484,0.07844437082831159
13,0.41935483870967744,0.06929400242315728
14,0.45161290322580644,0.06268962053183094
15,0.4838709677419355,0.05721792050239139
16,0.5161290322580645,0.05225413977828783
17,0.5483870967741935,0.047602146135350756
18,0.5806451612903226,0.04333781649414733
19,0.6129032258064516,0.03980881720757381
20,0.6451612903225807,0.03776336384319532
21,0.6774193548387097,0.03833935680303433
22,0.7096774193548387,0.04291564048757287
23,0.7419354838709677,0.05281359650426095
24,0.7741935483870968,0.0692405455461192
25,0.8064516129032259,0.093177725977539
26,0.8387096774193549,0.1257232531075985
27,0.8709677419354839,0.16799180653414253
28,0.9032258064516129,0.22117218286482834
29,0.935483870967742,0.28656202276260506
30,0.967741935483871,0.3618170199222919
31,1.0,0.43134731402685605
