,Phase,diffMag
0,0.0,0.4131694404186684
1,0.03225806451612903,0.4038165076307325
2,0.06451612903225806,0.3884801176433526
3,0.0967741935483871,0.3795469229978712
4,0.12903225806451613,0.38404479525117596
5,0.16129032258064518,0.3985584027787843
6,0.1935483870967742,0.41102667821141825
7,0.22580645161290322,0.4145980481667285
8,0.25806451612903225,0.41175860855116125
9,0.2903225806451613,0.4001172628146198
10,0.32258064516129037,0.385192251242897
11,0.3548387096774194,0.37936738021826394
12,0.3870967741935484,0.38710323121513174
13,0.41935483870967744,0.4023832224733595
14,0.45161290322580644,0.41267542042640004
15,0.4838709677419355,0.4144994022575182
16,0.5161290322580645,0.40973310565788035
17,0.5483870967741935,0.3961704934606652
18,0.5806451612903226,0.38252634327006735
19,0.6129032258064516,0.3800841983963566
20,0.6451612903225807,0.39068178662921843
21,0.6774193548387097,0.405833679776109
22,0.7096774193548387,0.4137548934681508
23,0.7419354838709677,0.4140489886938517
24,0.7741935483870968,0.40706739959336596
25,0.8064516129032259,0.3922117730435275
26,0.8387096774193549,0.38061529071308875
27,0.8709677419354839,0.3816669128219951
28,0.9032258064516129,0.3945777488706099
29,0.935483870967742,0.4087444060409363
30,0.967741935483871,0.41436506081720037
31,1.0,0.4131694404186683
