,Phase,diffMag
0,0.0,0.3593634129728816
1,0.03225806451612903,0.3985162255839509
2,0.06451612903225806,0.4053989536562081
3,0.0967741935483871,0.40398109598379955
4,0.12903225806451613,0.40489791575708933
5,0.16129032258064518,0.40338221804732893
6,0.1935483870967742,0.3775948846887227
7,0.22580645161290322,0.3162274893987052
8,0.25806451612903225,0.24544825504453274
9,0.2903225806451613,0.18766996595038
10,0.32258064516129037,0.14604647880404373
11,0.3548387096774194,0.116873390504907
12,0.3870967741935484,0.09628709717737985
13,0.41935483870967744,0.08159372485108025
14,0.45161290322580644,0.07106649236961389
15,0.4838709677419355,0.06359534173551833
16,0.5161290322580645,0.05845725721395758
17,0.5483870967741935,0.055185955200587083
18,0.5806451612903226,0.053497980906717285
19,0.6129032258064516,0.05325129636970682
20,0.6451612903225807,0.05442539065214806
21,0.6774193548387097,0.057118450931913915
22,0.7096774193548387,0.061561002259992996
23,0.7419354838709677,0.0681489676297436
24,0.7741935483870968,0.07750433383149603
25,0.8064516129032259,0.09058182111198153
26,0.8387096774193549,0.1088581153768796
27,0.8709677419354839,0.1346453719902185
28,0.9032258064516129,0.17141997186553676
29,0.935483870967742,0.22331415513665573
30,0.967741935483871,0.29089207861311644
31,1.0,0.35936341297288155
