,Phase,diffMag
0,0.0,0.2532500161339621
1,0.03225806451612903,0.25676906957132184
2,0.06451612903225806,0.2548778314862139
3,0.0967741935483871,0.24907897648900257
4,0.12903225806451613,0.24295535188090878
5,0.16129032258064518,0.2416768992669734
6,0.1935483870967742,0.24768859990204292
7,0.22580645161290322,0.25066924403955376
8,0.25806451612903225,0.25439935090026156
9,0.2903225806451613,0.2568685462221468
10,0.32258064516129037,0.25362583866409966
11,0.3548387096774194,0.24747651341353363
12,0.3870967741935484,0.24180082362485125
13,0.41935483870967744,0.24292234601095902
14,0.45161290322580644,0.2488724184403125
15,0.4838709677419355,0.2512845622996571
16,0.5161290322580645,0.25545446668515864
17,0.5483870967741935,0.2565635547606029
18,0.5806451612903226,0.2521998253346049
19,0.6129032258064516,0.24589098501648032
20,0.6451612903225807,0.24109135010915062
21,0.6774193548387097,0.24451523377880663
22,0.7096774193548387,0.24968443564783424
23,0.7419354838709677,0.25216388461995454
24,0.7741935483870968,0.2562782657138604
25,0.8064516129032259,0.2558811512743911
26,0.8387096774193549,0.250666512230915
27,0.8709677419354839,0.24436103666865053
28,0.9032258064516129,0.24102598327531244
29,0.935483870967742,0.24618272891327433
30,0.967741935483871,0.25021284235101565
31,1.0,0.25325001613396203
