,Phase,diffMag
0,0.0,0.6197461856917765
1,0.03225806451612903,0.6494923724890763
2,0.06451612903225806,0.6308225974000384
3,0.0967741935483871,0.5935816461912001
4,0.12903225806451613,0.5576427580319704
5,0.16129032258064518,0.5295885031636823
6,0.1935483870967742,0.5034920315243088
7,0.22580645161290322,0.4686113147483114
8,0.25806451612903225,0.42915913359974517
9,0.2903225806451613,0.37467056599415316
10,0.32258064516129037,0.3087899516747752
11,0.3548387096774194,0.25862989600013114
12,0.3870967741935484,0.22886574721900987
13,0.41935483870967744,0.21004634006769365
14,0.45161290322580644,0.19488029706335167
15,0.4838709677419355,0.18039399953178917
16,0.5161290322580645,0.16601516147977732
17,0.5483870967741935,0.15178849018759433
18,0.5806451612903226,0.13768943940016842
19,0.6129032258064516,0.12356930973932612
20,0.6451612903225807,0.10933926634887914
21,0.6774193548387097,0.09538672026632934
22,0.7096774193548387,0.08305308548996804
23,0.7419354838709677,0.07547037158568888
24,0.7741935483870968,0.07902595700258717
25,0.8064516129032259,0.10019969286020153
26,0.8387096774193549,0.1431547517864544
27,0.8709677419354839,0.21170831692373912
28,0.9032258064516129,0.3122330358294085
29,0.935483870967742,0.43398450309617265
30,0.967741935483871,0.5427872780843864
31,1.0,0.6197461856917765
