,Phase,diffMag
0,0.0,0.3562524998177497
1,0.03225806451612903,0.36498693225534473
2,0.06451612903225806,0.36668941770003116
3,0.0967741935483871,0.37259884572221175
4,0.12903225806451613,0.385870325218158
5,0.16129032258064518,0.4023610023519903
6,0.1935483870967742,0.41172941614687586
7,0.22580645161290322,0.4059650270277681
8,0.25806451612903225,0.3846962111733046
9,0.2903225806451613,0.3479301022203723
10,0.32258064516129037,0.30600292479208263
11,0.3548387096774194,0.2721359218263863
12,0.3870967741935484,0.24901771506841847
13,0.41935483870967744,0.2333265916952957
14,0.45161290322580644,0.22076451642597694
15,0.4838709677419355,0.20820795634490805
16,0.5161290322580645,0.1952429071623638
17,0.5483870967741935,0.18363891548533104
18,0.5806451612903226,0.1749582155973225
19,0.6129032258064516,0.16937945258614429
20,0.6451612903225807,0.16638574069460868
21,0.6774193548387097,0.1651755130086729
22,0.7096774193548387,0.1645783526891076
23,0.7419354838709677,0.16413533673675124
24,0.7741935483870968,0.16575314300638383
25,0.8064516129032259,0.1732028720035582
26,0.8387096774193549,0.19007012505668627
27,0.8709677419354839,0.21881368044102037
28,0.9032258064516129,0.2588686403966414
29,0.935483870967742,0.30143226067288803
30,0.967741935483871,0.3347905673734551
31,1.0,0.3562524998177497
