,Phase,diffMag
0,0.0,0.7631609541803333
1,0.03225806451612903,0.7147755280910812
2,0.06451612903225806,0.651071573106941
3,0.0967741935483871,0.6174895359141004
4,0.12903225806451613,0.6330501497256049
5,0.16129032258064518,0.6922152206348928
6,0.1935483870967742,0.755754298748439
7,0.22580645161290322,0.775677212209148
8,0.25806451612903225,0.7544377104300664
9,0.2903225806451613,0.6984066513630814
10,0.32258064516129037,0.6385439986760193
11,0.3548387096774194,0.6166397661769831
12,0.3870967741935484,0.6445145105435595
13,0.41935483870967744,0.7101382065439954
14,0.45161290322580644,0.765465081211848
15,0.4838709677419355,0.7737458127677879
16,0.5161290322580645,0.7433364897942669
17,0.5483870967741935,0.6817420289219684
18,0.5806451612903226,0.6285829328708351
19,0.6129032258064516,0.6189797639637891
20,0.6451612903225807,0.6585656577947602
21,0.6774193548387097,0.7273865475199558
22,0.7096774193548387,0.7718757102868601
23,0.7419354838709677,0.7695669217604351
24,0.7741935483870968,0.7299805853585607
25,0.8064516129032259,0.6656900760331355
26,0.8387096774193549,0.6215022579930549
27,0.8709677419354839,0.6244799698899073
28,0.9032258064516129,0.6747079035364771
29,0.935483870967742,0.742884177529689
30,0.967741935483871,0.775165175713119
31,1.0,0.7631609541803333
