,Phase,diffMag
0,0.0,0.35764472348831844
1,0.03225806451612903,0.39206320128562294
2,0.06451612903225806,0.4101345428474907
3,0.0967741935483871,0.4117757183053804
4,0.12903225806451613,0.3989320691619283
5,0.16129032258064518,0.3717531317122004
6,0.1935483870967742,0.34396339063924336
7,0.22580645161290322,0.31483145781554267
8,0.25806451612903225,0.27937440354936727
9,0.2903225806451613,0.2420562545681634
10,0.32258064516129037,0.19862185377188654
11,0.3548387096774194,0.1558658069800749
12,0.3870967741935484,0.12245990786483638
13,0.41935483870967744,0.09934039366517008
14,0.45161290322580644,0.08397504735475599
15,0.4838709677419355,0.07439345402765216
16,0.5161290322580645,0.06895053516586193
17,0.5483870967741935,0.06583306099017824
18,0.5806451612903226,0.06430028322436679
19,0.6129032258064516,0.06471214762698621
20,0.6451612903225807,0.06756665796113144
21,0.6774193548387097,0.07314814939683786
22,0.7096774193548387,0.08197068203428803
23,0.7419354838709677,0.09488868731568555
24,0.7741935483870968,0.11199701508238026
25,0.8064516129032259,0.13278651471113165
26,0.8387096774193549,0.15735117282964686
27,0.8709677419354839,0.18575714327208187
28,0.9032258064516129,0.21735391447263216
29,0.935483870967742,0.26064034169219574
30,0.967741935483871,0.313685762725402
31,1.0,0.35764472348831844
