,Phase,diffMag
0,0.0,0.3001075330553234
1,0.03225806451612903,0.3269015201500177
2,0.06451612903225806,0.34237579063703194
3,0.0967741935483871,0.34641640858575956
4,0.12903225806451613,0.3382044873028387
5,0.16129032258064518,0.31635952654241134
6,0.1935483870967742,0.28794675226568717
7,0.22580645161290322,0.2587737894568888
8,0.25806451612903225,0.2264856294026134
9,0.2903225806451613,0.1937664232446759
10,0.32258064516129037,0.15956749722095676
11,0.3548387096774194,0.1279477406112122
12,0.3870967741935484,0.10289431826018978
13,0.41935483870967744,0.0850007216121507
14,0.45161290322580644,0.07285194848886117
15,0.4838709677419355,0.06490026038216727
16,0.5161290322580645,0.05998672960953896
17,0.5483870967741935,0.05729451052917593
18,0.5806451612903226,0.05647035045522857
19,0.6129032258064516,0.05759585402055047
20,0.6451612903225807,0.06089353677269559
21,0.6774193548387097,0.06658695442166648
22,0.7096774193548387,0.07497525863106543
23,0.7419354838709677,0.08645025476389194
24,0.7741935483870968,0.10129678143274087
25,0.8064516129032259,0.11967917461110637
26,0.8387096774193549,0.14171236540411591
27,0.8709677419354839,0.16705852868705776
28,0.9032258064516129,0.19451125685477066
29,0.935483870967742,0.2265152624846158
30,0.967741935483871,0.2654005375646027
31,1.0,0.3001075330553234
