,Phase,diffMag
0,0.0,0.5371673557300063
1,0.03225806451612903,0.5663513130813503
2,0.06451612903225806,0.5393257549764263
3,0.0967741935483871,0.4865281241639829
4,0.12903225806451613,0.46917463994286074
5,0.16129032258064518,0.48967487594650994
6,0.1935483870967742,0.5441177125227594
7,0.22580645161290322,0.5819915238321615
8,0.25806451612903225,0.5778258067185945
9,0.2903225806451613,0.5536338335013244
10,0.32258064516129037,0.46394446598168754
11,0.3548387096774194,0.3626770773223549
12,0.3870967741935484,0.29955750797009606
13,0.41935483870967744,0.2685622695858511
14,0.45161290322580644,0.2570207860986541
15,0.4838709677419355,0.25025653264059255
16,0.5161290322580645,0.23316630407391836
17,0.5483870967741935,0.20499743760546005
18,0.5806451612903226,0.177935786144224
19,0.6129032258064516,0.15969132960790494
20,0.6451612903225807,0.15108488485612875
21,0.6774193548387097,0.15109870687301333
22,0.7096774193548387,0.15744906386255444
23,0.7419354838709677,0.16221988448336216
24,0.7741935483870968,0.15771771743413418
25,0.8064516129032259,0.15226172961092338
26,0.8387096774193549,0.16280496263387081
27,0.8709677419354839,0.1988685636712905
28,0.9032258064516129,0.2669505854930549
29,0.935483870967742,0.37475903705324104
30,0.967741935483871,0.4828596151799778
31,1.0,0.5371673557300063
