,Phase,diffMag
0,0.0,0.34099617552072187
1,0.03225806451612903,0.39611543053709164
2,0.06451612903225806,0.4347263363225028
3,0.0967741935483871,0.45870685504846903
4,0.12903225806451613,0.46552001198831044
5,0.16129032258064518,0.45263021573784706
6,0.1935483870967742,0.431538030775118
7,0.22580645161290322,0.41098185313582514
8,0.25806451612903225,0.3781207604784909
9,0.2903225806451613,0.3251582064914399
10,0.32258064516129037,0.2674169970965363
11,0.3548387096774194,0.22136155417517595
12,0.3870967741935484,0.1893488786016573
13,0.41935483870967744,0.1663879247507869
14,0.45161290322580644,0.14810033148940122
15,0.4838709677419355,0.13256392735945294
16,0.5161290322580645,0.119096354991799
17,0.5483870967741935,0.10734613070637254
18,0.5806451612903226,0.09702466154749431
19,0.6129032258064516,0.0878833683165597
20,0.6451612903225807,0.07976187321294112
21,0.6774193548387097,0.07264719436507493
22,0.7096774193548387,0.06672915778990916
23,0.7419354838709677,0.0626712216932825
24,0.7741935483870968,0.06186213761617001
25,0.8064516129032259,0.06675339607353252
26,0.8387096774193549,0.08047953573043114
27,0.8709677419354839,0.10656074077706143
28,0.9032258064516129,0.14826035551345157
29,0.935483870967742,0.20599986072002524
30,0.967741935483871,0.2744725295542595
31,1.0,0.3409961755207217
