,Phase,diffMag
0,0.0,0.3348317298908693
1,0.03225806451612903,0.49834779588481043
2,0.06451612903225806,0.5275076959487639
3,0.0967741935483871,0.44123494206932307
4,0.12903225806451613,0.3795273875930761
5,0.16129032258064518,0.369931492380946
6,0.1935483870967742,0.4450012907509964
7,0.22580645161290322,0.47542287339224004
8,0.25806451612903225,0.3654896764271873
9,0.2903225806451613,0.2663199117150373
10,0.32258064516129037,0.21688415415118473
11,0.3548387096774194,0.1938411075159675
12,0.3870967741935484,0.1802038661692586
13,0.41935483870967744,0.16795544610305777
14,0.45161290322580644,0.15511925119463815
15,0.4838709677419355,0.14200982944183782
16,0.5161290322580645,0.12911955654034035
17,0.5483870967741935,0.11668361452476263
18,0.5806451612903226,0.10470513054920924
19,0.6129032258064516,0.0930350830449548
20,0.6451612903225807,0.08144918227136155
21,0.6774193548387097,0.0697804052588078
22,0.7096774193548387,0.05825265535019247
23,0.7419354838709677,0.04797061655305634
24,0.7741935483870968,0.04226818995150832
25,0.8064516129032259,0.045404858720479384
26,0.8387096774193549,0.05944120821277933
27,0.8709677419354839,0.08436958645099703
28,0.9032258064516129,0.11963332437711416
29,0.935483870967742,0.16398434020819735
30,0.967741935483871,0.22154185892405703
31,1.0,0.3348317298908692
