,Phase,diffMag
0,0.0,0.201774418889139
1,0.03225806451612903,0.1993282671325911
2,0.06451612903225806,0.1926925296943225
3,0.0967741935483871,0.1847953458097432
4,0.12903225806451613,0.18163486627348233
5,0.16129032258064518,0.18594040664025857
6,0.1935483870967742,0.19470096049418054
7,0.22580645161290322,0.20084253583767647
8,0.25806451612903225,0.2015306040169049
9,0.2903225806451613,0.1980535424872712
10,0.32258064516129037,0.1905963187404731
11,0.3548387096774194,0.1833685585551047
12,0.3870967741935484,0.18202120540617872
13,0.41935483870967744,0.1879670456215159
14,0.45161290322580644,0.19673113954573096
15,0.4838709677419355,0.2014698020204254
16,0.5161290322580645,0.20104839372396424
17,0.5483870967741935,0.19649733527865879
18,0.5806451612903226,0.18850794867813597
19,0.6129032258064516,0.18233297926824307
20,0.6451612903225807,0.18289409798823902
21,0.6774193548387097,0.1901892083423987
22,0.7096774193548387,0.19846792363975696
23,0.7419354838709677,0.20176564705491287
24,0.7741935483870968,0.20032079631713587
25,0.8064516129032259,0.19468953582231224
26,0.8387096774193549,0.18653911339612517
27,0.8709677419354839,0.1817434675578359
28,0.9032258064516129,0.1842204476744223
29,0.935483870967742,0.19247855641186762
30,0.967741935483871,0.19984631825683716
31,1.0,0.201774418889139
