,Phase,diffMag
0,0.0,0.27231966223156495
1,0.03225806451612903,0.2911101101434831
2,0.06451612903225806,0.29264388946792613
3,0.0967741935483871,0.2909301027738475
4,0.12903225806451613,0.29415381296323434
5,0.16129032258064518,0.29980869795724047
6,0.1935483870967742,0.3059623559716618
7,0.22580645161290322,0.3125332407500844
8,0.25806451612903225,0.31294667546700594
9,0.2903225806451613,0.2968868322853829
10,0.32258064516129037,0.2643560265791873
11,0.3548387096774194,0.23101202606537258
12,0.3870967741935484,0.2075317301861635
13,0.41935483870967744,0.19243412913994623
14,0.45161290322580644,0.18118346469586147
15,0.4838709677419355,0.17050281257594369
16,0.5161290322580645,0.15885547062699418
17,0.5483870967741935,0.14635304424297135
18,0.5806451612903226,0.1341859167535087
19,0.6129032258064516,0.12338454040089175
20,0.6451612903225807,0.11420500466811132
21,0.6774193548387097,0.10650217100626211
22,0.7096774193548387,0.10006644415213159
23,0.7419354838709677,0.09465329934639287
24,0.7741935483870968,0.09092024673454356
25,0.8064516129032259,0.09137162767403452
26,0.8387096774193549,0.09958571182081888
27,0.8709677419354839,0.11808388842419378
28,0.9032258064516129,0.1483786706548503
29,0.935483870967742,0.1892064063816046
30,0.967741935483871,0.23448664029882785
31,1.0,0.27231966223156495
