,Phase,diffMag
0,0.0,0.30125298547458884
1,0.03225806451612903,0.3639154051051749
2,0.06451612903225806,0.40963209631128233
3,0.0967741935483871,0.43442319583642564
4,0.12903225806451613,0.43848441695250184
5,0.16129032258064518,0.42244979261272314
6,0.1935483870967742,0.4071373044579556
7,0.22580645161290322,0.39350763635453057
8,0.25806451612903225,0.3606436939042999
9,0.2903225806451613,0.30688105915255054
10,0.32258064516129037,0.25319980008550674
11,0.3548387096774194,0.21288654871463947
12,0.3870967741935484,0.18477281234719656
13,0.41935483870967744,0.16371732252482823
14,0.45161290322580644,0.14637774751901694
15,0.4838709677419355,0.13143267273831027
16,0.5161290322580645,0.11840577451155557
17,0.5483870967741935,0.10701532745437022
18,0.5806451612903226,0.09700048268480078
19,0.6129032258064516,0.08811694578723993
20,0.6451612903225807,0.08018368975426207
21,0.6774193548387097,0.07315291589630213
22,0.7096774193548387,0.06716031810918546
23,0.7419354838709677,0.06268402715628893
24,0.7741935483870968,0.060890806817829005
25,0.8064516129032259,0.0638939801521573
26,0.8387096774193549,0.07445998484850211
27,0.8709677419354839,0.09543658394359071
28,0.9032258064516129,0.1295352692741724
29,0.935483870967742,0.17812220421422023
30,0.967741935483871,0.23808168861346374
31,1.0,0.3012529854745887
