,Phase,diffMag
0,0.0,0.40542588070495
1,0.03225806451612903,0.4412904149297857
2,0.06451612903225806,0.4427983290169127
3,0.0967741935483871,0.4198659952943029
4,0.12903225806451613,0.39428815678580303
5,0.16129032258064518,0.3718417518497538
6,0.1935483870967742,0.3635302344755323
7,0.22580645161290322,0.3524826434755601
8,0.25806451612903225,0.3358507518440804
9,0.2903225806451613,0.31227283667144606
10,0.32258064516129037,0.26382420368444726
11,0.3548387096774194,0.20879886138044373
12,0.3870967741935484,0.17130977609937853
13,0.41935483870967744,0.15013228096536874
14,0.45161290322580644,0.1386248345213878
15,0.4838709677419355,0.13130562200681037
16,0.5161290322580645,0.12300611218440924
17,0.5483870967741935,0.11134652851606891
18,0.5806451612903226,0.0982585980792737
19,0.6129032258064516,0.08679942138713963
20,0.6451612903225807,0.07884476058971486
21,0.6774193548387097,0.07585424186229389
22,0.7096774193548387,0.07909799750126031
23,0.7419354838709677,0.08798326028150698
24,0.7741935483870968,0.10044532447401915
25,0.8064516129032259,0.11640610277058693
26,0.8387096774193549,0.13865635917617378
27,0.8709677419354839,0.16856527669821375
28,0.9032258064516129,0.20867386859872797
29,0.935483870967742,0.275268477082974
30,0.967741935483871,0.3487113331140706
31,1.0,0.40542588070494995
