,Phase,diffMag
0,0.0,0.1711217002510725
1,0.03225806451612903,0.1824342337144264
2,0.06451612903225806,0.1911396871474421
3,0.0967741935483871,0.1964856819288361
4,0.12903225806451613,0.1979859130555661
5,0.16129032258064518,0.19549588710051685
6,0.1935483870967742,0.18925300234146497
7,0.22580645161290322,0.17981597604317004
8,0.25806451612903225,0.16799583109723576
9,0.2903225806451613,0.15480362707178957
10,0.32258064516129037,0.14133945447995638
11,0.3548387096774194,0.12858010817940713
12,0.3870967741935484,0.11717533061850001
13,0.41935483870967744,0.10742423176289888
14,0.45161290322580644,0.09937808801591914
15,0.4838709677419355,0.09295520680508768
16,0.5161290322580645,0.08802705805095255
17,0.5483870967741935,0.08447112497904488
18,0.5806451612903226,0.08219562654073867
19,0.6129032258064516,0.08114475295324108
20,0.6451612903225807,0.08129446541718925
21,0.6774193548387097,0.08264810173751537
22,0.7096774193548387,0.08523710689965742
23,0.7419354838709677,0.0891260838368899
24,0.7741935483870968,0.09441558281422688
25,0.8064516129032259,0.10123291028253997
26,0.8387096774193549,0.10970109323240133
27,0.8709677419354839,0.11987798326794513
28,0.9032258064516129,0.13166183115674218
29,0.935483870967742,0.14467305393405588
30,0.967741935483871,0.1581700195811521
31,1.0,0.17112170025107246
