,Phase,diffMag
0,0.0,0.4438959901480572
1,0.03225806451612903,0.5170668834255728
2,0.06451612903225806,0.5533792088728524
3,0.0967741935483871,0.5620839952447437
4,0.12903225806451613,0.5491570790100894
5,0.16129032258064518,0.5134337321888406
6,0.1935483870967742,0.45746917486125654
7,0.22580645161290322,0.3862178470472324
8,0.25806451612903225,0.3053853387323522
9,0.2903225806451613,0.2273018771907962
10,0.32258064516129037,0.16596272930116696
11,0.3548387096774194,0.12518408970798003
12,0.3870967741935484,0.09980174999431754
13,0.41935483870967744,0.0836309028255578
14,0.45161290322580644,0.07236646921053981
15,0.4838709677419355,0.06362839454090524
16,0.5161290322580645,0.056263707416022095
17,0.5483870967741935,0.04977517808097178
18,0.5806451612903226,0.04403417693521059
19,0.6129032258064516,0.03921709712437477
20,0.6451612903225807,0.03588169474412669
21,0.6774193548387097,0.03497329311699101
22,0.7096774193548387,0.037675471479675926
23,0.7419354838709677,0.04517640522193386
24,0.7741935483870968,0.05861909766268192
25,0.8064516129032259,0.07908266352103438
26,0.8387096774193549,0.10789370242743636
27,0.8709677419354839,0.1466108019880236
28,0.9032258064516129,0.19708889979235691
29,0.935483870967742,0.2632580209097188
30,0.967741935483871,0.34938237299745906
31,1.0,0.4438959901480572
