,Phase,diffMag
0,0.0,0.6726196728562269
1,0.03225806451612903,0.6629538743614916
2,0.06451612903225806,0.5958914211151324
3,0.0967741935483871,0.5136577650310274
4,0.12903225806451613,0.4910617725338705
5,0.16129032258064518,0.5364663307547755
6,0.1935483870967742,0.6280340244344593
7,0.22580645161290322,0.6757230123918504
8,0.25806451612903225,0.6714679068097811
9,0.2903225806451613,0.6531006733156434
10,0.32258064516129037,0.5723415618390683
11,0.3548387096774194,0.5015209507191125
12,0.3870967741935484,0.4961475742547815
13,0.41935483870967744,0.5573803303700916
14,0.45161290322580644,0.6478438113846465
15,0.4838709677419355,0.6759225670202789
16,0.5161290322580645,0.6704705738381719
17,0.5483870967741935,0.638083991219521
18,0.5806451612903226,0.5498346045199441
19,0.6129032258064516,0.49371097118662344
20,0.6451612903225807,0.50547702589689
21,0.6774193548387097,0.58072843633675
22,0.7096774193548387,0.6626810687271626
23,0.7419354838709677,0.6743461820169394
24,0.7741935483870968,0.6682380165000227
25,0.8064516129032259,0.6184902990051441
26,0.8387096774193549,0.5299360990732704
27,0.8709677419354839,0.49023872924384265
28,0.9032258064516129,0.5189888067702486
29,0.935483870967742,0.6049520917746322
30,0.967741935483871,0.6718118855252052
31,1.0,0.6726196728562269
