,Phase,diffMag
0,0.0,0.4608749296679116
1,0.03225806451612903,0.49332050756630097
2,0.06451612903225806,0.5032134293916964
3,0.0967741935483871,0.5010892184667037
4,0.12903225806451613,0.5001984906886839
5,0.16129032258064518,0.501701768763183
6,0.1935483870967742,0.502702336243178
7,0.22580645161290322,0.4870527390247734
8,0.25806451612903225,0.45037877801939036
9,0.2903225806451613,0.397537773366631
10,0.32258064516129037,0.32658058756563896
11,0.3548387096774194,0.26104687722065456
12,0.3870967741935484,0.21554678168336064
13,0.41935483870967744,0.18502628461259663
14,0.45161290322580644,0.162613169474766
15,0.4838709677419355,0.1452055228438121
16,0.5161290322580645,0.13430583618414577
17,0.5483870967741935,0.1289710566467825
18,0.5806451612903226,0.1255396904151306
19,0.6129032258064516,0.12368414913980037
20,0.6451612903225807,0.12396308392522645
21,0.6774193548387097,0.12627334603715265
22,0.7096774193548387,0.13004852901390182
23,0.7419354838709677,0.1363240916085344
24,0.7741935483870968,0.14907046391878817
25,0.8064516129032259,0.1677027816690306
26,0.8387096774193549,0.19168302963242662
27,0.8709677419354839,0.22519229017659606
28,0.9032258064516129,0.27563306171594765
29,0.935483870967742,0.3449718224526541
30,0.967741935483871,0.4127582476235395
31,1.0,0.4608749296679115
