,Phase,diffMag
0,0.0,0.4839474756608301
1,0.03225806451612903,0.5429188896693926
2,0.06451612903225806,0.5590269216687395
3,0.0967741935483871,0.5513369042846926
4,0.12903225806451613,0.5320085674768886
5,0.16129032258064518,0.5006489572776894
6,0.1935483870967742,0.46256005910952247
7,0.22580645161290322,0.4344401777377574
8,0.25806451612903225,0.41348848894078494
9,0.2903225806451613,0.3768680818555488
10,0.32258064516129037,0.3217814967925833
11,0.3548387096774194,0.2705300780870027
12,0.3870967741935484,0.23504606694910202
13,0.41935483870967744,0.21064926246395174
14,0.45161290322580644,0.19069417162749194
15,0.4838709677419355,0.1722452580036681
16,0.5161290322580645,0.15484605797651407
17,0.5483870967741935,0.13852621695239015
18,0.5806451612903226,0.12316910232281385
19,0.6129032258064516,0.10850588129002747
20,0.6451612903225807,0.09425200377940782
21,0.6774193548387097,0.08040934823948499
22,0.7096774193548387,0.06769722538936652
23,0.7419354838709677,0.05812965083017451
24,0.7741935483870968,0.056472576650383154
25,0.8064516129032259,0.06787087083835394
26,0.8387096774193549,0.09545473357605681
27,0.8709677419354839,0.1411278265372583
28,0.9032258064516129,0.20719356801758976
29,0.935483870967742,0.291960192512629
30,0.967741935483871,0.3896967818202962
31,1.0,0.4839474756608299
